EESchema Schematic File Version 2
LIBS:chopek-rescue
LIBS:power
LIBS:device
LIBS:transistors
LIBS:conn
LIBS:linear
LIBS:regul
LIBS:74xx
LIBS:cmos4000
LIBS:adc-dac
LIBS:memory
LIBS:xilinx
LIBS:microcontrollers
LIBS:dsp
LIBS:microchip
LIBS:analog_switches
LIBS:motorola
LIBS:texas
LIBS:intel
LIBS:audio
LIBS:interface
LIBS:digital-audio
LIBS:philips
LIBS:display
LIBS:cypress
LIBS:siliconi
LIBS:opto
LIBS:atmel
LIBS:contrib
LIBS:valves
LIBS:at45db161e-shd-b
LIBS:btm-222
LIBS:derfmega256-23m00
LIBS:hc-05
LIBS:max887
LIBS:mcp73833
LIBS:monitor-cache
LIBS:mos_p
LIBS:sdcard
LIBS:sd-card-con
LIBS:stratification-lc
LIBS:str-lc-cache
LIBS:ufl
LIBS:ltc3631
LIBS:uln2803
LIBS:chopek-cache
EELAYER 25 0
EELAYER END
$Descr A4 11693 8268
encoding utf-8
Sheet 1 1
Title ""
Date "31 mar 2015"
Rev ""
Comp ""
Comment1 ""
Comment2 ""
Comment3 ""
Comment4 ""
$EndDescr
$Comp
L GND #PWR01
U 1 1 533AAFF5
P 1400 6550
F 0 "#PWR01" H 1400 6550 30  0001 C CNN
F 1 "GND" H 1400 6480 30  0001 C CNN
F 2 "" H 1400 6550 60  0001 C CNN
F 3 "" H 1400 6550 60  0001 C CNN
	1    1400 6550
	1    0    0    -1  
$EndComp
Text Label 2950 5300 2    60   ~ 0
VCC
Text Label 2950 5500 2    60   ~ 0
GND
Text Label 2950 5100 2    60   ~ 0
SPI_nSDCS
Text Label 2950 5600 2    60   ~ 0
SPI_MISO
Text Label 2950 5400 2    60   ~ 0
SPI_SCK
Text Label 2950 5200 2    60   ~ 0
SPI_MOSI
$Comp
L SD-CARD-CON C8
U 1 1 533AAD38
P 2350 5000
F 0 "C8" H 2750 4000 60  0000 C CNN
F 1 "MCC-SDMICRO/2" H 3000 5100 60  0000 C CNN
F 2 "uSDCARD:uSDCARD" H 2350 5000 60  0001 C CNN
F 3 "" H 2350 5000 60  0001 C CNN
	1    2350 5000
	-1   0    0    -1  
$EndComp
Text Label 2700 7100 2    60   ~ 0
VCC
Text Label 2700 7400 2    60   ~ 0
GND
Text Label 2700 7000 2    60   ~ 0
GND
Text Label 1200 7000 0    60   ~ 0
JTAG_TCK
Text Label 1200 7100 0    60   ~ 0
JTAG_TDO
Text Label 1200 7400 0    60   ~ 0
JTAG_TDI
Text Label 1200 7200 0    60   ~ 0
JTAG_TMS
$Comp
L AVR-JTAG-10 CON1
U 1 1 51C49800
P 2100 7200
F 0 "CON1" H 1930 7530 50  0000 C CNN
F 1 "AVR-JTAG-10" H 1760 6870 50  0000 L BNN
F 2 "ZL322-2X5P:ZL322-2X5P" V 1530 7220 50  0001 C CNN
F 3 "" H 2100 7200 60  0001 C CNN
	1    2100 7200
	1    0    0    -1  
$EndComp
Text Label 4800 2200 3    60   ~ 0
JTAG_TCK
Text Label 5000 2200 3    60   ~ 0
JTAG_TDO
Text Label 4900 2200 3    60   ~ 0
JTAG_TMS
Text Label 5100 2200 3    60   ~ 0
JTAG_TDI
$Comp
L MCP121 U2
U 1 1 530BAEB8
P 7400 1300
F 0 "U2" V 7450 1500 60  0000 C CNN
F 1 "MCP121T-270E/TT" V 7850 1300 50  0000 C CNN
F 2 "Housings_SOT-23_SOT-143_TSOT-6:SOT-23_Handsoldering" H 7400 1300 60  0001 C CNN
F 3 "" H 7400 1300 60  0001 C CNN
	1    7400 1300
	-1   0    0    -1  
$EndComp
Text Label 4700 5500 1    60   ~ 0
~RST
Text Label 2700 7200 2    60   ~ 0
~RST
$Comp
L SW_PUSH_SMALL SW1
U 1 1 530BAED9
P 7700 1500
F 0 "SW1" H 7850 1610 30  0000 C CNN
F 1 "TACTM-64N-F" H 7550 1450 30  0000 C CNN
F 2 "TACTM-64N-F:TACTM-64N-F" H 7450 1350 60  0001 C CNN
F 3 "~" H 7700 1500 60  0000 C CNN
	1    7700 1500
	1    0    0    -1  
$EndComp
Text Label 2050 2550 0    60   ~ 0
RX
Text Label 2050 2650 0    60   ~ 0
TX
Text Label 2050 2450 0    60   ~ 0
GND
Text Label 7450 3550 2    60   ~ 0
RX
Text Label 7450 3650 2    60   ~ 0
TX
$Comp
L GND #PWR02
U 1 1 530BB6BD
P 1750 3600
F 0 "#PWR02" H 1750 3600 30  0001 C CNN
F 1 "GND" H 1750 3530 30  0001 C CNN
F 2 "" H 1750 3600 60  0001 C CNN
F 3 "" H 1750 3600 60  0001 C CNN
	1    1750 3600
	1    0    0    -1  
$EndComp
$Comp
L C-RESCUE-chopek C7
U 1 1 530BB6C3
P 1750 3300
F 0 "C7" V 1800 3400 50  0000 L CNN
F 1 "100nF" V 1800 3000 50  0000 L CNN
F 2 "Capacitors_SMD:C_0805_HandSoldering" H 1750 3300 60  0001 C CNN
F 3 "" H 1750 3300 60  0001 C CNN
	1    1750 3300
	1    0    0    -1  
$EndComp
$Comp
L GND #PWR03
U 1 1 530BB6C9
P 1350 3600
F 0 "#PWR03" H 1350 3600 30  0001 C CNN
F 1 "GND" H 1350 3530 30  0001 C CNN
F 2 "" H 1350 3600 60  0001 C CNN
F 3 "" H 1350 3600 60  0001 C CNN
	1    1350 3600
	1    0    0    -1  
$EndComp
$Comp
L R-RESCUE-chopek R13
U 1 1 530BB6CF
P 1350 3300
F 0 "R13" V 1430 3300 50  0000 C CNN
F 1 "10k 2%" V 1250 3300 50  0000 C CNN
F 2 "Resistors_SMD:R_0805_HandSoldering" H 1350 3300 60  0001 C CNN
F 3 "" H 1350 3300 60  0001 C CNN
	1    1350 3300
	1    0    0    -1  
$EndComp
Text Label 2200 3000 2    60   ~ 0
BATT_DIV
Text Label 5600 2200 3    60   ~ 0
BATT_DIV
Text Label 6500 5500 1    60   ~ 0
SPI_SCK
Text Label 7450 4150 2    60   ~ 0
SPI_MISO
Text Label 6400 5500 1    60   ~ 0
SPI_MOSI
$Comp
L VCC #PWR04
U 1 1 531B651F
P 9900 1050
F 0 "#PWR04" H 9900 1150 30  0001 C CNN
F 1 "VCC" H 9900 1150 30  0000 C CNN
F 2 "" H 9900 1050 60  0001 C CNN
F 3 "" H 9900 1050 60  0001 C CNN
	1    9900 1050
	1    0    0    -1  
$EndComp
$Comp
L R-RESCUE-chopek R7
U 1 1 531B6525
P 9450 1450
F 0 "R7" V 9500 1150 50  0000 C CNN
F 1 "330R" V 9450 1450 50  0000 C CNN
F 2 "Resistors_SMD:R_0805_HandSoldering" H 9450 1450 60  0001 C CNN
F 3 "" H 9450 1450 60  0001 C CNN
	1    9450 1450
	0    -1   -1   0   
$EndComp
$Comp
L R-RESCUE-chopek R6
U 1 1 531B652B
P 9450 1350
F 0 "R6" V 9500 1050 50  0000 C CNN
F 1 "330R" V 9450 1350 50  0000 C CNN
F 2 "Resistors_SMD:R_0805_HandSoldering" H 9450 1350 60  0001 C CNN
F 3 "" H 9450 1350 60  0001 C CNN
	1    9450 1350
	0    -1   -1   0   
$EndComp
$Comp
L R-RESCUE-chopek R3
U 1 1 531B6531
P 9450 1150
F 0 "R3" V 9500 850 50  0000 C CNN
F 1 "330R" V 9450 1150 50  0000 C CNN
F 2 "Resistors_SMD:R_0805_HandSoldering" H 9450 1150 60  0001 C CNN
F 3 "" H 9450 1150 60  0001 C CNN
	1    9450 1150
	0    -1   -1   0   
$EndComp
$Comp
L RGB_LED L2
U 1 1 531B6537
P 10050 1250
F 0 "L2" H 10200 900 60  0000 C CNN
F 1 "HB5-40ARAAGCABC" V 10650 1150 60  0000 C CNN
F 2 "LEDs:LED-RGB-5MM_Common_Cathode" H 10050 1250 60  0001 C CNN
F 3 "" H 10050 1250 60  0001 C CNN
	1    10050 1250
	1    0    0    -1  
$EndComp
Text Label 8750 1150 0    60   ~ 0
~LED_R
Text Label 8750 1350 0    60   ~ 0
~LED_G
Text Label 8750 1450 0    60   ~ 0
~LED_B
Text Label 7650 3450 0    60   ~ 0
LED_ALRM
Text Label 6400 2200 3    60   ~ 0
~LED_R
Text Label 6300 2200 3    60   ~ 0
~LED_G
Text Label 6200 2200 3    60   ~ 0
~LED_B
Text Label 4500 2200 3    60   ~ 0
GND
Text Label 4700 2200 3    60   ~ 0
GND
Text Label 5200 2200 3    60   ~ 0
GND
Text Label 4400 5500 1    60   ~ 0
GND
Text Label 4600 2200 3    60   ~ 0
VCC
Text Label 4500 5500 1    60   ~ 0
VCC
Text Label 6500 2200 3    60   ~ 0
GND
$Comp
L C-RESCUE-chopek C9
U 1 1 53246A3D
P 6250 1200
F 0 "C9" H 6250 1300 40  0000 L CNN
F 1 "100nF" H 6256 1115 40  0000 L CNN
F 2 "Capacitors_SMD:C_0805_HandSoldering" H 6288 1050 30  0001 C CNN
F 3 "~" H 6250 1200 60  0000 C CNN
	1    6250 1200
	1    0    0    -1  
$EndComp
Text Notes 1750 7650 0    60   ~ 0
ZL322-2X5P
$Comp
L CP1-RESCUE-chopek C10
U 1 1 53249D18
P 6600 1200
F 0 "C10" V 6550 950 50  0000 L CNN
F 1 "10uF/6V" V 6800 1050 50  0000 L CNN
F 2 "Capacitors_Tantalum_SMD:TantalC_SizeA_EIA-3216_HandSoldering" H 6600 1200 60  0001 C CNN
F 3 "" H 6600 1200 60  0001 C CNN
	1    6600 1200
	1    0    0    -1  
$EndComp
Text Label 7450 3750 2    60   ~ 0
LED_ALRM
Text Notes 6200 2100 1    60   ~ 0
PWM
Text Notes 6300 2100 1    60   ~ 0
PWM
Text Notes 6400 2100 1    60   ~ 0
PWM
Text Label 5800 5500 1    60   ~ 0
SPI_nSDCS
NoConn ~ 2350 5000
NoConn ~ 2350 5700
Text Label 2950 5900 2    60   ~ 0
GND
Text Label 6100 5500 1    60   ~ 0
CARD_INSERT
Text Label 2950 5800 2    60   ~ 0
CARD_INSERT
Text Label 5900 5500 1    60   ~ 0
SCL
Text Label 6000 5500 1    60   ~ 0
SDA
Text Label 4600 5500 1    60   ~ 0
GND
$Comp
L DERFMEGA256-23M00 U5
U 1 1 558FD80D
P 4400 4950
F 0 "U5" H 5000 5900 60  0000 C CNN
F 1 "DERFMEGA256-23M00" H 5050 6000 60  0000 C CNN
F 2 "monitor:DERFMEGA256-23M00" H 5000 6300 60  0001 C CNN
F 3 "" H 5000 6300 60  0000 C CNN
	1    4400 4950
	1    0    0    -1  
$EndComp
$Comp
L C-RESCUE-chopek C6
U 1 1 5594A3D6
P 3500 1400
F 0 "C6" V 3450 1500 50  0000 L CNN
F 1 "10nF" V 3450 1150 50  0000 L CNN
F 2 "Capacitors_SMD:C_0805_HandSoldering" H 3538 1250 30  0001 C CNN
F 3 "" H 3500 1400 60  0000 C CNN
	1    3500 1400
	1    0    0    -1  
$EndComp
$Comp
L CAPAPOL C4
U 1 1 5594B8E2
P 5550 1200
F 0 "C4" V 5600 1300 50  0000 L CNN
F 1 "22uF/tnt" V 5400 1050 50  0000 L CNN
F 2 "Capacitors_Tantalum_SMD:TantalC_SizeC_EIA-6032_HandSoldering" H 5650 1050 30  0001 C CNN
F 3 "" H 5550 1200 300 0000 C CNN
	1    5550 1200
	1    0    0    -1  
$EndComp
$Comp
L CAPAPOL C5
U 1 1 559ACD03
P 5950 1200
F 0 "C5" V 6000 1300 50  0000 L CNN
F 1 "220uF/6.3V" V 5800 950 50  0000 L CNN
F 2 "Capacitors_SMD:c_elec_6.3x5.8" H 6050 1050 30  0001 C CNN
F 3 "UWT0J221MCL6GS" H 5950 1200 300 0001 C CNN
	1    5950 1200
	1    0    0    -1  
$EndComp
Text Label 3700 3100 3    60   ~ 0
GND
Text Label 3000 3100 3    60   ~ 0
SCL
Text Label 2900 3100 3    60   ~ 0
SDA
Text Label 2600 3100 3    60   ~ 0
VCC
Text Label 7850 1300 2    60   ~ 0
~RST
Text Label 5700 2200 3    60   ~ 0
AREF
$Comp
L CONN_01X03 P2
U 1 1 55D6F150
P 2650 2550
F 0 "P2" H 2650 2750 50  0000 C CNN
F 1 "CONN_01X03" V 2750 2550 50  0000 C CNN
F 2 "Pin_Headers:Pin_Header_Straight_1x03" H 2650 2550 60  0001 C CNN
F 3 "" H 2650 2550 60  0000 C CNN
	1    2650 2550
	1    0    0    -1  
$EndComp
NoConn ~ 6100 2750
NoConn ~ 6000 2750
NoConn ~ 5700 4950
$Comp
L LTC3631 U1
U 1 1 55E064DE
P 4400 900
F 0 "U1" H 3900 1100 60  0000 C CNN
F 1 "LTC3631IMS8EPBF" H 3950 1000 60  0000 C CNN
F 2 "Housings_SSOP:MSOP-8-1EP_3x3mm_Pitch0.65mm" H 3850 800 60  0001 C CNN
F 3 "" H 3850 800 60  0000 C CNN
	1    4400 900 
	1    0    0    -1  
$EndComp
$Comp
L INDUCTOR_SMALL L1
U 1 1 55E06ABC
P 4800 900
F 0 "L1" H 4750 850 50  0000 C CNN
F 1 "220-470uH DE0703-220 - 470" H 5100 1100 50  0000 C CNN
F 2 "DE1205:DE0703" H 4800 900 60  0001 C CNN
F 3 "" H 4800 900 60  0000 C CNN
	1    4800 900 
	1    0    0    -1  
$EndComp
$Comp
L R-RESCUE-chopek R2
U 1 1 55E06CAC
P 4800 1150
F 0 "R2" V 4880 1150 50  0000 C CNN
F 1 "301k" V 4807 1151 50  0000 C CNN
F 2 "Resistors_SMD:R_0805_HandSoldering" V 4730 1150 30  0001 C CNN
F 3 "" H 4800 1150 30  0000 C CNN
	1    4800 1150
	0    1    1    0   
$EndComp
$Comp
L R-RESCUE-chopek R5
U 1 1 55E06DCF
P 4800 1350
F 0 "R5" V 4880 1350 50  0000 C CNN
F 1 "95,3k" V 4807 1351 50  0000 C CNN
F 2 "Resistors_SMD:R_0805_HandSoldering" V 4730 1350 30  0001 C CNN
F 3 "" H 4800 1350 30  0000 C CNN
	1    4800 1350
	0    1    1    0   
$EndComp
$Comp
L GND #PWR05
U 1 1 55E08B43
P 5950 1650
F 0 "#PWR05" H 5950 1400 60  0001 C CNN
F 1 "GND" H 5950 1500 60  0000 C CNN
F 2 "" H 5950 1650 60  0000 C CNN
F 3 "" H 5950 1650 60  0000 C CNN
	1    5950 1650
	1    0    0    -1  
$EndComp
$Comp
L GND #PWR06
U 1 1 55E08BCF
P 5550 1650
F 0 "#PWR06" H 5550 1400 60  0001 C CNN
F 1 "GND" H 5550 1500 60  0000 C CNN
F 2 "" H 5550 1650 60  0000 C CNN
F 3 "" H 5550 1650 60  0000 C CNN
	1    5550 1650
	1    0    0    -1  
$EndComp
$Comp
L GND #PWR07
U 1 1 55E08C17
P 5150 1650
F 0 "#PWR07" H 5150 1400 60  0001 C CNN
F 1 "GND" H 5150 1500 60  0000 C CNN
F 2 "" H 5150 1650 60  0000 C CNN
F 3 "" H 5150 1650 60  0000 C CNN
	1    5150 1650
	1    0    0    -1  
$EndComp
$Comp
L GND #PWR08
U 1 1 55E08C5F
P 4000 1650
F 0 "#PWR08" H 4000 1400 60  0001 C CNN
F 1 "GND" H 4000 1500 60  0000 C CNN
F 2 "" H 4000 1650 60  0000 C CNN
F 3 "" H 4000 1650 60  0000 C CNN
	1    4000 1650
	1    0    0    -1  
$EndComp
$Comp
L VCC #PWR09
U 1 1 55E0910D
P 6100 850
F 0 "#PWR09" H 6100 950 30  0001 C CNN
F 1 "VCC" H 6100 950 30  0000 C CNN
F 2 "" H 6100 850 60  0001 C CNN
F 3 "" H 6100 850 60  0001 C CNN
	1    6100 850 
	1    0    0    -1  
$EndComp
$Comp
L GND #PWR010
U 1 1 55E0A319
P 2600 1650
F 0 "#PWR010" H 2600 1400 60  0001 C CNN
F 1 "GND" H 2600 1500 60  0000 C CNN
F 2 "" H 2600 1650 60  0000 C CNN
F 3 "" H 2600 1650 60  0000 C CNN
	1    2600 1650
	1    0    0    -1  
$EndComp
$Comp
L GND #PWR011
U 1 1 55E0A35F
P 3500 1650
F 0 "#PWR011" H 3500 1400 60  0001 C CNN
F 1 "GND" H 3500 1500 60  0000 C CNN
F 2 "" H 3500 1650 60  0000 C CNN
F 3 "" H 3500 1650 60  0000 C CNN
	1    3500 1650
	1    0    0    -1  
$EndComp
$Comp
L CONN_01X02 P1
U 1 1 55E4A3A1
P 1000 950
F 0 "P1" H 1000 1100 50  0000 C CNN
F 1 "BATTERY" V 1100 950 50  0000 C CNN
F 2 "Connect:AK300-2" H 1000 950 60  0001 C CNN
F 3 "" H 1000 950 60  0000 C CNN
	1    1000 950 
	-1   0    0    -1  
$EndComp
$Comp
L FUSE F1
U 1 1 55E4A6D3
P 1600 900
F 0 "F1" H 1700 950 50  0000 C CNN
F 1 "SD150-06 1.5A" H 1550 1050 50  0000 C CNN
F 2 "Resistors_SMD:R_1812_HandSoldering" H 1600 900 60  0001 C CNN
F 3 "" H 1600 900 60  0000 C CNN
	1    1600 900 
	1    0    0    -1  
$EndComp
$Comp
L DIODE D1
U 1 1 55E4A76F
P 1950 1300
F 0 "D1" H 1950 1400 50  0000 C CNN
F 1 "ER3A-DIO 3A" H 1950 1200 50  0000 C CNN
F 2 "Diodes_SMD:DO-214AB_Handsoldering" H 1950 1300 60  0001 C CNN
F 3 "" H 1950 1300 60  0000 C CNN
	1    1950 1300
	0    -1   -1   0   
$EndComp
$Comp
L GND #PWR012
U 1 1 55E4AF05
P 1350 1650
F 0 "#PWR012" H 1350 1400 60  0001 C CNN
F 1 "GND" H 1350 1500 60  0000 C CNN
F 2 "" H 1350 1650 60  0000 C CNN
F 3 "" H 1350 1650 60  0000 C CNN
	1    1350 1650
	1    0    0    -1  
$EndComp
$Comp
L GND #PWR013
U 1 1 55E4AF8C
P 1950 1650
F 0 "#PWR013" H 1950 1400 60  0001 C CNN
F 1 "GND" H 1950 1500 60  0000 C CNN
F 2 "" H 1950 1650 60  0000 C CNN
F 3 "" H 1950 1650 60  0000 C CNN
	1    1950 1650
	1    0    0    -1  
$EndComp
$Comp
L R-RESCUE-chopek R10
U 1 1 55E4D093
P 1350 2600
F 0 "R10" V 1430 2600 50  0000 C CNN
F 1 "301k" V 1357 2601 50  0000 C CNN
F 2 "Resistors_SMD:R_0805_HandSoldering" V 1280 2600 30  0001 C CNN
F 3 "" H 1350 2600 30  0000 C CNN
	1    1350 2600
	-1   0    0    1   
$EndComp
$Comp
L +12V #PWR014
U 1 1 55E4D6FF
P 2400 850
F 0 "#PWR014" H 2400 700 60  0001 C CNN
F 1 "+12V" H 2400 990 60  0000 C CNN
F 2 "" H 2400 850 60  0000 C CNN
F 3 "" H 2400 850 60  0000 C CNN
	1    2400 850 
	1    0    0    -1  
$EndComp
$Comp
L +12V #PWR015
U 1 1 55E4D755
P 1350 2300
F 0 "#PWR015" H 1350 2150 60  0001 C CNN
F 1 "+12V" H 1350 2440 60  0000 C CNN
F 2 "" H 1350 2300 60  0000 C CNN
F 3 "" H 1350 2300 60  0000 C CNN
	1    1350 2300
	1    0    0    -1  
$EndComp
$Comp
L +12V #PWR016
U 1 1 55E73D1B
P 9500 4400
F 0 "#PWR016" H 9500 4250 60  0001 C CNN
F 1 "+12V" H 9500 4540 60  0000 C CNN
F 2 "" H 9500 4400 60  0000 C CNN
F 3 "" H 9500 4400 60  0000 C CNN
	1    9500 4400
	1    0    0    -1  
$EndComp
$Comp
L GND #PWR017
U 1 1 55E76F7F
P 7100 1650
F 0 "#PWR017" H 7100 1400 60  0001 C CNN
F 1 "GND" H 7100 1500 60  0000 C CNN
F 2 "" H 7100 1650 60  0000 C CNN
F 3 "" H 7100 1650 60  0000 C CNN
	1    7100 1650
	1    0    0    -1  
$EndComp
$Comp
L GND #PWR018
U 1 1 55E76FD7
P 6250 1650
F 0 "#PWR018" H 6250 1400 60  0001 C CNN
F 1 "GND" H 6250 1500 60  0000 C CNN
F 2 "" H 6250 1650 60  0000 C CNN
F 3 "" H 6250 1650 60  0000 C CNN
	1    6250 1650
	1    0    0    -1  
$EndComp
Text Label 7650 3000 0    60   ~ 0
LED_WARN
Text Label 7650 2500 0    60   ~ 0
LED_OK
Text Label 7450 3850 2    60   ~ 0
LED_WARN
Text Label 7450 3950 2    60   ~ 0
LED_OK
Text Label 5200 5500 1    60   ~ 0
BUZZER
Text Label 5500 2200 3    60   ~ 0
ADC1
Text Label 3600 3100 3    60   ~ 0
ADC1
Text Label 5900 2200 3    60   ~ 0
PD4
Text Label 3400 3100 3    60   ~ 0
PD4
$Comp
L CP-RESCUE-chopek C1
U 1 1 55EF42BF
P 2250 1200
F 0 "C1" V 2200 950 50  0000 L CNN
F 1 "UWT1E471MNL1GS  470u/25" V 2400 350 50  0000 L CNN
F 2 "Capacitors_SMD:c_elec_10x10.5" H 2350 1050 30  0001 C CNN
F 3 "" H 2250 1200 300 0000 C CNN
	1    2250 1200
	1    0    0    -1  
$EndComp
$Comp
L GND #PWR019
U 1 1 55EF42C6
P 2250 1650
F 0 "#PWR019" H 2250 1400 60  0001 C CNN
F 1 "GND" H 2250 1500 60  0000 C CNN
F 2 "" H 2250 1650 60  0000 C CNN
F 3 "" H 2250 1650 60  0000 C CNN
	1    2250 1650
	1    0    0    -1  
$EndComp
$Comp
L R-RESCUE-chopek R4
U 1 1 55F08339
P 3150 1350
F 0 "R4" V 3230 1350 50  0000 C CNN
F 1 "R" V 3157 1351 50  0000 C CNN
F 2 "Resistors_SMD:R_0805_HandSoldering" V 3080 1350 30  0001 C CNN
F 3 "" H 3150 1350 30  0000 C CNN
	1    3150 1350
	1    0    0    -1  
$EndComp
$Comp
L GND #PWR020
U 1 1 55F0864E
P 3150 1650
F 0 "#PWR020" H 3150 1400 60  0001 C CNN
F 1 "GND" H 3150 1500 60  0000 C CNN
F 2 "" H 3150 1650 60  0000 C CNN
F 3 "" H 3150 1650 60  0000 C CNN
	1    3150 1650
	1    0    0    -1  
$EndComp
$Comp
L CONN_01X12 P4
U 1 1 55F0B31C
P 3150 3800
F 0 "P4" H 3150 4450 50  0000 C CNN
F 1 "TMM-6-0-12-2" V 3250 3800 50  0000 C CNN
F 2 "monitor:TMM-6-0-12-2" H 3150 3800 60  0001 C CNN
F 3 "" H 3150 3800 60  0000 C CNN
	1    3150 3800
	0    1    1    0   
$EndComp
$Comp
L +12V #PWR021
U 1 1 55F0BD14
P 2700 3100
F 0 "#PWR021" H 2700 2950 60  0001 C CNN
F 1 "+12V" H 2700 3240 60  0000 C CNN
F 2 "" H 2700 3100 60  0000 C CNN
F 3 "" H 2700 3100 60  0000 C CNN
	1    2700 3100
	1    0    0    -1  
$EndComp
$Comp
L CP-RESCUE-chopek C2
U 1 1 55F1CCC8
P 2600 1200
F 0 "C2" V 2550 950 50  0000 L CNN
F 1 "UWT1E471MNL1GS  470u/25" V 2750 350 50  0000 L CNN
F 2 "Capacitors_SMD:c_elec_10x10.5" H 2700 1050 30  0001 C CNN
F 3 "" H 2600 1200 300 0000 C CNN
	1    2600 1200
	1    0    0    -1  
$EndComp
$Comp
L CP-RESCUE-chopek C3
U 1 1 55F1CFF0
P 2900 1200
F 0 "C3" V 2850 950 50  0000 L CNN
F 1 "T491C226K025AT 22uF/25V" V 3050 350 50  0000 L CNN
F 2 "Capacitors_Tantalum_SMD:TantalC_SizeC_EIA-6032_HandSoldering" H 3000 1050 30  0001 C CNN
F 3 "" H 2900 1200 300 0000 C CNN
	1    2900 1200
	1    0    0    -1  
$EndComp
$Comp
L GND #PWR022
U 1 1 55F1D00D
P 2900 1650
F 0 "#PWR022" H 2900 1400 60  0001 C CNN
F 1 "GND" H 2900 1500 60  0000 C CNN
F 2 "" H 2900 1650 60  0000 C CNN
F 3 "" H 2900 1650 60  0000 C CNN
	1    2900 1650
	1    0    0    -1  
$EndComp
Text Label 5800 2200 3    60   ~ 0
AVDDOUT
Text Label 3500 3100 3    60   ~ 0
AVDDOUT
$Comp
L GND #PWR023
U 1 1 55FABED7
P 9350 4600
F 0 "#PWR023" H 9350 4350 60  0001 C CNN
F 1 "GND" H 9350 4450 60  0000 C CNN
F 2 "" H 9350 4600 60  0000 C CNN
F 3 "" H 9350 4600 60  0000 C CNN
	1    9350 4600
	1    0    0    -1  
$EndComp
$Comp
L TLP222A-RESCUE-chopek IC1
U 1 1 560D4146
P 9750 2500
F 0 "IC1" H 9540 2690 40  0000 C CNN
F 1 "G3VM-61G1" H 9800 2300 40  0000 C CNN
F 2 "Opto-Devices:Optocoupler_SMD_HandSoldering_KPC357_LTV35x_PC357_SingleChannel" H 9550 2320 30  0000 C CIN
F 3 "" H 9750 2500 60  0000 C CNN
	1    9750 2500
	1    0    0    -1  
$EndComp
$Comp
L LED-RESCUE-chopek D2
U 1 1 560D62CD
P 9050 2500
F 0 "D2" H 8850 2450 50  0000 C CNN
F 1 "KP-2012SGD - G" H 8950 2400 50  0000 C CNN
F 2 "LEDs:LED-0805" H 9050 2500 60  0001 C CNN
F 3 "" H 9050 2500 60  0001 C CNN
	1    9050 2500
	1    0    0    -1  
$EndComp
$Comp
L R-RESCUE-chopek R9
U 1 1 560D63DE
P 8500 2400
F 0 "R9" V 8550 2650 50  0000 C CNN
F 1 "330R" V 8500 2400 50  0000 C CNN
F 2 "Resistors_SMD:R_0805_HandSoldering" H 8500 2400 60  0001 C CNN
F 3 "" H 8500 2400 60  0001 C CNN
	1    8500 2400
	0    -1   -1   0   
$EndComp
$Comp
L R-RESCUE-chopek R8
U 1 1 560D6478
P 8500 2500
F 0 "R8" V 8550 2750 50  0000 C CNN
F 1 "330R" V 8500 2500 50  0000 C CNN
F 2 "Resistors_SMD:R_0805_HandSoldering" H 8500 2500 60  0001 C CNN
F 3 "" H 8500 2500 60  0001 C CNN
	1    8500 2500
	0    -1   -1   0   
$EndComp
$Comp
L TLP222A-RESCUE-chopek IC2
U 1 1 560D74A3
P 9750 3000
F 0 "IC2" H 9540 3190 40  0000 C CNN
F 1 "G3VM-61G1" H 9800 2800 40  0000 C CNN
F 2 "Opto-Devices:Optocoupler_SMD_HandSoldering_KPC357_LTV35x_PC357_SingleChannel" H 9550 2820 30  0000 C CIN
F 3 "" H 9750 3000 60  0000 C CNN
	1    9750 3000
	1    0    0    -1  
$EndComp
$Comp
L R-RESCUE-chopek R12
U 1 1 560D74AF
P 8500 2900
F 0 "R12" V 8550 3150 50  0000 C CNN
F 1 "330R" V 8500 2900 50  0000 C CNN
F 2 "Resistors_SMD:R_0805_HandSoldering" H 8500 2900 60  0001 C CNN
F 3 "" H 8500 2900 60  0001 C CNN
	1    8500 2900
	0    -1   -1   0   
$EndComp
$Comp
L R-RESCUE-chopek R11
U 1 1 560D74B5
P 8500 3000
F 0 "R11" V 8550 3250 50  0000 C CNN
F 1 "330R" V 8500 3000 50  0000 C CNN
F 2 "Resistors_SMD:R_0805_HandSoldering" H 8500 3000 60  0001 C CNN
F 3 "" H 8500 3000 60  0001 C CNN
	1    8500 3000
	0    -1   -1   0   
$EndComp
$Comp
L TLP222A-RESCUE-chopek IC3
U 1 1 560D771C
P 9750 3450
F 0 "IC3" H 9540 3640 40  0000 C CNN
F 1 "G3VM-61G1" H 9800 3250 40  0000 C CNN
F 2 "Opto-Devices:Optocoupler_SMD_HandSoldering_KPC357_LTV35x_PC357_SingleChannel" H 9550 3270 30  0000 C CIN
F 3 "" H 9750 3450 60  0000 C CNN
	1    9750 3450
	1    0    0    -1  
$EndComp
$Comp
L R-RESCUE-chopek R15
U 1 1 560D7728
P 8500 3350
F 0 "R15" V 8550 3600 50  0000 C CNN
F 1 "330R" V 8500 3350 50  0000 C CNN
F 2 "Resistors_SMD:R_0805_HandSoldering" H 8500 3350 60  0001 C CNN
F 3 "" H 8500 3350 60  0001 C CNN
	1    8500 3350
	0    -1   -1   0   
$EndComp
$Comp
L R-RESCUE-chopek R14
U 1 1 560D772E
P 8500 3450
F 0 "R14" V 8550 3700 50  0000 C CNN
F 1 "330R" V 8500 3450 50  0000 C CNN
F 2 "Resistors_SMD:R_0805_HandSoldering" H 8500 3450 60  0001 C CNN
F 3 "" H 8500 3450 60  0001 C CNN
	1    8500 3450
	0    -1   -1   0   
$EndComp
$Comp
L TLP222A-RESCUE-chopek IC4
U 1 1 560D7738
P 9750 3950
F 0 "IC4" H 9540 4140 40  0000 C CNN
F 1 "G3VM-61G1" H 9800 3750 40  0000 C CNN
F 2 "Opto-Devices:Optocoupler_SMD_HandSoldering_KPC357_LTV35x_PC357_SingleChannel" H 9550 3770 30  0000 C CIN
F 3 "" H 9750 3950 60  0000 C CNN
	1    9750 3950
	1    0    0    -1  
$EndComp
$Comp
L R-RESCUE-chopek R17
U 1 1 560D7744
P 8500 3850
F 0 "R17" V 8550 4100 50  0000 C CNN
F 1 "330R" V 8500 3850 50  0000 C CNN
F 2 "Resistors_SMD:R_0805_HandSoldering" H 8500 3850 60  0001 C CNN
F 3 "" H 8500 3850 60  0001 C CNN
	1    8500 3850
	0    -1   -1   0   
$EndComp
$Comp
L LED-RESCUE-chopek D3
U 1 1 560D79D5
P 9050 3000
F 0 "D3" H 8850 2950 50  0000 C CNN
F 1 "KP-2012YD - Y" H 8950 2900 50  0000 C CNN
F 2 "LEDs:LED-0805" H 9050 3000 60  0001 C CNN
F 3 "" H 9050 3000 60  0001 C CNN
	1    9050 3000
	1    0    0    -1  
$EndComp
$Comp
L LED-RESCUE-chopek D4
U 1 1 560D7AC6
P 9050 3450
F 0 "D4" H 8850 3400 50  0000 C CNN
F 1 "KP-2012ID - R" H 8950 3350 50  0000 C CNN
F 2 "LEDs:LED-0805" H 9050 3450 60  0001 C CNN
F 3 "" H 9050 3450 60  0001 C CNN
	1    9050 3450
	1    0    0    -1  
$EndComp
$Comp
L LED-RESCUE-chopek D5
U 1 1 560D7C35
P 9050 3950
F 0 "D5" H 8850 3900 50  0000 C CNN
F 1 "KP-2012ID - R" H 8950 3850 50  0000 C CNN
F 2 "LEDs:LED-0805" H 9050 3950 60  0001 C CNN
F 3 "" H 9050 3950 60  0001 C CNN
	1    9050 3950
	1    0    0    -1  
$EndComp
$Comp
L CONN_01X10 P3
U 1 1 560D9149
P 10800 2650
F 0 "P3" H 10800 3200 50  0000 C CNN
F 1 "TMM-6-0-10-2" V 10900 2650 50  0000 C CNN
F 2 "monitor:TMM-6-0-10-2" H 10800 2650 60  0001 C CNN
F 3 "" H 10800 2650 60  0000 C CNN
	1    10800 2650
	1    0    0    -1  
$EndComp
Text Label 7650 3950 0    60   ~ 0
BUZZER
$Comp
L CONN_02X02 P5
U 1 1 560DCB13
P 9800 4500
F 0 "P5" H 9800 4650 50  0000 C CNN
F 1 "CONN_02X02" H 9800 4350 50  0000 C CNN
F 2 "Pin_Headers:Pin_Header_Straight_2x02" H 9800 3300 60  0001 C CNN
F 3 "" H 9800 3300 60  0000 C CNN
	1    9800 4500
	-1   0    0    -1  
$EndComp
Text Label 10100 4550 0    60   ~ 0
IS_GND
Text Label 10250 2200 0    60   ~ 0
IS_+12V
Text Label 6300 5500 1    60   ~ 0
PB0
Text Label 2800 3100 3    60   ~ 0
PB0
Text Label 5300 5500 1    60   ~ 0
PE7
Text Label 3300 3100 3    60   ~ 0
PE7
Text Label 950  4450 0    60   ~ 0
SDA
Text Label 950  4350 0    60   ~ 0
SCL
Text Label 950  4150 0    60   ~ 0
VCC
$Comp
L Crystal_Small Y1
U 1 1 5673E12C
P 2300 4150
F 0 "Y1" H 2000 4150 50  0000 C CNN
F 1 "32768Hz" H 2300 4050 50  0000 C CNN
F 2 "Crystals:Crystal_Round_Vertical_2mm" H 2300 4150 60  0001 C CNN
F 3 "" H 2300 4150 60  0000 C CNN
	1    2300 4150
	-1   0    0    1   
$EndComp
$Comp
L Battery BT1
U 1 1 5673E72F
P 2500 4500
F 0 "BT1" H 2600 4550 50  0000 L CNN
F 1 "BAT-CR2032" H 2600 4450 50  0000 L CNN
F 2 "CR2032" V 2500 4540 60  0001 C CNN
F 3 "" V 2500 4540 60  0000 C CNN
	1    2500 4500
	1    0    0    -1  
$EndComp
$Comp
L GND #PWR024
U 1 1 5673F218
P 2500 4750
F 0 "#PWR024" H 2500 4500 50  0001 C CNN
F 1 "GND" H 2500 4600 50  0000 C CNN
F 2 "" H 2500 4750 60  0000 C CNN
F 3 "" H 2500 4750 60  0000 C CNN
	1    2500 4750
	1    0    0    -1  
$EndComp
Wire Wire Line
	1300 6450 1300 6250
Wire Wire Line
	2950 5600 2350 5600
Wire Wire Line
	2950 5500 2350 5500
Wire Wire Line
	2950 5400 2350 5400
Wire Wire Line
	2950 5300 2350 5300
Wire Wire Line
	2950 5200 2350 5200
Wire Wire Line
	2950 5100 2350 5100
Wire Wire Line
	1200 7200 1900 7200
Wire Wire Line
	1200 7000 1900 7000
Wire Wire Line
	2700 7400 2150 7400
Wire Wire Line
	2700 7200 2150 7200
Wire Wire Line
	2700 7100 2150 7100
Wire Wire Line
	2700 7000 2150 7000
Wire Wire Line
	1200 7100 1900 7100
Wire Wire Line
	1200 7400 1900 7400
Wire Wire Line
	2050 2550 2450 2550
Wire Wire Line
	2050 2450 2450 2450
Wire Wire Line
	2450 2650 2050 2650
Wire Wire Line
	1750 3500 1750 3600
Wire Wire Line
	1350 3550 1350 3600
Wire Wire Line
	1350 2850 1350 3050
Wire Wire Line
	1350 2300 1350 2350
Connection ~ 1350 3000
Wire Wire Line
	1750 3100 1750 3000
Connection ~ 1750 3000
Wire Wire Line
	1350 3000 2200 3000
Wire Wire Line
	6500 2200 6500 2750
Wire Wire Line
	6400 2200 6400 2750
Wire Wire Line
	6300 2200 6300 2750
Wire Wire Line
	6200 2200 6200 2750
Wire Wire Line
	5900 2200 5900 2750
Wire Wire Line
	5700 2200 5700 2750
Wire Wire Line
	5600 2200 5600 2750
Wire Wire Line
	5500 2200 5500 2750
Wire Wire Line
	5400 2200 5400 2750
Wire Wire Line
	5300 2200 5300 2750
Wire Wire Line
	5200 2200 5200 2750
Wire Wire Line
	5100 2200 5100 2750
Wire Wire Line
	5000 2200 5000 2750
Wire Wire Line
	4900 2200 4900 2750
Wire Wire Line
	4800 2200 4800 2750
Wire Wire Line
	4700 2200 4700 2750
Wire Wire Line
	4600 2200 4600 2750
Wire Wire Line
	4500 2200 4500 2750
Wire Wire Line
	4900 4950 4900 5500
Wire Wire Line
	4800 4950 4800 5500
Wire Wire Line
	4700 4950 4700 5500
Wire Wire Line
	4600 4950 4600 5500
Wire Wire Line
	4500 4950 4500 5500
Wire Wire Line
	4400 4950 4400 5500
Wire Wire Line
	5300 4950 5300 5500
Wire Wire Line
	5200 4950 5200 5500
Wire Wire Line
	5100 4950 5100 5500
Wire Wire Line
	5000 4950 5000 5500
Wire Wire Line
	6200 4950 6200 5500
Wire Wire Line
	6400 4950 6400 5500
Wire Wire Line
	6300 4950 6300 5500
Wire Wire Line
	6500 4950 6500 5500
Wire Wire Line
	6900 3750 7450 3750
Wire Wire Line
	6900 3550 7450 3550
Wire Wire Line
	6900 3650 7450 3650
Wire Wire Line
	6900 3450 7450 3450
Wire Wire Line
	6900 4150 7450 4150
Wire Wire Line
	6900 3950 7450 3950
Wire Wire Line
	6900 4050 7450 4050
Wire Wire Line
	6900 3850 7450 3850
Wire Wire Line
	10050 1350 9700 1350
Wire Wire Line
	10050 1150 9700 1150
Wire Wire Line
	10050 1450 9700 1450
Wire Wire Line
	10050 1250 9900 1250
Wire Wire Line
	8750 1150 9200 1150
Wire Wire Line
	8750 1350 9200 1350
Wire Wire Line
	8750 1450 9200 1450
Wire Wire Line
	1400 6250 1400 6550
Wire Wire Line
	2950 5800 2350 5800
Wire Wire Line
	2950 5900 2350 5900
Wire Wire Line
	5400 4950 5400 5500
Wire Wire Line
	5500 4950 5500 5500
Wire Wire Line
	5600 4950 5600 5500
Wire Wire Line
	5800 4950 5800 5500
Wire Wire Line
	5900 4950 5900 5500
Wire Wire Line
	6000 4950 6000 5500
Wire Wire Line
	6100 4950 6100 5500
Wire Wire Line
	3300 3100 3300 3600
Wire Wire Line
	3400 3100 3400 3600
Wire Wire Line
	3500 3100 3500 3600
Wire Wire Line
	3600 3100 3600 3600
Wire Wire Line
	3700 3100 3700 3600
Wire Wire Line
	9900 1250 9900 1050
Wire Wire Line
	2900 3600 2900 3100
Wire Wire Line
	3000 3600 3000 3100
Wire Wire Line
	3100 3600 3100 3100
Wire Wire Line
	3200 3600 3200 3100
Wire Wire Line
	4550 900  4400 900 
Wire Wire Line
	4550 1150 4450 1150
Wire Wire Line
	4450 1150 4450 1350
Wire Wire Line
	4450 1350 4550 1350
Wire Wire Line
	4400 1300 4450 1300
Connection ~ 4450 1300
Wire Wire Line
	5050 1150 5150 1150
Wire Wire Line
	5150 1150 5150 900 
Wire Wire Line
	5050 1350 5150 1350
Wire Wire Line
	5150 1350 5150 1650
Wire Wire Line
	4000 1550 4000 1650
Connection ~ 5550 900 
Wire Wire Line
	5550 900  5550 1000
Wire Wire Line
	5550 1400 5550 1650
Wire Wire Line
	5950 1400 5950 1650
Wire Wire Line
	1850 900  3600 900 
Wire Wire Line
	3600 1000 3500 1000
Wire Wire Line
	3500 1000 3500 900 
Wire Wire Line
	2600 1000 2600 900 
Wire Wire Line
	2600 1400 2600 1650
Wire Wire Line
	1350 900  1200 900 
Wire Wire Line
	1950 1100 1950 900 
Connection ~ 1950 900 
Wire Wire Line
	1950 1500 1950 1650
Wire Wire Line
	1200 1000 1350 1000
Wire Wire Line
	1350 1000 1350 1650
Wire Wire Line
	2400 850  2400 900 
Wire Wire Line
	3500 1600 3500 1650
Wire Wire Line
	2250 1400 2250 1650
Wire Wire Line
	2250 1000 2250 900 
Connection ~ 2400 900 
Wire Wire Line
	3600 1200 3500 1200
Wire Wire Line
	3150 1100 3600 1100
Wire Wire Line
	3150 1600 3150 1650
Connection ~ 5950 900 
Wire Wire Line
	5050 900  7550 900 
Connection ~ 5150 900 
Connection ~ 3500 900 
Connection ~ 2250 900 
Wire Wire Line
	2800 3100 2800 3600
Connection ~ 2600 900 
Wire Wire Line
	2900 1400 2900 1650
Wire Wire Line
	2900 1000 2900 900 
Connection ~ 2900 900 
Wire Wire Line
	5800 2200 5800 2750
Wire Wire Line
	2700 3100 2700 3600
Wire Wire Line
	3900 1550 3900 1600
Wire Wire Line
	3900 1600 4000 1600
Connection ~ 4000 1600
Wire Wire Line
	1300 6450 1600 6450
Connection ~ 1400 6450
Wire Wire Line
	1500 6450 1500 6250
Wire Wire Line
	1600 6450 1600 6250
Connection ~ 1500 6450
Wire Wire Line
	2600 3100 2600 3600
Wire Wire Line
	10600 2400 10100 2400
Wire Wire Line
	10600 2600 10300 2600
Wire Wire Line
	10300 2600 10300 2900
Wire Wire Line
	10300 2900 10100 2900
Wire Wire Line
	10600 2800 10400 2800
Wire Wire Line
	10400 2800 10400 3350
Wire Wire Line
	10400 3350 10100 3350
Wire Wire Line
	10600 3000 10500 3000
Wire Wire Line
	10500 3000 10500 3850
Wire Wire Line
	10500 3850 10100 3850
Wire Wire Line
	10600 2300 10450 2300
Wire Wire Line
	10450 2300 10450 4550
Wire Wire Line
	10450 3100 10600 3100
Wire Wire Line
	10600 2900 10450 2900
Connection ~ 10450 2900
Wire Wire Line
	10600 2700 10450 2700
Connection ~ 10450 2700
Wire Wire Line
	10600 2500 10450 2500
Connection ~ 10450 2500
Wire Wire Line
	10600 2200 10200 2200
Wire Wire Line
	10200 2200 10200 4450
Wire Wire Line
	10200 4050 10100 4050
Wire Wire Line
	10100 3550 10200 3550
Connection ~ 10200 3550
Wire Wire Line
	10100 3100 10200 3100
Connection ~ 10200 3100
Wire Wire Line
	10100 2600 10200 2600
Connection ~ 10200 2600
Wire Wire Line
	9500 4400 9500 4450
Wire Wire Line
	9500 4450 9550 4450
Wire Wire Line
	9350 2500 9350 4600
Wire Wire Line
	9350 4550 9550 4550
Wire Wire Line
	10200 4450 10050 4450
Connection ~ 10200 4050
Wire Wire Line
	10450 4550 10050 4550
Connection ~ 10450 3100
Wire Wire Line
	2050 4150 2200 4150
Wire Wire Line
	2050 4250 2500 4250
Wire Wire Line
	2500 4250 2500 4150
Wire Wire Line
	2500 4150 2400 4150
Wire Wire Line
	2050 4350 2500 4350
Wire Wire Line
	950  4150 1300 4150
Wire Wire Line
	950  4350 1300 4350
Wire Wire Line
	950  4450 1300 4450
Wire Wire Line
	2500 4650 2500 4750
Wire Wire Line
	2050 4450 2250 4450
Wire Wire Line
	2250 4450 2250 4700
Wire Wire Line
	2250 4700 2500 4700
Connection ~ 2500 4700
Wire Wire Line
	950  4250 1300 4250
$Comp
L R-RESCUE-chopek R16
U 1 1 560D774A
P 8500 3950
F 0 "R16" V 8550 4200 50  0000 C CNN
F 1 "330R" V 8500 3950 50  0000 C CNN
F 2 "Resistors_SMD:R_0805_HandSoldering" H 8500 3950 60  0001 C CNN
F 3 "" H 8500 3950 60  0001 C CNN
	1    8500 3950
	0    -1   -1   0   
$EndComp
Wire Wire Line
	7650 3950 8250 3950
Wire Wire Line
	7650 3450 8250 3450
Wire Wire Line
	7650 3000 8250 3000
Wire Wire Line
	7650 2500 8250 2500
Wire Wire Line
	8250 2400 8150 2400
Wire Wire Line
	8150 2400 8150 2500
Connection ~ 8150 2500
Wire Wire Line
	8250 2900 8150 2900
Wire Wire Line
	8150 2900 8150 3000
Connection ~ 8150 3000
Wire Wire Line
	8250 3350 8150 3350
Wire Wire Line
	8150 3350 8150 3450
Connection ~ 8150 3450
Wire Wire Line
	8250 3850 8150 3850
Wire Wire Line
	8150 3850 8150 3950
Connection ~ 8150 3950
Wire Wire Line
	8750 3950 8850 3950
Wire Wire Line
	8750 3850 9400 3850
Wire Wire Line
	8750 3450 8850 3450
Wire Wire Line
	8750 3350 9400 3350
Wire Wire Line
	8750 3000 8850 3000
Wire Wire Line
	8750 2900 9400 2900
Wire Wire Line
	8750 2500 8850 2500
Wire Wire Line
	8750 2400 9400 2400
Wire Wire Line
	9250 2500 9350 2500
Wire Wire Line
	9400 4050 9350 4050
Connection ~ 9350 4050
Wire Wire Line
	9250 3950 9350 3950
Connection ~ 9350 3950
Wire Wire Line
	9250 3450 9350 3450
Connection ~ 9350 3450
Wire Wire Line
	9400 3550 9350 3550
Connection ~ 9350 3550
Wire Wire Line
	9400 3100 9350 3100
Connection ~ 9350 3100
Wire Wire Line
	9250 3000 9350 3000
Connection ~ 9350 3000
Wire Wire Line
	9400 2600 9350 2600
Connection ~ 9350 2600
Connection ~ 9350 4550
$Comp
L ULN2803 U4
U 1 1 5683C297
P 8200 5250
F 0 "U4" H 8550 5450 60  0000 C CNN
F 1 "ULN2803" H 8550 5350 60  0000 C CNN
F 2 "Housings_SOIC:SOIC-18_7.5x11.6mm_Pitch1.27mm" H 8550 5050 60  0001 C CNN
F 3 "" H 8550 5050 60  0000 C CNN
	1    8200 5250
	1    0    0    -1  
$EndComp
Text Label 7600 5750 0    60   ~ 0
LED_ALRM
Text Label 7600 5550 0    60   ~ 0
LED_WARN
Text Label 7600 5350 0    60   ~ 0
LED_OK
Text Label 7600 5950 0    60   ~ 0
BUZZER
Wire Wire Line
	7600 5950 8200 5950
Wire Wire Line
	7600 5750 8200 5750
Wire Wire Line
	7600 5550 8200 5550
Wire Wire Line
	7600 5350 8200 5350
Wire Wire Line
	8200 5250 8100 5250
Wire Wire Line
	8100 5250 8100 5350
Connection ~ 8100 5350
Wire Wire Line
	8200 5450 8100 5450
Wire Wire Line
	8100 5450 8100 5550
Connection ~ 8100 5550
Wire Wire Line
	8200 5650 8100 5650
Wire Wire Line
	8100 5650 8100 5750
Connection ~ 8100 5750
Wire Wire Line
	8200 5850 8100 5850
Wire Wire Line
	8100 5850 8100 5950
Connection ~ 8100 5950
Wire Wire Line
	8200 6050 8100 6050
Wire Wire Line
	8100 6050 8100 6150
$Comp
L GND #PWR025
U 1 1 5683E245
P 8100 6150
F 0 "#PWR025" H 8100 5900 50  0001 C CNN
F 1 "GND" H 8100 6000 50  0000 C CNN
F 2 "" H 8100 6150 60  0000 C CNN
F 3 "" H 8100 6150 60  0000 C CNN
	1    8100 6150
	1    0    0    -1  
$EndComp
Wire Wire Line
	9300 5250 9900 5250
$Comp
L Led_Small D8
U 1 1 5684043A
P 10000 5250
F 0 "D8" H 9950 5350 30  0000 L CNN
F 1 "KP-2012SGD-G" H 9800 5150 30  0000 L CNN
F 2 "LEDs:LED-5MM" V 10000 5250 60  0001 C CNN
F 3 "" V 10000 5250 60  0000 C CNN
	1    10000 5250
	1    0    0    -1  
$EndComp
$Comp
L Led_Small D9
U 1 1 56840440
P 10250 5250
F 0 "D9" H 10200 5150 30  0000 L CNN
F 1 "KP-2012SGD-G" H 10050 5350 30  0000 L CNN
F 2 "LEDs:LED-5MM" V 10250 5250 60  0001 C CNN
F 3 "" V 10250 5250 60  0000 C CNN
	1    10250 5250
	1    0    0    -1  
$EndComp
Wire Wire Line
	10100 5250 10150 5250
$Comp
L Led_Small D10
U 1 1 56841152
P 10500 5250
F 0 "D10" H 10450 5350 30  0000 L CNN
F 1 "KP-2012SGD-G" H 10300 5150 30  0000 L CNN
F 2 "LEDs:LED-5MM" V 10500 5250 60  0001 C CNN
F 3 "" V 10500 5250 60  0000 C CNN
	1    10500 5250
	1    0    0    -1  
$EndComp
$Comp
L Led_Small D11
U 1 1 56841158
P 10750 5250
F 0 "D11" H 10700 5150 30  0000 L CNN
F 1 "KP-2012SGD-G" H 10550 5350 30  0000 L CNN
F 2 "LEDs:LED-5MM" V 10750 5250 60  0001 C CNN
F 3 "" V 10750 5250 60  0000 C CNN
	1    10750 5250
	1    0    0    -1  
$EndComp
Wire Wire Line
	10350 5250 10400 5250
Wire Wire Line
	10600 5250 10650 5250
$Comp
L R_Small R18
U 1 1 568411A0
P 9200 5250
F 0 "R18" V 9200 5200 30  0000 L CNN
F 1 "R_Small" V 9300 5150 30  0000 L CNN
F 2 "Resistors_SMD:R_1210_HandSoldering" H 9200 5250 60  0001 C CNN
F 3 "" H 9200 5250 60  0000 C CNN
	1    9200 5250
	0    1    1    0   
$EndComp
Wire Wire Line
	9300 5500 9900 5500
$Comp
L Led_Small D14
U 1 1 56841590
P 10000 5500
F 0 "D14" H 9950 5600 30  0000 L CNN
F 1 "KP-2012YD-Y" H 9800 5400 30  0000 L CNN
F 2 "LEDs:LED-5MM" V 10000 5500 60  0001 C CNN
F 3 "" V 10000 5500 60  0000 C CNN
	1    10000 5500
	1    0    0    -1  
$EndComp
$Comp
L Led_Small D15
U 1 1 56841596
P 10250 5500
F 0 "D15" H 10200 5400 30  0000 L CNN
F 1 "KP-2012YD-Y" H 10050 5600 30  0000 L CNN
F 2 "LEDs:LED-5MM" V 10250 5500 60  0001 C CNN
F 3 "" V 10250 5500 60  0000 C CNN
	1    10250 5500
	1    0    0    -1  
$EndComp
Wire Wire Line
	10100 5500 10150 5500
$Comp
L Led_Small D16
U 1 1 5684159E
P 10500 5500
F 0 "D16" H 10450 5600 30  0000 L CNN
F 1 "KP-2012YD-Y" H 10300 5400 30  0000 L CNN
F 2 "LEDs:LED-5MM" V 10500 5500 60  0001 C CNN
F 3 "" V 10500 5500 60  0000 C CNN
	1    10500 5500
	1    0    0    -1  
$EndComp
$Comp
L Led_Small D17
U 1 1 568415A4
P 10750 5500
F 0 "D17" H 10700 5400 30  0000 L CNN
F 1 "KP-2012YD-Y" H 10550 5600 30  0000 L CNN
F 2 "LEDs:LED-5MM" V 10750 5500 60  0001 C CNN
F 3 "" V 10750 5500 60  0000 C CNN
	1    10750 5500
	1    0    0    -1  
$EndComp
Wire Wire Line
	10350 5500 10400 5500
Wire Wire Line
	10600 5500 10650 5500
$Comp
L R_Small R19
U 1 1 568415AC
P 9200 5500
F 0 "R19" V 9200 5450 30  0000 L CNN
F 1 "R_Small" V 9300 5400 30  0000 L CNN
F 2 "Resistors_SMD:R_1210_HandSoldering" H 9200 5500 60  0001 C CNN
F 3 "" H 9200 5500 60  0000 C CNN
	1    9200 5500
	0    1    1    0   
$EndComp
$Comp
L Led_Small D18
U 1 1 56841666
P 9500 5750
F 0 "D18" H 9450 5850 30  0000 L CNN
F 1 "KP-2012ID-R" H 9300 5650 30  0000 L CNN
F 2 "LEDs:LED-5MM" V 9500 5750 60  0001 C CNN
F 3 "" V 9500 5750 60  0000 C CNN
	1    9500 5750
	1    0    0    -1  
$EndComp
$Comp
L Led_Small D19
U 1 1 5684166C
P 9750 5750
F 0 "D19" H 9700 5650 30  0000 L CNN
F 1 "KP-2012ID-R" H 9550 5850 30  0000 L CNN
F 2 "LEDs:LED-5MM" V 9750 5750 60  0001 C CNN
F 3 "" V 9750 5750 60  0000 C CNN
	1    9750 5750
	1    0    0    -1  
$EndComp
Wire Wire Line
	9300 5750 9400 5750
Wire Wire Line
	9600 5750 9650 5750
$Comp
L Led_Small D20
U 1 1 56841674
P 10000 5750
F 0 "D20" H 9950 5850 30  0000 L CNN
F 1 "KP-2012ID-R" H 9800 5650 30  0000 L CNN
F 2 "LEDs:LED-5MM" V 10000 5750 60  0001 C CNN
F 3 "" V 10000 5750 60  0000 C CNN
	1    10000 5750
	1    0    0    -1  
$EndComp
$Comp
L Led_Small D21
U 1 1 5684167A
P 10250 5750
F 0 "D21" H 10200 5650 30  0000 L CNN
F 1 "KP-2012ID-R" H 10050 5850 30  0000 L CNN
F 2 "LEDs:LED-5MM" V 10250 5750 60  0001 C CNN
F 3 "" V 10250 5750 60  0000 C CNN
	1    10250 5750
	1    0    0    -1  
$EndComp
Wire Wire Line
	9850 5750 9900 5750
Wire Wire Line
	10100 5750 10150 5750
$Comp
L Led_Small D22
U 1 1 56841682
P 10500 5750
F 0 "D22" H 10450 5850 30  0000 L CNN
F 1 "KP-2012ID-R" H 10300 5650 30  0000 L CNN
F 2 "LEDs:LED-5MM" V 10500 5750 60  0001 C CNN
F 3 "" V 10500 5750 60  0000 C CNN
	1    10500 5750
	1    0    0    -1  
$EndComp
$Comp
L Led_Small D23
U 1 1 56841688
P 10750 5750
F 0 "D23" H 10700 5650 30  0000 L CNN
F 1 "KP-2012ID-R" H 10550 5850 30  0000 L CNN
F 2 "LEDs:LED-5MM" V 10750 5750 60  0001 C CNN
F 3 "" V 10750 5750 60  0000 C CNN
	1    10750 5750
	1    0    0    -1  
$EndComp
Wire Wire Line
	10350 5750 10400 5750
Wire Wire Line
	10600 5750 10650 5750
$Comp
L R_Small R20
U 1 1 56841690
P 9200 5750
F 0 "R20" V 9200 5700 30  0000 L CNN
F 1 "R_Small" V 9300 5650 30  0000 L CNN
F 2 "Resistors_SMD:R_1210_HandSoldering" H 9200 5750 60  0001 C CNN
F 3 "" H 9200 5750 60  0000 C CNN
	1    9200 5750
	0    1    1    0   
$EndComp
Wire Wire Line
	8900 5350 9000 5350
Wire Wire Line
	9000 5350 9000 5250
Connection ~ 9000 5250
Wire Wire Line
	8900 5450 9000 5450
Wire Wire Line
	9000 5450 9000 5550
Wire Wire Line
	9000 5550 8900 5550
Connection ~ 9000 5500
Wire Wire Line
	8900 5650 9000 5650
Wire Wire Line
	9000 5650 9000 5750
Connection ~ 9000 5750
Wire Wire Line
	10850 5250 11000 5250
Wire Wire Line
	10850 5500 11000 5500
Wire Wire Line
	10850 5750 11000 5750
Wire Wire Line
	11000 6050 11000 5100
Connection ~ 11000 5250
Connection ~ 11000 5500
Wire Wire Line
	8900 6050 11000 6050
Connection ~ 11000 5750
Wire Wire Line
	8900 5850 9000 5850
Wire Wire Line
	9000 5850 9000 5950
Wire Wire Line
	8900 5950 9100 5950
$Comp
L +12V #PWR026
U 1 1 56843546
P 11000 5100
F 0 "#PWR026" H 11000 4950 60  0001 C CNN
F 1 "+12V" H 11000 5240 60  0000 C CNN
F 2 "" H 11000 5100 60  0000 C CNN
F 3 "" H 11000 5100 60  0000 C CNN
	1    11000 5100
	1    0    0    -1  
$EndComp
$Comp
L CONN_01X02 P6
U 1 1 5684620F
P 9150 6300
F 0 "P6" H 9150 6450 50  0000 C CNN
F 1 "buzzer" V 9250 6300 50  0000 C CNN
F 2 "Connect:AK300-2" H 9150 6300 60  0001 C CNN
F 3 "" H 9150 6300 60  0000 C CNN
	1    9150 6300
	0    1    1    0   
$EndComp
Wire Wire Line
	9100 5950 9100 6100
Connection ~ 9000 5950
Wire Wire Line
	9200 6050 9200 6100
Connection ~ 9200 6050
Text Notes 7450 3750 0    60   ~ 0
PWM
Text Notes 7450 3850 0    60   ~ 0
PWM
Text Notes 7450 3950 0    60   ~ 0
PWM
Text Notes 5200 5800 1    60   ~ 0
PWM
Text Notes 4900 5500 1    60   ~ 0
unconnected
Text Notes 5000 5500 1    60   ~ 0
unconnected
Text Notes 5100 5500 1    60   ~ 0
unconnected
Text Notes 6200 5500 1    60   ~ 0
unconnected
Text Label 950  4250 0    60   ~ 0
~RTC_IRQ
Text Label 5400 5500 1    60   ~ 0
~RTC_IRQ
Text Notes 5400 2200 3    60   ~ 0
unconnected
Text Notes 5300 2200 3    60   ~ 0
unconnected
Text Label 4800 5500 1    60   ~ 0
~RST_OUT
$Comp
L HC-05 U6
U 1 1 568512FD
P 3400 7450
F 0 "U6" H 3700 7750 60  0000 C CNN
F 1 "HC-05" H 3800 7650 60  0000 C CNN
F 2 "monitor:HC-05" H 3900 6900 60  0001 C CNN
F 3 "" H 3900 6900 60  0000 C CNN
	1    3400 7450
	0    -1   -1   0   
$EndComp
$Comp
L GND #PWR027
U 1 1 568D2D66
P 6600 1650
F 0 "#PWR027" H 6600 1400 60  0001 C CNN
F 1 "GND" H 6600 1500 60  0000 C CNN
F 2 "" H 6600 1650 60  0000 C CNN
F 3 "" H 6600 1650 60  0000 C CNN
	1    6600 1650
	1    0    0    -1  
$EndComp
Wire Wire Line
	6250 900  6250 1000
Wire Wire Line
	6600 900  6600 1000
Connection ~ 6250 900 
Wire Wire Line
	6250 1400 6250 1650
Wire Wire Line
	6600 1400 6600 1650
Wire Wire Line
	5950 1000 5950 900 
Wire Wire Line
	6100 850  6100 900 
Connection ~ 6100 900 
Wire Wire Line
	7100 900  7100 950 
Connection ~ 6600 900 
$Comp
L R_Small R1
U 1 1 568D58CD
P 7550 1100
F 0 "R1" V 7550 1050 30  0000 L CNN
F 1 "10k" V 7650 1050 30  0000 L CNN
F 2 "Resistors_SMD:R_0805_HandSoldering" H 7550 1100 60  0001 C CNN
F 3 "" H 7550 1100 60  0000 C CNN
	1    7550 1100
	-1   0    0    1   
$EndComp
Wire Wire Line
	7550 900  7550 1000
Connection ~ 7100 900 
Wire Wire Line
	7400 1300 7850 1300
Wire Wire Line
	7550 1200 7550 1300
Connection ~ 7550 1300
Wire Wire Line
	7600 1400 7600 1300
Connection ~ 7600 1300
$Comp
L GND #PWR028
U 1 1 568D7426
P 7800 1650
F 0 "#PWR028" H 7800 1400 60  0001 C CNN
F 1 "GND" H 7800 1500 60  0000 C CNN
F 2 "" H 7800 1650 60  0000 C CNN
F 3 "" H 7800 1650 60  0000 C CNN
	1    7800 1650
	1    0    0    -1  
$EndComp
Wire Wire Line
	7800 1600 7800 1650
$Comp
L DS1338-33 U3
U 1 1 568D27CE
P 1700 4100
F 0 "U3" H 1650 3650 60  0000 C CNN
F 1 "DS1338-33" H 1700 4150 60  0000 C CNN
F 2 "SMD_Packages:SOIC-8-N" H 1700 4100 60  0001 C CNN
F 3 "" H 1700 4100 60  0000 C CNN
	1    1700 4100
	1    0    0    -1  
$EndComp
Wire Wire Line
	3400 7750 3400 7450
Wire Wire Line
	3500 7750 3500 7450
Text Label 3400 7750 1    60   ~ 0
BT_TXD
Text Label 3500 7750 1    60   ~ 0
BT_RXD
Text Label 5600 5500 1    60   ~ 0
BT_TXD
Text Label 3100 3100 3    60   ~ 0
BT_TXD
Text Label 5500 5500 1    60   ~ 0
BT_RXD
Text Label 3200 3100 3    60   ~ 0
BT_RXD
Text Label 4400 7750 1    60   ~ 0
~RST_OUT
Wire Wire Line
	4400 7750 4400 7450
Wire Wire Line
	4500 7750 4500 7450
Wire Wire Line
	4600 7750 4600 7450
Text Label 4600 7750 1    60   ~ 0
GND
Text Label 4500 7750 1    60   ~ 0
VCC
Text Label 5400 6400 2    60   ~ 0
GND
Text Label 4600 5800 3    60   ~ 0
GND
Wire Wire Line
	4600 5800 4600 6050
Wire Wire Line
	5400 6400 5150 6400
Wire Wire Line
	3400 5600 3400 6050
Wire Wire Line
	3600 5600 3600 6050
Text Label 3400 5600 3    60   ~ 0
BT_KEY
Text Label 3600 5600 3    60   ~ 0
BT_PAIRED
Text Label 7450 3450 2    60   ~ 0
BT_KEY
Text Label 7450 4050 2    60   ~ 0
BT_PAIRED
Wire Wire Line
	9100 5250 8900 5250
Wire Wire Line
	9100 5500 9000 5500
Wire Wire Line
	8900 5750 9100 5750
$EndSCHEMATC
