EESchema Schematic File Version 2
LIBS:power
LIBS:device
LIBS:transistors
LIBS:conn
LIBS:linear
LIBS:regul
LIBS:74xx
LIBS:cmos4000
LIBS:adc-dac
LIBS:memory
LIBS:xilinx
LIBS:microcontrollers
LIBS:dsp
LIBS:microchip
LIBS:analog_switches
LIBS:motorola
LIBS:texas
LIBS:intel
LIBS:audio
LIBS:interface
LIBS:digital-audio
LIBS:philips
LIBS:display
LIBS:cypress
LIBS:siliconi
LIBS:opto
LIBS:atmel
LIBS:contrib
LIBS:valves
LIBS:zb_rfr2
LIBS:btm-222
LIBS:derfmega256-23m00
LIBS:max887
LIBS:mos_p
LIBS:sdcard
LIBS:sd-card-con
LIBS:str-lc-cache
LIBS:str-lc-rescue
LIBS:ufl
LIBS:ltc3631
LIBS:hc-05
LIBS:xplained-256rfr2
LIBS:at45db161e
LIBS:LCS-atmel-cache
EELAYER 25 0
EELAYER END
$Descr A4 11693 8268
encoding utf-8
Sheet 1 1
Title ""
Date "2016-10-17"
Rev ""
Comp ""
Comment1 ""
Comment2 ""
Comment3 ""
Comment4 ""
$EndDescr
Text Label 2600 6500 2    60   ~ 0
VCC
Text Label 2600 6800 2    60   ~ 0
GND
Text Label 2600 6400 2    60   ~ 0
GND
Text Label 1100 6400 0    60   ~ 0
JTAG_TCK
Text Label 1100 6500 0    60   ~ 0
JTAG_TDO
Text Label 1100 6800 0    60   ~ 0
JTAG_TDI
Text Label 1100 6600 0    60   ~ 0
JTAG_TMS
$Comp
L AVR-JTAG-10 CON1
U 1 1 51C49800
P 2000 6600
F 0 "CON1" H 1830 6930 50  0000 C CNN
F 1 "AVR-JTAG-10" H 1660 6270 50  0000 L BNN
F 2 "ZL322-2X5P" V 1430 6620 50  0001 C CNN
F 3 "" H 2000 6600 60  0001 C CNN
	1    2000 6600
	1    0    0    -1  
$EndComp
$Comp
L CP1-RESCUE-str-lc C7
U 1 1 50713F0E
P 6650 1250
F 0 "C7" H 6700 1350 50  0000 L CNN
F 1 "10uF/6V" V 6650 1650 50  0000 L CNN
F 2 "SM1206POL" H 6650 1250 60  0001 C CNN
F 3 "" H 6650 1250 60  0001 C CNN
	1    6650 1250
	1    0    0    -1  
$EndComp
$Comp
L GND #PWR02
U 1 1 53087DE0
P 3800 1800
F 0 "#PWR02" H 3800 1800 30  0001 C CNN
F 1 "GND" H 3800 1730 30  0001 C CNN
F 2 "" H 3800 1800 60  0001 C CNN
F 3 "" H 3800 1800 60  0001 C CNN
	1    3800 1800
	1    0    0    -1  
$EndComp
$Comp
L C-RESCUE-str-lc C3
U 1 1 53087E8C
P 3100 1450
F 0 "C3" H 3000 1550 40  0000 L CNN
F 1 "10nF" H 2950 1350 40  0000 L CNN
F 2 "SM0805" H 3138 1300 30  0000 C CNN
F 3 "~" H 3100 1450 60  0000 C CNN
	1    3100 1450
	1    0    0    -1  
$EndComp
$Comp
L INDUCTOR_SMALL L1
U 1 1 5308809F
P 4600 900
F 0 "L1" H 4600 1000 50  0000 C CNN
F 1 "DE0703-220-470uH" H 4550 800 50  0000 C CNN
F 2 "DE0703" H 4600 900 60  0001 C CNN
F 3 "~" H 4600 900 60  0000 C CNN
	1    4600 900 
	1    0    0    -1  
$EndComp
$Comp
L R-RESCUE-str-lc R4
U 1 1 530880B3
P 4600 1150
F 0 "R4" V 4680 1150 40  0000 C CNN
F 1 "301k 2%" V 4607 1151 40  0000 C CNN
F 2 "SM0805" V 4530 1150 30  0000 C CNN
F 3 "~" H 4600 1150 30  0000 C CNN
	1    4600 1150
	0    1    1    0   
$EndComp
$Comp
L R-RESCUE-str-lc R3
U 1 1 530880C0
P 4600 1350
F 0 "R3" V 4680 1350 40  0000 C CNN
F 1 "95k3 2%" V 4607 1351 40  0000 C CNN
F 2 "SM0805" V 4530 1350 30  0000 C CNN
F 3 "~" H 4600 1350 30  0000 C CNN
	1    4600 1350
	0    -1   -1   0   
$EndComp
$Comp
L C-RESCUE-str-lc C9
U 1 1 530883DF
P 5150 1250
F 0 "C9" H 5150 1350 40  0000 L CNN
F 1 "100nF" H 5156 1165 40  0000 L CNN
F 2 "SM0805" H 5188 1100 30  0000 C CNN
F 3 "~" H 5150 1250 60  0000 C CNN
	1    5150 1250
	1    0    0    -1  
$EndComp
$Comp
L CP-RESCUE-str-lc C10
U 1 1 530883FA
P 5500 1250
F 0 "C10" H 5550 1350 40  0000 L CNN
F 1 "10uF" H 5550 1150 40  0000 L CNN
F 2 "SM1206POL" H 5600 1100 30  0000 C CNN
F 3 "~" H 5500 1250 300 0000 C CNN
	1    5500 1250
	1    0    0    -1  
$EndComp
Text Notes 5100 850  0    60   ~ 0
3.3V
$Comp
L VCC #PWR03
U 1 1 530888E8
P 5500 850
F 0 "#PWR03" H 5500 950 30  0001 C CNN
F 1 "VCC" H 5500 950 30  0000 C CNN
F 2 "" H 5500 850 60  0001 C CNN
F 3 "" H 5500 850 60  0001 C CNN
	1    5500 850 
	1    0    0    -1  
$EndComp
$Comp
L FUSE F1
U 1 1 53088B14
P 1550 900
F 0 "F1" H 1650 950 40  0000 C CNN
F 1 "SM010-60" H 1550 750 40  0000 C CNN
F 2 "SM1210" H 1550 900 60  0000 C CNN
F 3 "~" H 1550 900 60  0000 C CNN
	1    1550 900 
	1    0    0    -1  
$EndComp
$Comp
L DIODE D1
U 1 1 53088B23
P 1900 1200
F 0 "D1" H 1900 1300 40  0000 C CNN
F 1 "1N4148" H 1900 1100 40  0000 C CNN
F 2 "SM1206POL" H 1900 1200 60  0000 C CNN
F 3 "~" H 1900 1200 60  0000 C CNN
	1    1900 1200
	0    -1   -1   0   
$EndComp
$Comp
L CP-RESCUE-str-lc C1
U 1 1 53088B64
P 2250 1200
F 0 "C1" H 2300 1300 40  0000 L CNN
F 1 "10uF/16V" V 2200 800 40  0000 L CNN
F 2 "SM1206POL" H 2350 1050 30  0000 C CNN
F 3 "~" H 2250 1200 300 0000 C CNN
	1    2250 1200
	1    0    0    -1  
$EndComp
$Comp
L C-RESCUE-str-lc C2
U 1 1 53088B73
P 2550 1200
F 0 "C2" H 2550 1300 40  0000 L CNN
F 1 "330n" H 2556 1115 40  0000 L CNN
F 2 "SM0805" H 2588 1050 30  0000 C CNN
F 3 "~" H 2550 1200 60  0000 C CNN
	1    2550 1200
	1    0    0    -1  
$EndComp
Text Notes 1250 1350 0    60   ~ 0
MAX 45V
$Comp
L +BATT #PWR04
U 1 1 53089758
P 2100 800
F 0 "#PWR04" H 2100 750 20  0001 C CNN
F 1 "+BATT" H 2100 900 30  0000 C CNN
F 2 "" H 2100 800 60  0001 C CNN
F 3 "" H 2100 800 60  0001 C CNN
	1    2100 800 
	1    0    0    -1  
$EndComp
Text Label 6150 5850 1    60   ~ 0
JTAG_TCK
Text Label 5950 5850 1    60   ~ 0
JTAG_TDO
Text Label 6050 5850 1    60   ~ 0
JTAG_TMS
Text Label 5850 5850 1    60   ~ 0
JTAG_TDI
$Comp
L GND #PWR05
U 1 1 530BAEAC
P 6500 7150
F 0 "#PWR05" H 6500 7150 30  0001 C CNN
F 1 "GND" H 6500 7080 30  0001 C CNN
F 2 "" H 6500 7150 60  0001 C CNN
F 3 "" H 6500 7150 60  0001 C CNN
	1    6500 7150
	1    0    0    -1  
$EndComp
Text Label 5350 2550 3    60   ~ 0
nRST
Text Label 2600 6600 2    60   ~ 0
nRST
$Comp
L SW_PUSH_SMALL SW1
U 1 1 530BAED9
P 6400 6950
F 0 "SW1" H 6550 7060 30  0000 C CNN
F 1 "TACTM-64N-F" H 6250 6900 30  0000 C CNN
F 2 "TACTM-64N-F" H 6400 6950 60  0000 C CNN
F 3 "~" H 6400 6950 60  0000 C CNN
	1    6400 6950
	1    0    0    -1  
$EndComp
Text Label 1050 1050 2    60   ~ 0
RX
Text Label 1050 1150 2    60   ~ 0
TX
Text Label 7850 4250 2    60   ~ 0
RX
Text Label 7850 4350 2    60   ~ 0
TX
$Comp
L GND #PWR08
U 1 1 530BB6BD
P 8500 1500
F 0 "#PWR08" H 8500 1500 30  0001 C CNN
F 1 "GND" H 8500 1430 30  0001 C CNN
F 2 "" H 8500 1500 60  0001 C CNN
F 3 "" H 8500 1500 60  0001 C CNN
	1    8500 1500
	1    0    0    -1  
$EndComp
$Comp
L C-RESCUE-str-lc C4
U 1 1 530BB6C3
P 8500 1200
F 0 "C4" H 8550 1300 50  0000 L CNN
F 1 "100nF" H 8550 1100 50  0000 L CNN
F 2 "SM0805" H 8500 1200 60  0001 C CNN
F 3 "" H 8500 1200 60  0001 C CNN
	1    8500 1200
	1    0    0    -1  
$EndComp
$Comp
L GND #PWR09
U 1 1 530BB6C9
P 8150 1500
F 0 "#PWR09" H 8150 1500 30  0001 C CNN
F 1 "GND" H 8150 1430 30  0001 C CNN
F 2 "" H 8150 1500 60  0001 C CNN
F 3 "" H 8150 1500 60  0001 C CNN
	1    8150 1500
	1    0    0    -1  
$EndComp
$Comp
L R-RESCUE-str-lc R2
U 1 1 530BB6CF
P 8150 1200
F 0 "R2" V 8230 1200 50  0000 C CNN
F 1 "20k 2%" V 8050 1200 50  0000 C CNN
F 2 "SM0805" H 8150 1200 60  0001 C CNN
F 3 "" H 8150 1200 60  0001 C CNN
	1    8150 1200
	1    0    0    -1  
$EndComp
$Comp
L R-RESCUE-str-lc R1
U 1 1 530BB6D5
P 7800 900
F 0 "R1" V 7880 900 50  0000 C CNN
F 1 "301k 2%" V 7700 900 50  0000 C CNN
F 2 "SM0805" H 7800 900 60  0001 C CNN
F 3 "" H 7800 900 60  0001 C CNN
	1    7800 900 
	0    1    1    0   
$EndComp
$Comp
L +BATT #PWR010
U 1 1 530BB6DB
P 7550 850
F 0 "#PWR010" H 7550 800 20  0001 C CNN
F 1 "+BATT" H 7550 950 30  0000 C CNN
F 2 "" H 7550 850 60  0001 C CNN
F 3 "" H 7550 850 60  0001 C CNN
	1    7550 850 
	1    0    0    -1  
$EndComp
Text Label 9000 900  2    60   ~ 0
BATT_DIV
Text Label 7850 4550 2    60   ~ 0
BATT_DIV
$Comp
L IRLM6302PBF Q1
U 1 1 530BB6EE
P 2750 2900
F 0 "Q1" V 3150 3000 60  0000 R CNN
F 1 "IRLML6302PBF" V 3050 3200 60  0000 R CNN
F 2 "SOT23GDS" H 2750 2900 60  0001 C CNN
F 3 "" H 2750 2900 60  0001 C CNN
	1    2750 2900
	0    -1   -1   0   
$EndComp
Text Label 3500 3200 2    60   ~ 0
N_SENS_POW
Text Label 6450 2550 3    60   ~ 0
N_SENS_POW
Text Label 3500 3500 2    60   ~ 0
SENS_REF
Text Label 3500 3600 2    60   ~ 0
SENS_DATA
Text Label 6550 5850 1    60   ~ 0
SENS_DATA
Text Label 6450 5850 1    60   ~ 0
SENS_REF
$Comp
L CONN_3 K1
U 1 1 530BB713
P 800 3600
F 0 "K1" V 750 3600 50  0000 C CNN
F 1 "CONN_3" V 850 3600 40  0000 C CNN
F 2 "PIN_ARRAY_3X1" H 800 3600 60  0001 C CNN
F 3 "" H 800 3600 60  0001 C CNN
	1    800  3600
	-1   0    0    1   
$EndComp
Text Label 5750 2550 3    60   ~ 0
SPI_SCK
Text Label 9350 1150 0    60   ~ 0
SPI_SCK
Text Label 5650 2550 3    60   ~ 0
SPI_MISO
Text Label 10950 1050 2    60   ~ 0
SPI_MISO
Text Label 5550 2550 3    60   ~ 0
SPI_MOSI
Text Label 9350 1050 0    60   ~ 0
SPI_MOSI
Text Label 9350 1350 0    60   ~ 0
SPI_nCS
Text Label 7850 3950 2    60   ~ 0
SPI_nCS
$Comp
L R-RESCUE-str-lc R9
U 1 1 531B64FE
P 1450 5600
F 0 "R9" V 1500 5350 50  0000 C CNN
F 1 "330R" V 1450 5600 50  0000 C CNN
F 2 "SM0805" H 1450 5600 60  0001 C CNN
F 3 "" H 1450 5600 60  0001 C CNN
	1    1450 5600
	0    -1   -1   0   
$EndComp
$Comp
L LED-RESCUE-str-lc D2
U 1 1 531B6504
P 2850 5800
F 0 "D2" H 2650 5750 50  0000 C CNN
F 1 "OS5RKA5111P" H 3050 5900 50  0000 C CNN
F 2 "LEDV" H 2850 5800 60  0001 C CNN
F 3 "" H 2850 5800 60  0001 C CNN
	1    2850 5800
	-1   0    0    1   
$EndComp
$Comp
L VCC #PWR016
U 1 1 531B651F
P 1900 5000
F 0 "#PWR016" H 1900 5100 30  0001 C CNN
F 1 "VCC" H 1900 5100 30  0000 C CNN
F 2 "" H 1900 5000 60  0001 C CNN
F 3 "" H 1900 5000 60  0001 C CNN
	1    1900 5000
	1    0    0    -1  
$EndComp
$Comp
L R-RESCUE-str-lc R8
U 1 1 531B6525
P 1450 5400
F 0 "R8" V 1500 5100 50  0000 C CNN
F 1 "330R" V 1450 5400 50  0000 C CNN
F 2 "SM0805" H 1450 5400 60  0001 C CNN
F 3 "" H 1450 5400 60  0001 C CNN
	1    1450 5400
	0    -1   -1   0   
$EndComp
$Comp
L R-RESCUE-str-lc R7
U 1 1 531B652B
P 1450 5300
F 0 "R7" V 1500 5000 50  0000 C CNN
F 1 "330R" V 1450 5300 50  0000 C CNN
F 2 "SM0805" H 1450 5300 60  0001 C CNN
F 3 "" H 1450 5300 60  0001 C CNN
	1    1450 5300
	0    -1   -1   0   
$EndComp
$Comp
L R-RESCUE-str-lc R6
U 1 1 531B6531
P 1450 5100
F 0 "R6" V 1500 4800 50  0000 C CNN
F 1 "330R" V 1450 5100 50  0000 C CNN
F 2 "SM0805" H 1450 5100 60  0001 C CNN
F 3 "" H 1450 5100 60  0001 C CNN
	1    1450 5100
	0    -1   -1   0   
$EndComp
$Comp
L RGB_LED L2
U 1 1 531B6537
P 2600 5200
F 0 "L2" H 2750 4850 60  0000 C CNN
F 1 "HB5-40ARAAGCABC" V 3150 5150 60  0000 C CNN
F 2 "PIN_ARRAY_4x1" H 2600 5200 60  0001 C CNN
F 3 "" H 2600 5200 60  0001 C CNN
	1    2600 5200
	1    0    0    -1  
$EndComp
Text Label 750  5100 0    60   ~ 0
nLED_R
Text Label 750  5300 0    60   ~ 0
nLED_G
Text Label 750  5400 0    60   ~ 0
nLED_B
Text Label 750  5600 0    60   ~ 0
nLED_ALRM
Text Label 5950 2550 3    60   ~ 0
nLED_R
Text Label 5650 5850 1    60   ~ 0
nLED_G
Text Label 7850 4150 2    60   ~ 0
nLED_B
Text Label 4950 2550 3    60   ~ 0
GND
Text Label 5050 2550 3    60   ~ 0
GND
Text Label 6050 2550 3    60   ~ 0
GND
Text Label 4950 5850 1    60   ~ 0
GND
Text Label 5250 2550 3    60   ~ 0
VCC
Text Label 5150 2550 3    60   ~ 0
VCC
$Comp
L C-RESCUE-str-lc C6
U 1 1 53246A3D
P 6200 1250
F 0 "C6" H 6200 1350 40  0000 L CNN
F 1 "100nF" H 6206 1165 40  0000 L CNN
F 2 "SM0805" H 6238 1100 30  0000 C CNN
F 3 "~" H 6200 1250 60  0000 C CNN
	1    6200 1250
	1    0    0    -1  
$EndComp
$Comp
L GND #PWR017
U 1 1 53246DDC
P 6400 1600
F 0 "#PWR017" H 6400 1600 30  0001 C CNN
F 1 "GND" H 6400 1530 30  0001 C CNN
F 2 "" H 6400 1600 60  0001 C CNN
F 3 "" H 6400 1600 60  0001 C CNN
	1    6400 1600
	1    0    0    -1  
$EndComp
$Comp
L VCC #PWR018
U 1 1 53246DEB
P 6400 850
F 0 "#PWR018" H 6400 950 30  0001 C CNN
F 1 "VCC" H 6400 950 30  0000 C CNN
F 2 "" H 6400 850 60  0001 C CNN
F 3 "" H 6400 850 60  0001 C CNN
	1    6400 850 
	1    0    0    -1  
$EndComp
Text Notes 1650 7050 0    60   ~ 0
ZL322-2X5P
$Comp
L CP1-RESCUE-str-lc C8
U 1 1 53249D18
P 6950 1250
F 0 "C8" H 7000 1350 50  0000 L CNN
F 1 "10uF/6V" V 7000 1650 50  0000 L CNN
F 2 "SM1206POL" H 6950 1250 60  0001 C CNN
F 3 "" H 6950 1250 60  0001 C CNN
	1    6950 1250
	1    0    0    -1  
$EndComp
Text Label 7850 4050 2    60   ~ 0
nLED_ALRM
Text Notes 5650 6100 1    60   ~ 0
PWM
Text Notes 7900 4150 0    60   ~ 0
PWM
Text Notes 5950 2450 1    60   ~ 0
PWM
Text Notes 7900 4050 0    60   ~ 0
PWM
$Comp
L CONN_6 P4
U 1 1 53385D87
P 2400 5350
F 0 "P4" V 2350 5350 60  0000 C CNN
F 1 "CONN_6" V 2450 5350 60  0000 C CNN
F 2 "PIN_ARRAY-6X1" H 2400 5350 60  0001 C CNN
F 3 "" H 2400 5350 60  0001 C CNN
	1    2400 5350
	1    0    0    -1  
$EndComp
Wire Wire Line
	1100 6600 1800 6600
Wire Wire Line
	1100 6400 1800 6400
Wire Wire Line
	2600 6800 2050 6800
Wire Wire Line
	2600 6600 2050 6600
Wire Wire Line
	2600 6500 2050 6500
Wire Wire Line
	2600 6400 2050 6400
Wire Wire Line
	1100 6500 1800 6500
Wire Wire Line
	1100 6800 1800 6800
Wire Wire Line
	1250 1700 1900 1700
Wire Wire Line
	1900 1700 2250 1700
Wire Wire Line
	2250 1700 2550 1700
Wire Wire Line
	2550 1700 2800 1700
Wire Wire Line
	2800 1700 3100 1700
Wire Wire Line
	3100 1700 3700 1700
Wire Wire Line
	3700 1700 3800 1700
Wire Wire Line
	3800 1700 5000 1700
Wire Wire Line
	5000 1700 5150 1700
Wire Wire Line
	5150 1700 5500 1700
Wire Wire Line
	5150 900  5150 1050
Wire Wire Line
	5500 850  5500 900 
Wire Wire Line
	5500 900  5500 1050
Connection ~ 5150 900 
Wire Wire Line
	5500 1700 5500 1450
Connection ~ 5500 900 
Wire Wire Line
	1900 1000 1900 900 
Connection ~ 1900 900 
Wire Wire Line
	2250 900  2250 1000
Connection ~ 2250 900 
Wire Wire Line
	2550 900  2550 1000
Connection ~ 2550 900 
Wire Wire Line
	1250 1700 1250 1350
Wire Wire Line
	1250 1350 850  1350
Wire Wire Line
	1900 1400 1900 1700
Connection ~ 1900 1700
Wire Wire Line
	2250 1400 2250 1700
Connection ~ 2250 1700
Wire Wire Line
	2550 1400 2550 1700
Connection ~ 2550 1700
Wire Wire Line
	1300 900  1250 900 
Wire Wire Line
	1250 900  1250 1250
Wire Wire Line
	1250 1250 850  1250
Wire Wire Line
	2100 900  2100 800 
Connection ~ 2100 900 
Wire Wire Line
	8500 1400 8500 1500
Wire Wire Line
	8150 1450 8150 1500
Wire Wire Line
	8050 900  8150 900 
Wire Wire Line
	8150 900  8500 900 
Wire Wire Line
	8500 900  9000 900 
Wire Wire Line
	8150 900  8150 950 
Wire Wire Line
	7550 850  7550 900 
Connection ~ 8150 900 
Wire Wire Line
	8500 900  8500 1000
Connection ~ 8500 900 
Wire Wire Line
	3500 3200 2750 3200
Wire Wire Line
	1250 2900 1250 3500
Wire Wire Line
	1150 3600 3500 3600
Wire Wire Line
	1150 3500 1250 3500
Wire Wire Line
	1250 3500 2200 3500
Wire Wire Line
	2200 3500 3500 3500
Wire Wire Line
	1800 3700 1150 3700
Wire Wire Line
	9800 1350 9350 1350
Wire Wire Line
	9350 1050 9800 1050
Wire Wire Line
	9350 1150 9800 1150
Wire Wire Line
	6350 2550 6350 3100
Wire Wire Line
	6250 2550 6250 3100
Wire Wire Line
	6150 2550 6150 3100
Wire Wire Line
	6050 2550 6050 3100
Wire Wire Line
	5950 2550 5950 3100
Wire Wire Line
	5850 2550 5850 3100
Wire Wire Line
	5750 2550 5750 3100
Wire Wire Line
	5650 2550 5650 3100
Wire Wire Line
	5550 2550 5550 3100
Wire Wire Line
	5450 2550 5450 3100
Wire Wire Line
	5350 2550 5350 3100
Wire Wire Line
	5250 2550 5250 3100
Wire Wire Line
	5150 2550 5150 3100
Wire Wire Line
	5050 2550 5050 3100
Wire Wire Line
	4950 2550 4950 3100
Wire Wire Line
	5350 5300 5350 5850
Wire Wire Line
	5250 5300 5250 5850
Wire Wire Line
	5150 5300 5150 5850
Wire Wire Line
	5050 5300 5050 5850
Wire Wire Line
	4950 5300 4950 5850
Wire Wire Line
	5750 5300 5750 5850
Wire Wire Line
	5650 5300 5650 5850
Wire Wire Line
	5550 5300 5550 5850
Wire Wire Line
	5450 5300 5450 5850
Wire Wire Line
	7300 4150 7850 4150
Wire Wire Line
	7300 3950 7850 3950
Wire Wire Line
	7300 4050 7850 4050
Wire Wire Line
	7300 3850 7850 3850
Wire Wire Line
	7300 4550 7850 4550
Wire Wire Line
	7300 4350 7850 4350
Wire Wire Line
	7300 4450 7850 4450
Wire Wire Line
	7300 4250 7850 4250
Wire Wire Line
	2050 5300 1700 5300
Wire Wire Line
	2050 5100 1700 5100
Wire Wire Line
	2050 5400 1700 5400
Wire Wire Line
	2050 5200 1900 5200
Wire Wire Line
	1700 5600 2050 5600
Connection ~ 1900 5200
Wire Wire Line
	750  5100 1200 5100
Wire Wire Line
	750  5300 1200 5300
Wire Wire Line
	750  5400 1200 5400
Wire Wire Line
	750  5600 1200 5600
Wire Wire Line
	6650 1550 6650 1450
Wire Wire Line
	6200 1550 6400 1550
Wire Wire Line
	6400 1550 6650 1550
Wire Wire Line
	6650 1550 6950 1550
Wire Wire Line
	6200 1550 6200 1450
Wire Wire Line
	6400 1550 6400 1600
Connection ~ 6400 1550
Wire Wire Line
	6650 950  6650 1050
Wire Wire Line
	6200 950  6400 950 
Wire Wire Line
	6400 950  6650 950 
Wire Wire Line
	6650 950  6950 950 
Wire Wire Line
	6200 950  6200 1050
Wire Wire Line
	6400 950  6400 850 
Connection ~ 6400 950 
Wire Wire Line
	6950 950  6950 1050
Connection ~ 6650 950 
Wire Wire Line
	6950 1550 6950 1450
Connection ~ 6650 1550
Wire Wire Line
	1900 5000 1900 5200
Wire Wire Line
	1900 5200 1900 5500
Wire Wire Line
	1900 5500 2050 5500
Wire Wire Line
	5850 5300 5850 5850
Wire Wire Line
	5950 5300 5950 5850
Wire Wire Line
	6050 5300 6050 5850
Wire Wire Line
	6150 5300 6150 5850
Wire Wire Line
	6250 5300 6250 5850
Wire Wire Line
	6350 5300 6350 5850
Wire Wire Line
	6450 5300 6450 5850
Wire Wire Line
	6550 5300 6550 5850
Text Label 5050 5850 1    60   ~ 0
GND
Text Notes 7100 5300 0    60   ~ 0
PE6:T3:INT6\nPD7:T0
Text Label 3450 2800 2    60   ~ 0
AREF
Wire Wire Line
	6550 2550 6550 3100
Wire Wire Line
	6450 2550 6450 3100
Text Label 6250 5850 1    60   ~ 0
GND
$Comp
L ZB_RFR2 U?
U 1 1 580502D0
P 5700 4200
F 0 "U?" H 6650 4100 60  0000 C CNN
F 1 "ZB_RFR2" H 6800 4300 60  0000 C CNN
F 2 "" H 5700 4200 60  0000 C CNN
F 3 "" H 5700 4200 60  0000 C CNN
	1    5700 4200
	-1   0    0    -1  
$EndComp
$Comp
L MCP6001R U?
U 1 1 58059964
P 1700 2900
F 0 "U?" H 1750 3100 50  0000 C CNN
F 1 "MCP6001RT-I/OT" H 2000 3250 50  0000 C CNN
F 2 "" H 1650 3000 50  0000 C CNN
F 3 "" H 1750 3100 50  0000 C CNN
	1    1700 2900
	-1   0    0    -1  
$EndComp
$Comp
L GND #PWR?
U 1 1 58059E54
P 1800 3750
F 0 "#PWR?" H 1800 3500 50  0001 C CNN
F 1 "GND" H 1800 3600 50  0000 C CNN
F 2 "" H 1800 3750 50  0000 C CNN
F 3 "" H 1800 3750 50  0000 C CNN
	1    1800 3750
	1    0    0    -1  
$EndComp
Wire Wire Line
	1800 3200 1800 3250
Wire Wire Line
	1800 3250 1800 3700
Wire Wire Line
	1800 3700 1800 3750
Wire Wire Line
	1400 2900 1250 2900
Wire Wire Line
	2200 3500 2200 3000
Wire Wire Line
	2200 3000 2000 3000
Connection ~ 1250 3500
Wire Wire Line
	2750 3200 2750 3100
Wire Wire Line
	3450 2800 2950 2800
$Comp
L VCC #PWR?
U 1 1 5805A7FF
P 1800 2450
F 0 "#PWR?" H 1800 2550 30  0001 C CNN
F 1 "VCC" H 1800 2550 30  0000 C CNN
F 2 "" H 1800 2450 60  0001 C CNN
F 3 "" H 1800 2450 60  0001 C CNN
	1    1800 2450
	1    0    0    -1  
$EndComp
Wire Wire Line
	1800 2450 1800 2600
$Comp
L R_Small R?
U 1 1 5805AFFB
P 2250 2800
F 0 "R?" V 2350 2750 50  0000 L CNN
F 1 "10k" V 2150 2650 50  0000 L CNN
F 2 "" H 2250 2800 50  0000 C CNN
F 3 "" H 2250 2800 50  0000 C CNN
	1    2250 2800
	0    1    1    0   
$EndComp
$Comp
L R_Small R?
U 1 1 5805B1E3
P 2450 3050
F 0 "R?" V 2550 3000 50  0000 L CNN
F 1 "100k" V 2350 2900 50  0000 L CNN
F 2 "" H 2450 3050 50  0000 C CNN
F 3 "" H 2450 3050 50  0000 C CNN
	1    2450 3050
	-1   0    0    1   
$EndComp
Wire Wire Line
	2350 2800 2450 2800
Wire Wire Line
	2450 2800 2550 2800
Wire Wire Line
	2150 2800 2000 2800
Wire Wire Line
	1800 3250 2450 3250
Wire Wire Line
	2450 3250 2450 3150
Connection ~ 1800 3250
Wire Wire Line
	2450 2950 2450 2800
Connection ~ 2450 2800
Connection ~ 1800 3700
Text Label 7850 4450 2    60   ~ 0
AREF
Text Notes 8150 4050 0    60   ~ 0
zmienione
Text Notes 8150 4150 0    60   ~ 0
zmienione
Wire Wire Line
	6300 6850 6300 6750
Wire Wire Line
	6300 6750 6000 6750
Wire Wire Line
	6500 7050 6500 7150
Text Label 6000 6750 0    60   ~ 0
nRST
Text Label 6550 2500 1    60   ~ 0
RED-ZB
Text Label 7950 3850 0    60   ~ 0
GREEN-ZB
Text Label 5850 2450 1    60   ~ 0
YELLOW-ZB
$Comp
L LTC3631 U?
U 1 1 58068F1E
P 4100 900
F 0 "U?" H 3600 1100 60  0000 C CNN
F 1 "LTC3631IMS8EPBF" H 3650 1000 60  0000 C CNN
F 2 "" H 3550 800 60  0000 C CNN
F 3 "" H 3550 800 60  0000 C CNN
	1    4100 900 
	1    0    0    -1  
$EndComp
Wire Wire Line
	4350 1150 4200 1150
Wire Wire Line
	4200 1150 4200 1300
Wire Wire Line
	4200 1300 4200 1350
Wire Wire Line
	4200 1350 4350 1350
Wire Wire Line
	4100 1300 4200 1300
Connection ~ 4200 1300
Wire Wire Line
	4100 900  4350 900 
Wire Wire Line
	4850 1150 5000 1150
Wire Wire Line
	5000 1150 5000 900 
Wire Wire Line
	4850 900  5000 900 
Wire Wire Line
	5000 900  5150 900 
Wire Wire Line
	5150 900  5500 900 
Wire Wire Line
	3600 1550 3600 1650
Wire Wire Line
	3600 1650 3700 1650
Wire Wire Line
	3700 1550 3700 1650
Wire Wire Line
	3700 1650 3700 1700
Connection ~ 3700 1650
Wire Wire Line
	4850 1350 5000 1350
Wire Wire Line
	5000 1350 5000 1700
Wire Wire Line
	3300 1200 3100 1200
Wire Wire Line
	3100 1200 3100 1250
Wire Wire Line
	3100 1650 3100 1700
$Comp
L R-RESCUE-str-lc R?
U 1 1 5806A37B
P 2800 1400
F 0 "R?" V 2880 1400 40  0000 C CNN
F 1 "R" V 2807 1401 40  0000 C CNN
F 2 "SM0805" V 2730 1400 30  0000 C CNN
F 3 "~" H 2800 1400 30  0000 C CNN
	1    2800 1400
	1    0    0    -1  
$EndComp
Wire Wire Line
	3300 1100 2800 1100
Wire Wire Line
	2800 1100 2800 1150
Wire Wire Line
	2800 1650 2800 1700
Connection ~ 5000 1700
Connection ~ 3700 1700
Connection ~ 3100 1700
Connection ~ 2800 1700
Wire Wire Line
	3800 1800 3800 1700
Connection ~ 3800 1700
Wire Wire Line
	1800 900  1900 900 
Wire Wire Line
	1900 900  2100 900 
Wire Wire Line
	2100 900  2250 900 
Wire Wire Line
	2250 900  2550 900 
Wire Wire Line
	2550 900  3200 900 
Wire Wire Line
	3200 900  3300 900 
Wire Wire Line
	3300 1000 3200 1000
Wire Wire Line
	3200 1000 3200 900 
Connection ~ 3200 900 
Connection ~ 5000 900 
Wire Wire Line
	5150 1450 5150 1700
Connection ~ 5150 1700
Connection ~ 2200 3500
Text Label 8850 4750 0    60   ~ 0
SPI_MOSI
Text Label 8850 4850 0    60   ~ 0
SPI_MISO
Text Label 8850 4950 0    60   ~ 0
SPI_SCK
Text Label 10900 2300 3    60   ~ 0
nLED_R
Text Label 10500 2300 3    60   ~ 0
N_SENS_POW
Text Label 10100 2300 3    60   ~ 0
SPI_nCS
Text Label 10000 2300 3    60   ~ 0
nLED_ALRM
Text Label 10700 6050 1    60   ~ 0
nLED_B
Text Label 10500 6050 1    60   ~ 0
TX
Text Label 10600 6050 1    60   ~ 0
RX
Text Label 10400 6050 1    60   ~ 0
AREF
Text Label 10000 6050 1    60   ~ 0
BATT_DIV
Text Label 10100 6050 1    60   ~ 0
SENS_DATA
Text Label 10200 6050 1    60   ~ 0
SENS_REF
Text Label 8850 4150 0    60   ~ 0
nLED_G
Text Label 8850 5050 0    60   ~ 0
GND
Text Label 8850 3350 0    60   ~ 0
GND
Wire Wire Line
	10000 2300 10000 2900
Wire Wire Line
	10100 2300 10100 2900
Wire Wire Line
	10500 2300 10500 2900
Wire Wire Line
	10900 2300 10900 2900
Wire Wire Line
	8850 3350 9300 3350
Wire Wire Line
	8850 4150 9300 4150
Wire Wire Line
	8850 4750 9300 4750
Wire Wire Line
	8850 4850 9300 4850
Wire Wire Line
	8850 4950 9300 4950
Wire Wire Line
	8850 5050 9300 5050
Wire Wire Line
	10700 6050 10700 5550
Wire Wire Line
	10600 6050 10600 5550
Wire Wire Line
	10500 6050 10500 5550
Wire Wire Line
	10400 6050 10400 5550
Wire Wire Line
	10200 6050 10200 5550
Wire Wire Line
	10100 6050 10100 5550
Wire Wire Line
	10000 6050 10000 5550
$Comp
L AT45DB161E U?
U 1 1 5807F799
P 9800 1050
F 0 "U?" H 10200 1300 60  0000 C CNN
F 1 "AT45DB161E-SHD-B" H 10200 1200 60  0000 C CNN
F 2 "" H 10350 850 60  0000 C CNN
F 3 "" H 10350 850 60  0000 C CNN
	1    9800 1050
	1    0    0    -1  
$EndComp
Wire Wire Line
	10550 1050 10950 1050
Wire Wire Line
	10950 1150 10550 1150
Wire Wire Line
	10950 1250 10550 1250
Wire Wire Line
	10950 1350 10550 1350
Text Label 10950 1250 2    60   ~ 0
VCC
Text Label 10950 1350 2    60   ~ 0
VCC
Text Label 10950 1150 2    60   ~ 0
GND
Text Label 9350 1250 0    60   ~ 0
VCC
Wire Wire Line
	9350 1250 9800 1250
$Comp
L XPLAINED-256RFR2 M?
U 1 1 580A6D04
P 10900 2900
F 0 "M?" H 10350 1600 60  0000 C CNN
F 1 "XPLAINED-256RFR2" H 10500 1750 60  0000 C CNN
F 2 "" H 11600 1250 60  0000 C CNN
F 3 "" H 11600 1250 60  0000 C CNN
	1    10900 2900
	1    0    0    -1  
$EndComp
$Comp
L CONN_01X05 P?
U 1 1 580FA2C7
P 650 1150
F 0 "P?" H 650 1450 50  0000 C CNN
F 1 "CONN_01X05" V 750 1150 50  0000 C CNN
F 2 "" H 650 1150 50  0000 C CNN
F 3 "" H 650 1150 50  0000 C CNN
	1    650  1150
	-1   0    0    1   
$EndComp
Wire Wire Line
	1050 950  850  950 
Wire Wire Line
	1050 1050 850  1050
Wire Wire Line
	1050 1150 850  1150
Text Label 1050 950  2    60   ~ 0
GND
Text Label 1050 1350 2    60   ~ 0
GND
Text Label 1050 1250 2    60   ~ 0
BATT
$EndSCHEMATC
