(module TMM-6-0-14-2 (layer F.Cu) (tedit 55D83217)
  (fp_text reference TMM-6-0-14-2 (at 8.89 -1.905) (layer F.SilkS)
    (effects (font (size 1 1) (thickness 0.15)))
  )
  (fp_text value VAL** (at 8.89 6.35) (layer F.SilkS)
    (effects (font (size 1 1) (thickness 0.15)))
  )
  (fp_line (start 18.415 3.81) (end 18.415 5.08) (layer F.SilkS) (width 0.15))
  (fp_line (start 18.415 -0.635) (end 18.415 0.635) (layer F.SilkS) (width 0.15))
  (fp_line (start 18.415 0.635) (end 17.145 0.635) (layer F.SilkS) (width 0.15))
  (fp_line (start 17.145 0.635) (end 17.145 3.81) (layer F.SilkS) (width 0.15))
  (fp_line (start 17.145 3.81) (end 18.415 3.81) (layer F.SilkS) (width 0.15))
  (fp_line (start -1.905 -0.635) (end -1.905 5.08) (layer F.SilkS) (width 0.15))
  (fp_line (start -1.905 5.08) (end 18.415 5.08) (layer F.SilkS) (width 0.15))
  (fp_line (start 18.415 -0.635) (end -1.905 -0.635) (layer F.SilkS) (width 0.15))
  (pad 1 smd rect (at 0 0) (size 1.5 3) (layers F.Cu F.Paste F.Mask))
  (pad 2 smd rect (at 1.27 4.445) (size 1.5 3) (layers F.Cu F.Paste F.Mask))
  (pad 3 smd rect (at 2.54 0) (size 1.5 3) (layers F.Cu F.Paste F.Mask))
  (pad 4 smd rect (at 3.81 4.445) (size 1.5 3) (layers F.Cu F.Paste F.Mask))
  (pad 5 smd rect (at 5.08 0) (size 1.5 3) (layers F.Cu F.Paste F.Mask))
  (pad 6 smd rect (at 6.35 4.445) (size 1.5 3) (layers F.Cu F.Paste F.Mask))
  (pad 7 smd rect (at 7.62 0) (size 1.5 3) (layers F.Cu F.Paste F.Mask))
  (pad 8 smd rect (at 8.89 4.445) (size 1.5 3) (layers F.Cu F.Paste F.Mask))
  (pad 9 smd rect (at 10.16 0) (size 1.5 3) (layers F.Cu F.Paste F.Mask))
  (pad 10 smd rect (at 11.43 4.445) (size 1.5 3) (layers F.Cu F.Paste F.Mask))
  (pad 11 smd rect (at 12.7 0) (size 1.5 3) (layers F.Cu F.Paste F.Mask))
  (pad 12 smd rect (at 13.97 4.445) (size 1.5 3) (layers F.Cu F.Paste F.Mask))
  (pad 13 smd rect (at 15.24 0) (size 1.5 3) (layers F.Cu F.Paste F.Mask))
  (pad 14 smd rect (at 16.51 4.445) (size 1.5 3) (layers F.Cu F.Paste F.Mask))
)
