%!PS-Adobe-3.0
%%Creator: PCBNEW
%%CreationDate: Wed Jan 20 21:28:11 2016
%%Title: C:\workspace\hardware\devices\chopek\gerber\chopek-drl_map.ps
%%Pages: 1
%%PageOrder: Ascend
%%BoundingBox: 0 0 596 842
%%DocumentMedia: A4 595 842 0 () ()
%%Orientation: Landscape
%%EndComments
%%BeginProlog
/line { newpath moveto lineto stroke } bind def
/cir0 { newpath 0 360 arc stroke } bind def
/cir1 { newpath 0 360 arc gsave fill grestore stroke } bind def
/cir2 { newpath 0 360 arc gsave fill grestore stroke } bind def
/arc0 { newpath arc stroke } bind def
/arc1 { newpath 4 index 4 index moveto arc closepath gsave fill
    grestore stroke } bind def
/arc2 { newpath 4 index 4 index moveto arc closepath gsave fill
    grestore stroke } bind def
/poly0 { stroke } bind def
/poly1 { closepath gsave fill grestore stroke } bind def
/poly2 { closepath gsave fill grestore stroke } bind def
/rect0 { rectstroke } bind def
/rect1 { rectfill } bind def
/rect2 { rectfill } bind def
/linemode0 { 0 setlinecap 0 setlinejoin 0 setlinewidth } bind def
/linemode1 { 1 setlinecap 1 setlinejoin } bind def
/dashedline { [200] 100 setdash } bind def
/solidline { [] 0 setdash } bind def
/phantomshow { moveto
    /KicadFont findfont 0.000001 scalefont setfont
    show } bind def
/textshow { gsave
    findfont exch scalefont setfont concat 1 scale 0 0 moveto show
    } bind def
/reencodefont {
  findfont dup length dict begin
  { 1 index /FID ne
    { def }
    { pop pop } ifelse
  } forall
  /Encoding ISOLatin1Encoding def
  currentdict
  end } bind def
/KicadFont /Helvetica reencodefont definefont pop
/KicadFont-Bold /Helvetica-Bold reencodefont definefont pop
/KicadFont-Oblique /Helvetica-Oblique reencodefont definefont pop
/KicadFont-BoldOblique /Helvetica-BoldOblique reencodefont definefont pop
%%EndProlog
%%Page: 1 1
%%BeginPageSetup
gsave
0.0072 0.0072 scale
linemode1
82680 0 translate 90 rotate
150 setlinewidth
%%EndPageSetup
78.7394 setlinewidth
newpath
265111 -73485 moveto
265819 -74193 lineto
stroke
newpath
265819 -73485 moveto
265111 -74193 lineto
stroke
newpath
265111 -75255 moveto
265819 -75963 lineto
stroke
newpath
265819 -75255 moveto
265111 -75963 lineto
stroke
197965 -93624 375 cir0
198415 -90024 375 cir0
200065 -49224 375 cir0
215365 -58674 375 cir0
217915 -74124 375 cir0
218065 -82374 375 cir0
220615 -76074 375 cir0
221065 -93774 375 cir0
221965 -95124 375 cir0
223165 -84174 375 cir0
223915 -60174 375 cir0
224965 -58074 375 cir0
224965 -74424 375 cir0
225715 -90624 375 cir0
225865 -89124 375 cir0
226465 -67074 375 cir0
227215 -58074 375 cir0
229015 -71574 375 cir0
229465 -58074 375 cir0
230665 -70974 375 cir0
231865 -90324 375 cir0
232315 -70674 375 cir0
232465 -87324 375 cir0
232765 -82524 375 cir0
233065 -79674 375 cir0
233215 -81024 375 cir0
233515 -78324 375 cir0
236065 -64974 375 cir0
236215 -54924 375 cir0
237715 -54924 375 cir0
237865 -64974 375 cir0
239215 -54924 375 cir0
240715 -54924 375 cir0
242215 -54924 375 cir0
243715 -55074 375 cir0
244915 -69174 375 cir0
245215 -55074 375 cir0
246415 -69174 375 cir0
246715 -55074 375 cir0
246865 -61674 375 cir0
248215 -55074 375 cir0
248215 -61674 375 cir0
248215 -69174 375 cir0
249115 -62724 375 cir0
249715 -45624 375 cir0
249865 -69174 375 cir0
250465 -63024 375 cir0
251365 -75924 375 cir0
251365 -77874 375 cir0
251365 -80874 375 cir0
251365 -84024 375 cir0
251665 -87324 375 cir0
251665 -88824 375 cir0
251815 -74124 375 cir0
252415 -76974 375 cir0
252415 -78924 375 cir0
252415 -81774 375 cir0
252415 -85074 375 cir0
252640 -91749 375 cir0
252865 -63324 375 cir0
252865 -65124 375 cir0
253165 -94824 375 cir0
254215 -57624 375 cir0
254965 -91824 375 cir0
255715 -69174 375 cir0
256615 -68124 375 cir0
257515 -66774 375 cir0
259465 -88674 375 cir0
262615 -84624 375 cir0
265015 -86274 375 cir0
266965 -45774 375 cir0
271465 -45774 375 cir0
274315 -75774 375 cir0
274465 -82674 375 cir0
275365 -84774 375 cir0
275365 -86274 375 cir0
275965 -45774 375 cir0
276415 -74874 375 cir0
276761 -86379.1 375 cir0
276865 -84774 375 cir0
278215 -73974 375 cir0
279265 -72924 375 cir0
279565 -55524 375 cir0
281215 -66774 375 cir0
281365 -86874 375 cir0
289165 -80874 375 cir0
289165 -94374 375 cir0
289315 -87624 375 cir0
290065 -74724 375 cir0
294865 -66774 375 cir0
296965 -81774 375 cir0
296965 -88524 375 cir0
296965 -95424 375 cir0
296965 -99324 375 cir0
305965 -81924 375 cir0
305965 -88524 375 cir0
305965 -95724 375 cir0
309265 -100524 375 cir0
newpath
224965 -48174 moveto
224965 -49074 lineto
stroke
newpath
224515 -48624 moveto
225415 -48624 lineto
stroke
newpath
226465 -48174 moveto
226465 -49074 lineto
stroke
newpath
226015 -48624 moveto
226915 -48624 lineto
stroke
newpath
227965 -48174 moveto
227965 -49074 lineto
stroke
newpath
227515 -48624 moveto
228415 -48624 lineto
stroke
newpath
229465 -48174 moveto
229465 -49074 lineto
stroke
newpath
229015 -48624 moveto
229915 -48624 lineto
stroke
newpath
259020 -60591.6 moveto
259020 -59756.4 lineto
258185 -59756.4 lineto
258185 -60591.6 lineto
259020 -60591.6 lineto
poly0
newpath
263745 -54686.1 moveto
263745 -53850.9 lineto
262910 -53850.9 lineto
262910 -54686.1 lineto
263745 -54686.1 lineto
poly0
newpath
263745 -66497.1 moveto
263745 -65661.9 lineto
262910 -65661.9 lineto
262910 -66497.1 lineto
263745 -66497.1 lineto
poly0
newpath
199465 -40215 moveto
200056 -39624 lineto
199465 -39033 lineto
198874 -39624 lineto
199465 -40215 lineto
poly0
newpath
202465 -40215 moveto
203056 -39624 lineto
202465 -39033 lineto
201874 -39624 lineto
202465 -40215 lineto
poly0
newpath
208465 -40215 moveto
209056 -39624 lineto
208465 -39033 lineto
207874 -39624 lineto
208465 -40215 lineto
poly0
newpath
211465 -40215 moveto
212056 -39624 lineto
211465 -39033 lineto
210874 -39624 lineto
211465 -40215 lineto
poly0
newpath
217465 -40215 moveto
218056 -39624 lineto
217465 -39033 lineto
216874 -39624 lineto
217465 -40215 lineto
poly0
newpath
220465 -40215 moveto
221056 -39624 lineto
220465 -39033 lineto
219874 -39624 lineto
220465 -40215 lineto
poly0
newpath
226465 -40215 moveto
227056 -39624 lineto
226465 -39033 lineto
225874 -39624 lineto
226465 -40215 lineto
poly0
newpath
229465 -40215 moveto
230056 -39624 lineto
229465 -39033 lineto
228874 -39624 lineto
229465 -40215 lineto
poly0
newpath
235465 -40215 moveto
236056 -39624 lineto
235465 -39033 lineto
234874 -39624 lineto
235465 -40215 lineto
poly0
newpath
238465 -40215 moveto
239056 -39624 lineto
238465 -39033 lineto
237874 -39624 lineto
238465 -40215 lineto
poly0
newpath
244465 -40215 moveto
245056 -39624 lineto
244465 -39033 lineto
243874 -39624 lineto
244465 -40215 lineto
poly0
newpath
247465 -40215 moveto
248056 -39624 lineto
247465 -39033 lineto
246874 -39624 lineto
247465 -40215 lineto
poly0
newpath
253465 -40215 moveto
254056 -39624 lineto
253465 -39033 lineto
252874 -39624 lineto
253465 -40215 lineto
poly0
newpath
256465 -40215 moveto
257056 -39624 lineto
256465 -39033 lineto
255874 -39624 lineto
256465 -40215 lineto
poly0
newpath
262465 -40215 moveto
263056 -39624 lineto
262465 -39033 lineto
261874 -39624 lineto
262465 -40215 lineto
poly0
newpath
265465 -40215 moveto
266056 -39624 lineto
265465 -39033 lineto
264874 -39624 lineto
265465 -40215 lineto
poly0
newpath
271465 -40215 moveto
272056 -39624 lineto
271465 -39033 lineto
270874 -39624 lineto
271465 -40215 lineto
poly0
newpath
274465 -40215 moveto
275056 -39624 lineto
274465 -39033 lineto
273874 -39624 lineto
274465 -40215 lineto
poly0
newpath
280465 -40215 moveto
281056 -39624 lineto
280465 -39033 lineto
279874 -39624 lineto
280465 -40215 lineto
poly0
newpath
283465 -40215 moveto
284056 -39624 lineto
283465 -39033 lineto
282874 -39624 lineto
283465 -40215 lineto
poly0
newpath
289465 -40215 moveto
290056 -39624 lineto
289465 -39033 lineto
288874 -39624 lineto
289465 -40215 lineto
poly0
newpath
292465 -40215 moveto
293056 -39624 lineto
292465 -39033 lineto
291874 -39624 lineto
292465 -40215 lineto
poly0
newpath
298465 -40215 moveto
299056 -39624 lineto
298465 -39033 lineto
297874 -39624 lineto
298465 -40215 lineto
poly0
newpath
301465 -40215 moveto
302056 -39624 lineto
301465 -39033 lineto
300874 -39624 lineto
301465 -40215 lineto
poly0
newpath
307465 -40215 moveto
308056 -39624 lineto
307465 -39033 lineto
306874 -39624 lineto
307465 -40215 lineto
poly0
newpath
310465 -40215 moveto
311056 -39624 lineto
310465 -39033 lineto
309874 -39624 lineto
310465 -40215 lineto
poly0
newpath
316465 -40215 moveto
317056 -39624 lineto
316465 -39033 lineto
315874 -39624 lineto
316465 -40215 lineto
poly0
newpath
319465 -40215 moveto
320056 -39624 lineto
319465 -39033 lineto
318874 -39624 lineto
319465 -40215 lineto
poly0
newpath
209365 -46524 moveto
210565 -47724 lineto
stroke
newpath
210565 -46524 moveto
209365 -47724 lineto
stroke
209965 -47124 600 cir0
newpath
212365 -46524 moveto
213565 -47724 lineto
stroke
newpath
213565 -46524 moveto
212365 -47724 lineto
stroke
212965 -47124 600 cir0
newpath
215365 -46524 moveto
216565 -47724 lineto
stroke
newpath
216565 -46524 moveto
215365 -47724 lineto
stroke
215965 -47124 600 cir0
newpath
312415 -72624 moveto
313615 -73824 lineto
stroke
newpath
313615 -72624 moveto
312415 -73824 lineto
stroke
313015 -73224 600 cir0
newpath
312415 -75624 moveto
313615 -76824 lineto
stroke
newpath
313615 -75624 moveto
312415 -76824 lineto
stroke
313015 -76224 600 cir0
newpath
315415 -72624 moveto
316615 -73824 lineto
stroke
newpath
316615 -72624 moveto
315415 -73824 lineto
stroke
316015 -73224 600 cir0
newpath
315415 -75624 moveto
316615 -76824 lineto
stroke
newpath
316615 -75624 moveto
315415 -76824 lineto
stroke
316015 -76224 600 cir0
newpath
311516 -48718.5 moveto
313288 -50490.1 lineto
stroke
newpath
313288 -48718.5 moveto
311516 -50490.1 lineto
stroke
newpath
312402 -48718.5 moveto
312402 -50490.1 lineto
stroke
newpath
311516 -49604.3 moveto
313288 -49604.3 lineto
stroke
newpath
311516 -54624 moveto
313288 -56395.7 lineto
stroke
newpath
313288 -54624 moveto
311516 -56395.7 lineto
stroke
newpath
312402 -54624 moveto
312402 -56395.7 lineto
stroke
newpath
311516 -55509.8 moveto
313288 -55509.8 lineto
stroke
newpath
311516 -60529.5 moveto
313288 -62301.2 lineto
stroke
newpath
313288 -60529.5 moveto
311516 -62301.2 lineto
stroke
newpath
312402 -60529.5 moveto
312402 -62301.2 lineto
stroke
newpath
311516 -61415.3 moveto
313288 -61415.3 lineto
stroke
newpath
311516 -66435 moveto
313288 -68206.7 lineto
stroke
newpath
313288 -66435 moveto
311516 -68206.7 lineto
stroke
newpath
312402 -66435 moveto
312402 -68206.7 lineto
stroke
newpath
311516 -67320.9 moveto
313288 -67320.9 lineto
stroke
newpath
215007 -52330.5 moveto
216780 -54103.5 lineto
stroke
newpath
216780 -52330.5 moveto
215007 -54103.5 lineto
stroke
newpath
216520 -53843.9 moveto
216520 -52590.1 lineto
215266 -52590.1 lineto
215266 -53843.9 lineto
216520 -53843.9 lineto
poly0
newpath
215007 -64144.5 moveto
216780 -65917.5 lineto
stroke
newpath
216780 -64144.5 moveto
215007 -65917.5 lineto
stroke
newpath
216520 -65657.9 moveto
216520 -64404.1 lineto
215266 -64404.1 lineto
215266 -65657.9 lineto
216520 -65657.9 lineto
poly0
118.11 setlinewidth
newpath
59533.6 56042.5 moveto
59533.6 57223.6 lineto
59814.8 57223.6 lineto
59983.6 57167.3 lineto
60096 57054.9 lineto
60152.3 56942.4 lineto
60208.5 56717.4 lineto
60208.5 56548.7 lineto
60152.3 56323.7 lineto
60096 56211.2 lineto
59983.6 56098.7 lineto
59814.8 56042.5 lineto
59533.6 56042.5 lineto
stroke
newpath
60714.7 56042.5 moveto
60714.7 56829.9 lineto
stroke
newpath
60714.7 56604.9 moveto
60771 56717.4 lineto
60827.2 56773.6 lineto
60939.7 56829.9 lineto
61052.2 56829.9 lineto
stroke
newpath
61445.9 56042.5 moveto
61445.9 56829.9 lineto
stroke
newpath
61445.9 57223.6 moveto
61389.6 57167.3 lineto
61445.9 57111.1 lineto
61502.1 57167.3 lineto
61445.9 57223.6 lineto
61445.9 57111.1 lineto
stroke
newpath
62177 56042.5 moveto
62064.6 56098.7 lineto
62008.3 56211.2 lineto
62008.3 57223.6 lineto
stroke
newpath
62795.7 56042.5 moveto
62683.2 56098.7 lineto
62627 56211.2 lineto
62627 57223.6 lineto
stroke
newpath
64145.5 56042.5 moveto
64145.5 57223.6 lineto
64539.2 56379.9 lineto
64932.9 57223.6 lineto
64932.9 56042.5 lineto
stroke
newpath
66001.6 56042.5 moveto
66001.6 56661.2 lineto
65945.3 56773.6 lineto
65832.8 56829.9 lineto
65607.9 56829.9 lineto
65495.4 56773.6 lineto
stroke
newpath
66001.6 56098.7 moveto
65889.1 56042.5 lineto
65607.9 56042.5 lineto
65495.4 56098.7 lineto
65439.1 56211.2 lineto
65439.1 56323.7 lineto
65495.4 56436.2 lineto
65607.9 56492.4 lineto
65889.1 56492.4 lineto
66001.6 56548.7 lineto
stroke
newpath
66564 56829.9 moveto
66564 55648.8 lineto
stroke
newpath
66564 56773.6 moveto
66676.5 56829.9 lineto
66901.4 56829.9 lineto
67013.9 56773.6 lineto
67070.2 56717.4 lineto
67126.4 56604.9 lineto
67126.4 56267.5 lineto
67070.2 56155 lineto
67013.9 56098.7 lineto
66901.4 56042.5 lineto
66676.5 56042.5 lineto
66564 56098.7 lineto
stroke
newpath
67632.6 56155 moveto
67688.8 56098.7 lineto
67632.6 56042.5 lineto
67576.4 56098.7 lineto
67632.6 56155 lineto
67632.6 56042.5 lineto
stroke
newpath
67632.6 56773.6 moveto
67688.8 56717.4 lineto
67632.6 56661.2 lineto
67576.4 56717.4 lineto
67632.6 56773.6 lineto
67632.6 56661.2 lineto
stroke
newpath
57757 54450.5 moveto
58465 53742.5 lineto
stroke
newpath
58465 54450.5 moveto
57757 53742.5 lineto
stroke
newpath
59758.6 54743.3 moveto
59871.1 54743.3 lineto
59983.6 54687 lineto
60039.8 54630.8 lineto
60096 54518.3 lineto
60152.3 54293.3 lineto
60152.3 54012.1 lineto
60096 53787.1 lineto
60039.8 53674.7 lineto
59983.6 53618.4 lineto
59871.1 53562.2 lineto
59758.6 53562.2 lineto
59646.1 53618.4 lineto
59589.9 53674.7 lineto
59533.6 53787.1 lineto
59477.4 54012.1 lineto
59477.4 54293.3 lineto
59533.6 54518.3 lineto
59589.9 54630.8 lineto
59646.1 54687 lineto
59758.6 54743.3 lineto
stroke
newpath
60658.5 53674.7 moveto
60714.7 53618.4 lineto
60658.5 53562.2 lineto
60602.2 53618.4 lineto
60658.5 53674.7 lineto
60658.5 53562.2 lineto
stroke
newpath
61727.1 54743.3 moveto
61502.1 54743.3 lineto
61389.6 54687 lineto
61333.4 54630.8 lineto
61220.9 54462.1 lineto
61164.7 54237.1 lineto
61164.7 53787.1 lineto
61220.9 53674.7 lineto
61277.1 53618.4 lineto
61389.6 53562.2 lineto
61614.6 53562.2 lineto
61727.1 53618.4 lineto
61783.3 53674.7 lineto
61839.6 53787.1 lineto
61839.6 54068.4 lineto
61783.3 54180.8 lineto
61727.1 54237.1 lineto
61614.6 54293.3 lineto
61389.6 54293.3 lineto
61277.1 54237.1 lineto
61220.9 54180.8 lineto
61164.7 54068.4 lineto
stroke
newpath
62570.7 54743.3 moveto
62683.2 54743.3 lineto
62795.7 54687 lineto
62852 54630.8 lineto
62908.2 54518.3 lineto
62964.4 54293.3 lineto
62964.4 54012.1 lineto
62908.2 53787.1 lineto
62852 53674.7 lineto
62795.7 53618.4 lineto
62683.2 53562.2 lineto
62570.7 53562.2 lineto
62458.3 53618.4 lineto
62402 53674.7 lineto
62345.8 53787.1 lineto
62289.5 54012.1 lineto
62289.5 54293.3 lineto
62345.8 54518.3 lineto
62402 54630.8 lineto
62458.3 54687 lineto
62570.7 54743.3 lineto
stroke
newpath
63470.6 53562.2 moveto
63470.6 54349.6 lineto
stroke
newpath
63470.6 54237.1 moveto
63526.9 54293.3 lineto
63639.4 54349.6 lineto
63808.1 54349.6 lineto
63920.6 54293.3 lineto
63976.8 54180.8 lineto
63976.8 53562.2 lineto
stroke
newpath
63976.8 54180.8 moveto
64033.1 54293.3 lineto
64145.5 54349.6 lineto
64314.3 54349.6 lineto
64426.8 54293.3 lineto
64483 54180.8 lineto
64483 53562.2 lineto
stroke
newpath
65045.4 53562.2 moveto
65045.4 54349.6 lineto
stroke
newpath
65045.4 54237.1 moveto
65101.7 54293.3 lineto
65214.2 54349.6 lineto
65382.9 54349.6 lineto
65495.4 54293.3 lineto
65551.6 54180.8 lineto
65551.6 53562.2 lineto
stroke
newpath
65551.6 54180.8 moveto
65607.9 54293.3 lineto
65720.3 54349.6 lineto
65889.1 54349.6 lineto
66001.6 54293.3 lineto
66057.8 54180.8 lineto
66057.8 53562.2 lineto
stroke
newpath
68363.8 54799.5 moveto
67351.4 53280.9 lineto
stroke
newpath
69882.3 54743.3 moveto
69994.8 54743.3 lineto
70107.3 54687 lineto
70163.5 54630.8 lineto
70219.8 54518.3 lineto
70276 54293.3 lineto
70276 54012.1 lineto
70219.8 53787.1 lineto
70163.5 53674.7 lineto
70107.3 53618.4 lineto
69994.8 53562.2 lineto
69882.3 53562.2 lineto
69769.8 53618.4 lineto
69713.6 53674.7 lineto
69657.4 53787.1 lineto
69601.1 54012.1 lineto
69601.1 54293.3 lineto
69657.4 54518.3 lineto
69713.6 54630.8 lineto
69769.8 54687 lineto
69882.3 54743.3 lineto
stroke
newpath
70782.2 53674.7 moveto
70838.5 53618.4 lineto
70782.2 53562.2 lineto
70726 53618.4 lineto
70782.2 53674.7 lineto
70782.2 53562.2 lineto
stroke
newpath
71569.6 54743.3 moveto
71682.1 54743.3 lineto
71794.6 54687 lineto
71850.8 54630.8 lineto
71907.1 54518.3 lineto
71963.3 54293.3 lineto
71963.3 54012.1 lineto
71907.1 53787.1 lineto
71850.8 53674.7 lineto
71794.6 53618.4 lineto
71682.1 53562.2 lineto
71569.6 53562.2 lineto
71457.1 53618.4 lineto
71400.9 53674.7 lineto
71344.6 53787.1 lineto
71288.4 54012.1 lineto
71288.4 54293.3 lineto
71344.6 54518.3 lineto
71400.9 54630.8 lineto
71457.1 54687 lineto
71569.6 54743.3 lineto
stroke
newpath
72413.3 54630.8 moveto
72469.5 54687 lineto
72582 54743.3 lineto
72863.2 54743.3 lineto
72975.7 54687 lineto
73031.9 54630.8 lineto
73088.2 54518.3 lineto
73088.2 54405.8 lineto
73031.9 54237.1 lineto
72357 53562.2 lineto
73088.2 53562.2 lineto
stroke
newpath
74100.5 54349.6 moveto
74100.5 53562.2 lineto
stroke
newpath
73819.3 54799.5 moveto
73538.1 53955.9 lineto
74269.3 53955.9 lineto
stroke
newpath
74663 54743.3 moveto
74663 54518.3 lineto
stroke
newpath
75112.9 54743.3 moveto
75112.9 54518.3 lineto
stroke
newpath
76856.5 53112.2 moveto
76800.2 53168.5 lineto
76687.7 53337.2 lineto
76631.5 53449.7 lineto
76575.2 53618.4 lineto
76519 53899.6 lineto
76519 54124.6 lineto
76575.2 54405.8 lineto
76631.5 54574.5 lineto
76687.7 54687 lineto
76800.2 54855.8 lineto
76856.5 54912 lineto
stroke
newpath
77250.2 54630.8 moveto
77306.4 54687 lineto
77418.9 54743.3 lineto
77700.1 54743.3 lineto
77812.6 54687 lineto
77868.8 54630.8 lineto
77925.1 54518.3 lineto
77925.1 54405.8 lineto
77868.8 54237.1 lineto
77193.9 53562.2 lineto
77925.1 53562.2 lineto
stroke
newpath
79331.1 53562.2 moveto
79331.1 54743.3 lineto
stroke
newpath
79837.3 53562.2 moveto
79837.3 54180.8 lineto
79781.1 54293.3 lineto
79668.6 54349.6 lineto
79499.9 54349.6 lineto
79387.4 54293.3 lineto
79331.1 54237.1 lineto
stroke
newpath
80568.5 53562.2 moveto
80456 53618.4 lineto
80399.8 53674.7 lineto
80343.5 53787.1 lineto
80343.5 54124.6 lineto
80399.8 54237.1 lineto
80456 54293.3 lineto
80568.5 54349.6 lineto
80737.2 54349.6 lineto
80849.7 54293.3 lineto
80905.9 54237.1 lineto
80962.2 54124.6 lineto
80962.2 53787.1 lineto
80905.9 53674.7 lineto
80849.7 53618.4 lineto
80737.2 53562.2 lineto
80568.5 53562.2 lineto
stroke
newpath
81637.1 53562.2 moveto
81524.6 53618.4 lineto
81468.4 53730.9 lineto
81468.4 54743.3 lineto
stroke
newpath
82537 53618.4 moveto
82424.5 53562.2 lineto
82199.5 53562.2 lineto
82087 53618.4 lineto
82030.8 53730.9 lineto
82030.8 54180.8 lineto
82087 54293.3 lineto
82199.5 54349.6 lineto
82424.5 54349.6 lineto
82537 54293.3 lineto
82593.2 54180.8 lineto
82593.2 54068.4 lineto
82030.8 53955.9 lineto
stroke
newpath
83043.2 53618.4 moveto
83155.7 53562.2 lineto
83380.6 53562.2 lineto
83493.1 53618.4 lineto
83549.4 53730.9 lineto
83549.4 53787.1 lineto
83493.1 53899.6 lineto
83380.6 53955.9 lineto
83211.9 53955.9 lineto
83099.4 54012.1 lineto
83043.2 54124.6 lineto
83043.2 54180.8 lineto
83099.4 54293.3 lineto
83211.9 54349.6 lineto
83380.6 54349.6 lineto
83493.1 54293.3 lineto
stroke
newpath
83943.1 53112.2 moveto
83999.3 53168.5 lineto
84111.8 53337.2 lineto
84168 53449.7 lineto
84224.3 53618.4 lineto
84280.5 53899.6 lineto
84280.5 54124.6 lineto
84224.3 54405.8 lineto
84168 54574.5 lineto
84111.8 54687 lineto
83999.3 54855.8 lineto
83943.1 54912 lineto
stroke
58090 52537.4 375 cir0
newpath
59758.6 53184.2 moveto
59871.1 53184.2 lineto
59983.6 53128 lineto
60039.8 53071.7 lineto
60096 52959.2 lineto
60152.3 52734.3 lineto
60152.3 52453.1 lineto
60096 52228.1 lineto
60039.8 52115.6 lineto
59983.6 52059.4 lineto
59871.1 52003.1 lineto
59758.6 52003.1 lineto
59646.1 52059.4 lineto
59589.9 52115.6 lineto
59533.6 52228.1 lineto
59477.4 52453.1 lineto
59477.4 52734.3 lineto
59533.6 52959.2 lineto
59589.9 53071.7 lineto
59646.1 53128 lineto
59758.6 53184.2 lineto
stroke
newpath
60658.5 52115.6 moveto
60714.7 52059.4 lineto
60658.5 52003.1 lineto
60602.2 52059.4 lineto
60658.5 52115.6 lineto
60658.5 52003.1 lineto
stroke
newpath
61727.1 53184.2 moveto
61502.1 53184.2 lineto
61389.6 53128 lineto
61333.4 53071.7 lineto
61220.9 52903 lineto
61164.7 52678 lineto
61164.7 52228.1 lineto
61220.9 52115.6 lineto
61277.1 52059.4 lineto
61389.6 52003.1 lineto
61614.6 52003.1 lineto
61727.1 52059.4 lineto
61783.3 52115.6 lineto
61839.6 52228.1 lineto
61839.6 52509.3 lineto
61783.3 52621.8 lineto
61727.1 52678 lineto
61614.6 52734.3 lineto
61389.6 52734.3 lineto
61277.1 52678 lineto
61220.9 52621.8 lineto
61164.7 52509.3 lineto
stroke
newpath
62852 52790.5 moveto
62852 52003.1 lineto
stroke
newpath
62570.7 53240.5 moveto
62289.5 52396.8 lineto
63020.7 52396.8 lineto
stroke
newpath
63470.6 52003.1 moveto
63470.6 52790.5 lineto
stroke
newpath
63470.6 52678 moveto
63526.9 52734.3 lineto
63639.4 52790.5 lineto
63808.1 52790.5 lineto
63920.6 52734.3 lineto
63976.8 52621.8 lineto
63976.8 52003.1 lineto
stroke
newpath
63976.8 52621.8 moveto
64033.1 52734.3 lineto
64145.5 52790.5 lineto
64314.3 52790.5 lineto
64426.8 52734.3 lineto
64483 52621.8 lineto
64483 52003.1 lineto
stroke
newpath
65045.4 52003.1 moveto
65045.4 52790.5 lineto
stroke
newpath
65045.4 52678 moveto
65101.7 52734.3 lineto
65214.2 52790.5 lineto
65382.9 52790.5 lineto
65495.4 52734.3 lineto
65551.6 52621.8 lineto
65551.6 52003.1 lineto
stroke
newpath
65551.6 52621.8 moveto
65607.9 52734.3 lineto
65720.3 52790.5 lineto
65889.1 52790.5 lineto
66001.6 52734.3 lineto
66057.8 52621.8 lineto
66057.8 52003.1 lineto
stroke
newpath
68363.8 53240.5 moveto
67351.4 51721.9 lineto
stroke
newpath
69882.3 53184.2 moveto
69994.8 53184.2 lineto
70107.3 53128 lineto
70163.5 53071.7 lineto
70219.8 52959.2 lineto
70276 52734.3 lineto
70276 52453.1 lineto
70219.8 52228.1 lineto
70163.5 52115.6 lineto
70107.3 52059.4 lineto
69994.8 52003.1 lineto
69882.3 52003.1 lineto
69769.8 52059.4 lineto
69713.6 52115.6 lineto
69657.4 52228.1 lineto
69601.1 52453.1 lineto
69601.1 52734.3 lineto
69657.4 52959.2 lineto
69713.6 53071.7 lineto
69769.8 53128 lineto
69882.3 53184.2 lineto
stroke
newpath
70782.2 52115.6 moveto
70838.5 52059.4 lineto
70782.2 52003.1 lineto
70726 52059.4 lineto
70782.2 52115.6 lineto
70782.2 52003.1 lineto
stroke
newpath
71569.6 53184.2 moveto
71682.1 53184.2 lineto
71794.6 53128 lineto
71850.8 53071.7 lineto
71907.1 52959.2 lineto
71963.3 52734.3 lineto
71963.3 52453.1 lineto
71907.1 52228.1 lineto
71850.8 52115.6 lineto
71794.6 52059.4 lineto
71682.1 52003.1 lineto
71569.6 52003.1 lineto
71457.1 52059.4 lineto
71400.9 52115.6 lineto
71344.6 52228.1 lineto
71288.4 52453.1 lineto
71288.4 52734.3 lineto
71344.6 52959.2 lineto
71400.9 53071.7 lineto
71457.1 53128 lineto
71569.6 53184.2 lineto
stroke
newpath
72413.3 53071.7 moveto
72469.5 53128 lineto
72582 53184.2 lineto
72863.2 53184.2 lineto
72975.7 53128 lineto
73031.9 53071.7 lineto
73088.2 52959.2 lineto
73088.2 52846.8 lineto
73031.9 52678 lineto
72357 52003.1 lineto
73088.2 52003.1 lineto
stroke
newpath
74156.8 53184.2 moveto
73594.4 53184.2 lineto
73538.1 52621.8 lineto
73594.4 52678 lineto
73706.8 52734.3 lineto
73988.1 52734.3 lineto
74100.5 52678 lineto
74156.8 52621.8 lineto
74213 52509.3 lineto
74213 52228.1 lineto
74156.8 52115.6 lineto
74100.5 52059.4 lineto
73988.1 52003.1 lineto
73706.8 52003.1 lineto
73594.4 52059.4 lineto
73538.1 52115.6 lineto
stroke
newpath
74663 53184.2 moveto
74663 52959.2 lineto
stroke
newpath
75112.9 53184.2 moveto
75112.9 52959.2 lineto
stroke
newpath
76856.5 51553.2 moveto
76800.2 51609.4 lineto
76687.7 51778.1 lineto
76631.5 51890.6 lineto
76575.2 52059.4 lineto
76519 52340.6 lineto
76519 52565.5 lineto
76575.2 52846.8 lineto
76631.5 53015.5 lineto
76687.7 53128 lineto
76800.2 53296.7 lineto
76856.5 53352.9 lineto
stroke
newpath
77362.6 52003.1 moveto
77587.6 52003.1 lineto
77700.1 52059.4 lineto
77756.3 52115.6 lineto
77868.8 52284.3 lineto
77925.1 52509.3 lineto
77925.1 52959.2 lineto
77868.8 53071.7 lineto
77812.6 53128 lineto
77700.1 53184.2 lineto
77475.1 53184.2 lineto
77362.6 53128 lineto
77306.4 53071.7 lineto
77250.2 52959.2 lineto
77250.2 52678 lineto
77306.4 52565.5 lineto
77362.6 52509.3 lineto
77475.1 52453.1 lineto
77700.1 52453.1 lineto
77812.6 52509.3 lineto
77868.8 52565.5 lineto
77925.1 52678 lineto
stroke
newpath
78600 52678 moveto
78487.5 52734.3 lineto
78431.3 52790.5 lineto
78375 52903 lineto
78375 52959.2 lineto
78431.3 53071.7 lineto
78487.5 53128 lineto
78600 53184.2 lineto
78825 53184.2 lineto
78937.4 53128 lineto
78993.7 53071.7 lineto
79049.9 52959.2 lineto
79049.9 52903 lineto
78993.7 52790.5 lineto
78937.4 52734.3 lineto
78825 52678 lineto
78600 52678 lineto
78487.5 52621.8 lineto
78431.3 52565.5 lineto
78375 52453.1 lineto
78375 52228.1 lineto
78431.3 52115.6 lineto
78487.5 52059.4 lineto
78600 52003.1 lineto
78825 52003.1 lineto
78937.4 52059.4 lineto
78993.7 52115.6 lineto
79049.9 52228.1 lineto
79049.9 52453.1 lineto
78993.7 52565.5 lineto
78937.4 52621.8 lineto
78825 52678 lineto
stroke
newpath
80456 52003.1 moveto
80456 53184.2 lineto
stroke
newpath
80962.2 52003.1 moveto
80962.2 52621.8 lineto
80905.9 52734.3 lineto
80793.5 52790.5 lineto
80624.7 52790.5 lineto
80512.2 52734.3 lineto
80456 52678 lineto
stroke
newpath
81693.3 52003.1 moveto
81580.9 52059.4 lineto
81524.6 52115.6 lineto
81468.4 52228.1 lineto
81468.4 52565.5 lineto
81524.6 52678 lineto
81580.9 52734.3 lineto
81693.3 52790.5 lineto
81862.1 52790.5 lineto
81974.6 52734.3 lineto
82030.8 52678 lineto
82087 52565.5 lineto
82087 52228.1 lineto
82030.8 52115.6 lineto
81974.6 52059.4 lineto
81862.1 52003.1 lineto
81693.3 52003.1 lineto
stroke
newpath
82762 52003.1 moveto
82649.5 52059.4 lineto
82593.2 52171.8 lineto
82593.2 53184.2 lineto
stroke
newpath
83661.9 52059.4 moveto
83549.4 52003.1 lineto
83324.4 52003.1 lineto
83211.9 52059.4 lineto
83155.7 52171.8 lineto
83155.7 52621.8 lineto
83211.9 52734.3 lineto
83324.4 52790.5 lineto
83549.4 52790.5 lineto
83661.9 52734.3 lineto
83718.1 52621.8 lineto
83718.1 52509.3 lineto
83155.7 52396.8 lineto
stroke
newpath
84168 52059.4 moveto
84280.5 52003.1 lineto
84505.5 52003.1 lineto
84618 52059.4 lineto
84674.2 52171.8 lineto
84674.2 52228.1 lineto
84618 52340.6 lineto
84505.5 52396.8 lineto
84336.8 52396.8 lineto
84224.3 52453.1 lineto
84168 52565.5 lineto
84168 52621.8 lineto
84224.3 52734.3 lineto
84336.8 52790.5 lineto
84505.5 52790.5 lineto
84618 52734.3 lineto
stroke
newpath
85067.9 51553.2 moveto
85124.2 51609.4 lineto
85236.7 51778.1 lineto
85292.9 51890.6 lineto
85349.1 52059.4 lineto
85405.4 52340.6 lineto
85405.4 52565.5 lineto
85349.1 52846.8 lineto
85292.9 53015.5 lineto
85236.7 53128 lineto
85124.2 53296.7 lineto
85067.9 53352.9 lineto
stroke
newpath
58015 51428.4 moveto
58015 50528.4 lineto
stroke
newpath
57565 50978.4 moveto
58465 50978.4 lineto
stroke
newpath
59758.6 51625.2 moveto
59871.1 51625.2 lineto
59983.6 51568.9 lineto
60039.8 51512.7 lineto
60096 51400.2 lineto
60152.3 51175.2 lineto
60152.3 50894 lineto
60096 50669 lineto
60039.8 50556.5 lineto
59983.6 50500.3 lineto
59871.1 50444.1 lineto
59758.6 50444.1 lineto
59646.1 50500.3 lineto
59589.9 50556.5 lineto
59533.6 50669 lineto
59477.4 50894 lineto
59477.4 51175.2 lineto
59533.6 51400.2 lineto
59589.9 51512.7 lineto
59646.1 51568.9 lineto
59758.6 51625.2 lineto
stroke
newpath
60658.5 50556.5 moveto
60714.7 50500.3 lineto
60658.5 50444.1 lineto
60602.2 50500.3 lineto
60658.5 50556.5 lineto
60658.5 50444.1 lineto
stroke
newpath
61108.4 51625.2 moveto
61895.8 51625.2 lineto
61389.6 50444.1 lineto
stroke
newpath
62852 51625.2 moveto
62627 51625.2 lineto
62514.5 51568.9 lineto
62458.3 51512.7 lineto
62345.8 51343.9 lineto
62289.5 51119 lineto
62289.5 50669 lineto
62345.8 50556.5 lineto
62402 50500.3 lineto
62514.5 50444.1 lineto
62739.5 50444.1 lineto
62852 50500.3 lineto
62908.2 50556.5 lineto
62964.4 50669 lineto
62964.4 50950.2 lineto
62908.2 51062.7 lineto
62852 51119 lineto
62739.5 51175.2 lineto
62514.5 51175.2 lineto
62402 51119 lineto
62345.8 51062.7 lineto
62289.5 50950.2 lineto
stroke
newpath
63470.6 50444.1 moveto
63470.6 51231.5 lineto
stroke
newpath
63470.6 51119 moveto
63526.9 51175.2 lineto
63639.4 51231.5 lineto
63808.1 51231.5 lineto
63920.6 51175.2 lineto
63976.8 51062.7 lineto
63976.8 50444.1 lineto
stroke
newpath
63976.8 51062.7 moveto
64033.1 51175.2 lineto
64145.5 51231.5 lineto
64314.3 51231.5 lineto
64426.8 51175.2 lineto
64483 51062.7 lineto
64483 50444.1 lineto
stroke
newpath
65045.4 50444.1 moveto
65045.4 51231.5 lineto
stroke
newpath
65045.4 51119 moveto
65101.7 51175.2 lineto
65214.2 51231.5 lineto
65382.9 51231.5 lineto
65495.4 51175.2 lineto
65551.6 51062.7 lineto
65551.6 50444.1 lineto
stroke
newpath
65551.6 51062.7 moveto
65607.9 51175.2 lineto
65720.3 51231.5 lineto
65889.1 51231.5 lineto
66001.6 51175.2 lineto
66057.8 51062.7 lineto
66057.8 50444.1 lineto
stroke
newpath
68363.8 51681.4 moveto
67351.4 50162.8 lineto
stroke
newpath
69882.3 51625.2 moveto
69994.8 51625.2 lineto
70107.3 51568.9 lineto
70163.5 51512.7 lineto
70219.8 51400.2 lineto
70276 51175.2 lineto
70276 50894 lineto
70219.8 50669 lineto
70163.5 50556.5 lineto
70107.3 50500.3 lineto
69994.8 50444.1 lineto
69882.3 50444.1 lineto
69769.8 50500.3 lineto
69713.6 50556.5 lineto
69657.4 50669 lineto
69601.1 50894 lineto
69601.1 51175.2 lineto
69657.4 51400.2 lineto
69713.6 51512.7 lineto
69769.8 51568.9 lineto
69882.3 51625.2 lineto
stroke
newpath
70782.2 50556.5 moveto
70838.5 50500.3 lineto
70782.2 50444.1 lineto
70726 50500.3 lineto
70782.2 50556.5 lineto
70782.2 50444.1 lineto
stroke
newpath
71569.6 51625.2 moveto
71682.1 51625.2 lineto
71794.6 51568.9 lineto
71850.8 51512.7 lineto
71907.1 51400.2 lineto
71963.3 51175.2 lineto
71963.3 50894 lineto
71907.1 50669 lineto
71850.8 50556.5 lineto
71794.6 50500.3 lineto
71682.1 50444.1 lineto
71569.6 50444.1 lineto
71457.1 50500.3 lineto
71400.9 50556.5 lineto
71344.6 50669 lineto
71288.4 50894 lineto
71288.4 51175.2 lineto
71344.6 51400.2 lineto
71400.9 51512.7 lineto
71457.1 51568.9 lineto
71569.6 51625.2 lineto
stroke
newpath
72357 51625.2 moveto
73088.2 51625.2 lineto
72694.5 51175.2 lineto
72863.2 51175.2 lineto
72975.7 51119 lineto
73031.9 51062.7 lineto
73088.2 50950.2 lineto
73088.2 50669 lineto
73031.9 50556.5 lineto
72975.7 50500.3 lineto
72863.2 50444.1 lineto
72525.7 50444.1 lineto
72413.3 50500.3 lineto
72357 50556.5 lineto
stroke
newpath
73819.3 51625.2 moveto
73931.8 51625.2 lineto
74044.3 51568.9 lineto
74100.5 51512.7 lineto
74156.8 51400.2 lineto
74213 51175.2 lineto
74213 50894 lineto
74156.8 50669 lineto
74100.5 50556.5 lineto
74044.3 50500.3 lineto
73931.8 50444.1 lineto
73819.3 50444.1 lineto
73706.8 50500.3 lineto
73650.6 50556.5 lineto
73594.4 50669 lineto
73538.1 50894 lineto
73538.1 51175.2 lineto
73594.4 51400.2 lineto
73650.6 51512.7 lineto
73706.8 51568.9 lineto
73819.3 51625.2 lineto
stroke
newpath
74663 51625.2 moveto
74663 51400.2 lineto
stroke
newpath
75112.9 51625.2 moveto
75112.9 51400.2 lineto
stroke
newpath
76856.5 49994.1 moveto
76800.2 50050.4 lineto
76687.7 50219.1 lineto
76631.5 50331.6 lineto
76575.2 50500.3 lineto
76519 50781.5 lineto
76519 51006.5 lineto
76575.2 51287.7 lineto
76631.5 51456.4 lineto
76687.7 51568.9 lineto
76800.2 51737.6 lineto
76856.5 51793.9 lineto
stroke
newpath
77812.6 51231.5 moveto
77812.6 50444.1 lineto
stroke
newpath
77531.4 51681.4 moveto
77250.2 50837.8 lineto
77981.3 50837.8 lineto
stroke
newpath
79331.1 50444.1 moveto
79331.1 51625.2 lineto
stroke
newpath
79837.3 50444.1 moveto
79837.3 51062.7 lineto
79781.1 51175.2 lineto
79668.6 51231.5 lineto
79499.9 51231.5 lineto
79387.4 51175.2 lineto
79331.1 51119 lineto
stroke
newpath
80568.5 50444.1 moveto
80456 50500.3 lineto
80399.8 50556.5 lineto
80343.5 50669 lineto
80343.5 51006.5 lineto
80399.8 51119 lineto
80456 51175.2 lineto
80568.5 51231.5 lineto
80737.2 51231.5 lineto
80849.7 51175.2 lineto
80905.9 51119 lineto
80962.2 51006.5 lineto
80962.2 50669 lineto
80905.9 50556.5 lineto
80849.7 50500.3 lineto
80737.2 50444.1 lineto
80568.5 50444.1 lineto
stroke
newpath
81637.1 50444.1 moveto
81524.6 50500.3 lineto
81468.4 50612.8 lineto
81468.4 51625.2 lineto
stroke
newpath
82537 50500.3 moveto
82424.5 50444.1 lineto
82199.5 50444.1 lineto
82087 50500.3 lineto
82030.8 50612.8 lineto
82030.8 51062.7 lineto
82087 51175.2 lineto
82199.5 51231.5 lineto
82424.5 51231.5 lineto
82537 51175.2 lineto
82593.2 51062.7 lineto
82593.2 50950.2 lineto
82030.8 50837.8 lineto
stroke
newpath
83043.2 50500.3 moveto
83155.7 50444.1 lineto
83380.6 50444.1 lineto
83493.1 50500.3 lineto
83549.4 50612.8 lineto
83549.4 50669 lineto
83493.1 50781.5 lineto
83380.6 50837.8 lineto
83211.9 50837.8 lineto
83099.4 50894 lineto
83043.2 51006.5 lineto
83043.2 51062.7 lineto
83099.4 51175.2 lineto
83211.9 51231.5 lineto
83380.6 51231.5 lineto
83493.1 51175.2 lineto
stroke
newpath
83943.1 49994.1 moveto
83999.3 50050.4 lineto
84111.8 50219.1 lineto
84168 50331.6 lineto
84224.3 50500.3 lineto
84280.5 50781.5 lineto
84280.5 51006.5 lineto
84224.3 51287.7 lineto
84168 51456.4 lineto
84111.8 51568.9 lineto
83999.3 51737.6 lineto
83943.1 51793.9 lineto
stroke
newpath
58292 49001.7 moveto
58292 49836.9 lineto
57456.9 49836.9 lineto
57456.9 49001.7 lineto
58292 49001.7 lineto
poly0
newpath
60152.3 48885 moveto
59477.4 48885 lineto
stroke
newpath
59814.8 48885 moveto
59814.8 50066.1 lineto
59702.3 49897.4 lineto
59589.9 49784.9 lineto
59477.4 49728.6 lineto
stroke
newpath
60658.5 48997.5 moveto
60714.7 48941.2 lineto
60658.5 48885 lineto
60602.2 48941.2 lineto
60658.5 48997.5 lineto
60658.5 48885 lineto
stroke
newpath
61445.9 50066.1 moveto
61558.4 50066.1 lineto
61670.8 50009.9 lineto
61727.1 49953.6 lineto
61783.3 49841.1 lineto
61839.6 49616.2 lineto
61839.6 49334.9 lineto
61783.3 49110 lineto
61727.1 48997.5 lineto
61670.8 48941.2 lineto
61558.4 48885 lineto
61445.9 48885 lineto
61333.4 48941.2 lineto
61277.1 48997.5 lineto
61220.9 49110 lineto
61164.7 49334.9 lineto
61164.7 49616.2 lineto
61220.9 49841.1 lineto
61277.1 49953.6 lineto
61333.4 50009.9 lineto
61445.9 50066.1 lineto
stroke
newpath
62570.7 50066.1 moveto
62683.2 50066.1 lineto
62795.7 50009.9 lineto
62852 49953.6 lineto
62908.2 49841.1 lineto
62964.4 49616.2 lineto
62964.4 49334.9 lineto
62908.2 49110 lineto
62852 48997.5 lineto
62795.7 48941.2 lineto
62683.2 48885 lineto
62570.7 48885 lineto
62458.3 48941.2 lineto
62402 48997.5 lineto
62345.8 49110 lineto
62289.5 49334.9 lineto
62289.5 49616.2 lineto
62345.8 49841.1 lineto
62402 49953.6 lineto
62458.3 50009.9 lineto
62570.7 50066.1 lineto
stroke
newpath
63470.6 48885 moveto
63470.6 49672.4 lineto
stroke
newpath
63470.6 49559.9 moveto
63526.9 49616.2 lineto
63639.4 49672.4 lineto
63808.1 49672.4 lineto
63920.6 49616.2 lineto
63976.8 49503.7 lineto
63976.8 48885 lineto
stroke
newpath
63976.8 49503.7 moveto
64033.1 49616.2 lineto
64145.5 49672.4 lineto
64314.3 49672.4 lineto
64426.8 49616.2 lineto
64483 49503.7 lineto
64483 48885 lineto
stroke
newpath
65045.4 48885 moveto
65045.4 49672.4 lineto
stroke
newpath
65045.4 49559.9 moveto
65101.7 49616.2 lineto
65214.2 49672.4 lineto
65382.9 49672.4 lineto
65495.4 49616.2 lineto
65551.6 49503.7 lineto
65551.6 48885 lineto
stroke
newpath
65551.6 49503.7 moveto
65607.9 49616.2 lineto
65720.3 49672.4 lineto
65889.1 49672.4 lineto
66001.6 49616.2 lineto
66057.8 49503.7 lineto
66057.8 48885 lineto
stroke
newpath
68363.8 50122.3 moveto
67351.4 48603.8 lineto
stroke
newpath
69882.3 50066.1 moveto
69994.8 50066.1 lineto
70107.3 50009.9 lineto
70163.5 49953.6 lineto
70219.8 49841.1 lineto
70276 49616.2 lineto
70276 49334.9 lineto
70219.8 49110 lineto
70163.5 48997.5 lineto
70107.3 48941.2 lineto
69994.8 48885 lineto
69882.3 48885 lineto
69769.8 48941.2 lineto
69713.6 48997.5 lineto
69657.4 49110 lineto
69601.1 49334.9 lineto
69601.1 49616.2 lineto
69657.4 49841.1 lineto
69713.6 49953.6 lineto
69769.8 50009.9 lineto
69882.3 50066.1 lineto
stroke
newpath
70782.2 48997.5 moveto
70838.5 48941.2 lineto
70782.2 48885 lineto
70726 48941.2 lineto
70782.2 48997.5 lineto
70782.2 48885 lineto
stroke
newpath
71569.6 50066.1 moveto
71682.1 50066.1 lineto
71794.6 50009.9 lineto
71850.8 49953.6 lineto
71907.1 49841.1 lineto
71963.3 49616.2 lineto
71963.3 49334.9 lineto
71907.1 49110 lineto
71850.8 48997.5 lineto
71794.6 48941.2 lineto
71682.1 48885 lineto
71569.6 48885 lineto
71457.1 48941.2 lineto
71400.9 48997.5 lineto
71344.6 49110 lineto
71288.4 49334.9 lineto
71288.4 49616.2 lineto
71344.6 49841.1 lineto
71400.9 49953.6 lineto
71457.1 50009.9 lineto
71569.6 50066.1 lineto
stroke
newpath
72357 50066.1 moveto
73088.2 50066.1 lineto
72694.5 49616.2 lineto
72863.2 49616.2 lineto
72975.7 49559.9 lineto
73031.9 49503.7 lineto
73088.2 49391.2 lineto
73088.2 49110 lineto
73031.9 48997.5 lineto
72975.7 48941.2 lineto
72863.2 48885 lineto
72525.7 48885 lineto
72413.3 48941.2 lineto
72357 48997.5 lineto
stroke
newpath
73650.6 48885 moveto
73875.6 48885 lineto
73988.1 48941.2 lineto
74044.3 48997.5 lineto
74156.8 49166.2 lineto
74213 49391.2 lineto
74213 49841.1 lineto
74156.8 49953.6 lineto
74100.5 50009.9 lineto
73988.1 50066.1 lineto
73763.1 50066.1 lineto
73650.6 50009.9 lineto
73594.4 49953.6 lineto
73538.1 49841.1 lineto
73538.1 49559.9 lineto
73594.4 49447.4 lineto
73650.6 49391.2 lineto
73763.1 49334.9 lineto
73988.1 49334.9 lineto
74100.5 49391.2 lineto
74156.8 49447.4 lineto
74213 49559.9 lineto
stroke
newpath
74663 50066.1 moveto
74663 49841.1 lineto
stroke
newpath
75112.9 50066.1 moveto
75112.9 49841.1 lineto
stroke
newpath
76856.5 48435.1 moveto
76800.2 48491.3 lineto
76687.7 48660 lineto
76631.5 48772.5 lineto
76575.2 48941.2 lineto
76519 49222.5 lineto
76519 49447.4 lineto
76575.2 49728.6 lineto
76631.5 49897.4 lineto
76687.7 50009.9 lineto
76800.2 50178.6 lineto
76856.5 50234.8 lineto
stroke
newpath
77193.9 50066.1 moveto
77925.1 50066.1 lineto
77531.4 49616.2 lineto
77700.1 49616.2 lineto
77812.6 49559.9 lineto
77868.8 49503.7 lineto
77925.1 49391.2 lineto
77925.1 49110 lineto
77868.8 48997.5 lineto
77812.6 48941.2 lineto
77700.1 48885 lineto
77362.6 48885 lineto
77250.2 48941.2 lineto
77193.9 48997.5 lineto
stroke
newpath
79331.1 48885 moveto
79331.1 50066.1 lineto
stroke
newpath
79837.3 48885 moveto
79837.3 49503.7 lineto
79781.1 49616.2 lineto
79668.6 49672.4 lineto
79499.9 49672.4 lineto
79387.4 49616.2 lineto
79331.1 49559.9 lineto
stroke
newpath
80568.5 48885 moveto
80456 48941.2 lineto
80399.8 48997.5 lineto
80343.5 49110 lineto
80343.5 49447.4 lineto
80399.8 49559.9 lineto
80456 49616.2 lineto
80568.5 49672.4 lineto
80737.2 49672.4 lineto
80849.7 49616.2 lineto
80905.9 49559.9 lineto
80962.2 49447.4 lineto
80962.2 49110 lineto
80905.9 48997.5 lineto
80849.7 48941.2 lineto
80737.2 48885 lineto
80568.5 48885 lineto
stroke
newpath
81637.1 48885 moveto
81524.6 48941.2 lineto
81468.4 49053.7 lineto
81468.4 50066.1 lineto
stroke
newpath
82537 48941.2 moveto
82424.5 48885 lineto
82199.5 48885 lineto
82087 48941.2 lineto
82030.8 49053.7 lineto
82030.8 49503.7 lineto
82087 49616.2 lineto
82199.5 49672.4 lineto
82424.5 49672.4 lineto
82537 49616.2 lineto
82593.2 49503.7 lineto
82593.2 49391.2 lineto
82030.8 49278.7 lineto
stroke
newpath
83043.2 48941.2 moveto
83155.7 48885 lineto
83380.6 48885 lineto
83493.1 48941.2 lineto
83549.4 49053.7 lineto
83549.4 49110 lineto
83493.1 49222.5 lineto
83380.6 49278.7 lineto
83211.9 49278.7 lineto
83099.4 49334.9 lineto
83043.2 49447.4 lineto
83043.2 49503.7 lineto
83099.4 49616.2 lineto
83211.9 49672.4 lineto
83380.6 49672.4 lineto
83493.1 49616.2 lineto
stroke
newpath
83943.1 48435.1 moveto
83999.3 48491.3 lineto
84111.8 48660 lineto
84168 48772.5 lineto
84224.3 48941.2 lineto
84280.5 49222.5 lineto
84280.5 49447.4 lineto
84224.3 49728.6 lineto
84168 49897.4 lineto
84111.8 50009.9 lineto
83999.3 50178.6 lineto
83943.1 50234.8 lineto
stroke
newpath
57874 47135.4 moveto
58465 47726.4 lineto
57874 48317.4 lineto
57283 47726.4 lineto
57874 47135.4 lineto
poly0
newpath
60152.3 47192.1 moveto
59477.4 47192.1 lineto
stroke
newpath
59814.8 47192.1 moveto
59814.8 48373.2 lineto
59702.3 48204.5 lineto
59589.9 48092 lineto
59477.4 48035.7 lineto
stroke
newpath
60658.5 47304.6 moveto
60714.7 47248.3 lineto
60658.5 47192.1 lineto
60602.2 47248.3 lineto
60658.5 47304.6 lineto
60658.5 47192.1 lineto
stroke
newpath
61445.9 48373.2 moveto
61558.4 48373.2 lineto
61670.8 48316.9 lineto
61727.1 48260.7 lineto
61783.3 48148.2 lineto
61839.6 47923.2 lineto
61839.6 47642 lineto
61783.3 47417.1 lineto
61727.1 47304.6 lineto
61670.8 47248.3 lineto
61558.4 47192.1 lineto
61445.9 47192.1 lineto
61333.4 47248.3 lineto
61277.1 47304.6 lineto
61220.9 47417.1 lineto
61164.7 47642 lineto
61164.7 47923.2 lineto
61220.9 48148.2 lineto
61277.1 48260.7 lineto
61333.4 48316.9 lineto
61445.9 48373.2 lineto
stroke
newpath
62570.7 48373.2 moveto
62683.2 48373.2 lineto
62795.7 48316.9 lineto
62852 48260.7 lineto
62908.2 48148.2 lineto
62964.4 47923.2 lineto
62964.4 47642 lineto
62908.2 47417.1 lineto
62852 47304.6 lineto
62795.7 47248.3 lineto
62683.2 47192.1 lineto
62570.7 47192.1 lineto
62458.3 47248.3 lineto
62402 47304.6 lineto
62345.8 47417.1 lineto
62289.5 47642 lineto
62289.5 47923.2 lineto
62345.8 48148.2 lineto
62402 48260.7 lineto
62458.3 48316.9 lineto
62570.7 48373.2 lineto
stroke
newpath
63470.6 47192.1 moveto
63470.6 47979.5 lineto
stroke
newpath
63470.6 47867 moveto
63526.9 47923.2 lineto
63639.4 47979.5 lineto
63808.1 47979.5 lineto
63920.6 47923.2 lineto
63976.8 47810.8 lineto
63976.8 47192.1 lineto
stroke
newpath
63976.8 47810.8 moveto
64033.1 47923.2 lineto
64145.5 47979.5 lineto
64314.3 47979.5 lineto
64426.8 47923.2 lineto
64483 47810.8 lineto
64483 47192.1 lineto
stroke
newpath
65045.4 47192.1 moveto
65045.4 47979.5 lineto
stroke
newpath
65045.4 47867 moveto
65101.7 47923.2 lineto
65214.2 47979.5 lineto
65382.9 47979.5 lineto
65495.4 47923.2 lineto
65551.6 47810.8 lineto
65551.6 47192.1 lineto
stroke
newpath
65551.6 47810.8 moveto
65607.9 47923.2 lineto
65720.3 47979.5 lineto
65889.1 47979.5 lineto
66001.6 47923.2 lineto
66057.8 47810.8 lineto
66057.8 47192.1 lineto
stroke
newpath
68363.8 48429.4 moveto
67351.4 46910.9 lineto
stroke
newpath
69882.3 48373.2 moveto
69994.8 48373.2 lineto
70107.3 48316.9 lineto
70163.5 48260.7 lineto
70219.8 48148.2 lineto
70276 47923.2 lineto
70276 47642 lineto
70219.8 47417.1 lineto
70163.5 47304.6 lineto
70107.3 47248.3 lineto
69994.8 47192.1 lineto
69882.3 47192.1 lineto
69769.8 47248.3 lineto
69713.6 47304.6 lineto
69657.4 47417.1 lineto
69601.1 47642 lineto
69601.1 47923.2 lineto
69657.4 48148.2 lineto
69713.6 48260.7 lineto
69769.8 48316.9 lineto
69882.3 48373.2 lineto
stroke
newpath
70782.2 47304.6 moveto
70838.5 47248.3 lineto
70782.2 47192.1 lineto
70726 47248.3 lineto
70782.2 47304.6 lineto
70782.2 47192.1 lineto
stroke
newpath
71569.6 48373.2 moveto
71682.1 48373.2 lineto
71794.6 48316.9 lineto
71850.8 48260.7 lineto
71907.1 48148.2 lineto
71963.3 47923.2 lineto
71963.3 47642 lineto
71907.1 47417.1 lineto
71850.8 47304.6 lineto
71794.6 47248.3 lineto
71682.1 47192.1 lineto
71569.6 47192.1 lineto
71457.1 47248.3 lineto
71400.9 47304.6 lineto
71344.6 47417.1 lineto
71288.4 47642 lineto
71288.4 47923.2 lineto
71344.6 48148.2 lineto
71400.9 48260.7 lineto
71457.1 48316.9 lineto
71569.6 48373.2 lineto
stroke
newpath
72357 48373.2 moveto
73088.2 48373.2 lineto
72694.5 47923.2 lineto
72863.2 47923.2 lineto
72975.7 47867 lineto
73031.9 47810.8 lineto
73088.2 47698.3 lineto
73088.2 47417.1 lineto
73031.9 47304.6 lineto
72975.7 47248.3 lineto
72863.2 47192.1 lineto
72525.7 47192.1 lineto
72413.3 47248.3 lineto
72357 47304.6 lineto
stroke
newpath
73650.6 47192.1 moveto
73875.6 47192.1 lineto
73988.1 47248.3 lineto
74044.3 47304.6 lineto
74156.8 47473.3 lineto
74213 47698.3 lineto
74213 48148.2 lineto
74156.8 48260.7 lineto
74100.5 48316.9 lineto
73988.1 48373.2 lineto
73763.1 48373.2 lineto
73650.6 48316.9 lineto
73594.4 48260.7 lineto
73538.1 48148.2 lineto
73538.1 47867 lineto
73594.4 47754.5 lineto
73650.6 47698.3 lineto
73763.1 47642 lineto
73988.1 47642 lineto
74100.5 47698.3 lineto
74156.8 47754.5 lineto
74213 47867 lineto
stroke
newpath
74663 48373.2 moveto
74663 48148.2 lineto
stroke
newpath
75112.9 48373.2 moveto
75112.9 48148.2 lineto
stroke
newpath
76856.5 46742.1 moveto
76800.2 46798.4 lineto
76687.7 46967.1 lineto
76631.5 47079.6 lineto
76575.2 47248.3 lineto
76519 47529.5 lineto
76519 47754.5 lineto
76575.2 48035.7 lineto
76631.5 48204.5 lineto
76687.7 48316.9 lineto
76800.2 48485.7 lineto
76856.5 48541.9 lineto
stroke
newpath
77250.2 48260.7 moveto
77306.4 48316.9 lineto
77418.9 48373.2 lineto
77700.1 48373.2 lineto
77812.6 48316.9 lineto
77868.8 48260.7 lineto
77925.1 48148.2 lineto
77925.1 48035.7 lineto
77868.8 47867 lineto
77193.9 47192.1 lineto
77925.1 47192.1 lineto
stroke
newpath
78600 47867 moveto
78487.5 47923.2 lineto
78431.3 47979.5 lineto
78375 48092 lineto
78375 48148.2 lineto
78431.3 48260.7 lineto
78487.5 48316.9 lineto
78600 48373.2 lineto
78825 48373.2 lineto
78937.4 48316.9 lineto
78993.7 48260.7 lineto
79049.9 48148.2 lineto
79049.9 48092 lineto
78993.7 47979.5 lineto
78937.4 47923.2 lineto
78825 47867 lineto
78600 47867 lineto
78487.5 47810.8 lineto
78431.3 47754.5 lineto
78375 47642 lineto
78375 47417.1 lineto
78431.3 47304.6 lineto
78487.5 47248.3 lineto
78600 47192.1 lineto
78825 47192.1 lineto
78937.4 47248.3 lineto
78993.7 47304.6 lineto
79049.9 47417.1 lineto
79049.9 47642 lineto
78993.7 47754.5 lineto
78937.4 47810.8 lineto
78825 47867 lineto
stroke
newpath
80456 47192.1 moveto
80456 48373.2 lineto
stroke
newpath
80962.2 47192.1 moveto
80962.2 47810.8 lineto
80905.9 47923.2 lineto
80793.5 47979.5 lineto
80624.7 47979.5 lineto
80512.2 47923.2 lineto
80456 47867 lineto
stroke
newpath
81693.3 47192.1 moveto
81580.9 47248.3 lineto
81524.6 47304.6 lineto
81468.4 47417.1 lineto
81468.4 47754.5 lineto
81524.6 47867 lineto
81580.9 47923.2 lineto
81693.3 47979.5 lineto
81862.1 47979.5 lineto
81974.6 47923.2 lineto
82030.8 47867 lineto
82087 47754.5 lineto
82087 47417.1 lineto
82030.8 47304.6 lineto
81974.6 47248.3 lineto
81862.1 47192.1 lineto
81693.3 47192.1 lineto
stroke
newpath
82762 47192.1 moveto
82649.5 47248.3 lineto
82593.2 47360.8 lineto
82593.2 48373.2 lineto
stroke
newpath
83661.9 47248.3 moveto
83549.4 47192.1 lineto
83324.4 47192.1 lineto
83211.9 47248.3 lineto
83155.7 47360.8 lineto
83155.7 47810.8 lineto
83211.9 47923.2 lineto
83324.4 47979.5 lineto
83549.4 47979.5 lineto
83661.9 47923.2 lineto
83718.1 47810.8 lineto
83718.1 47698.3 lineto
83155.7 47585.8 lineto
stroke
newpath
84168 47248.3 moveto
84280.5 47192.1 lineto
84505.5 47192.1 lineto
84618 47248.3 lineto
84674.2 47360.8 lineto
84674.2 47417.1 lineto
84618 47529.5 lineto
84505.5 47585.8 lineto
84336.8 47585.8 lineto
84224.3 47642 lineto
84168 47754.5 lineto
84168 47810.8 lineto
84224.3 47923.2 lineto
84336.8 47979.5 lineto
84505.5 47979.5 lineto
84618 47923.2 lineto
stroke
newpath
85067.9 46742.1 moveto
85124.2 46798.4 lineto
85236.7 46967.1 lineto
85292.9 47079.6 lineto
85349.1 47248.3 lineto
85405.4 47529.5 lineto
85405.4 47754.5 lineto
85349.1 48035.7 lineto
85292.9 48204.5 lineto
85236.7 48316.9 lineto
85124.2 48485.7 lineto
85067.9 48541.9 lineto
stroke
newpath
57265 46632.6 moveto
58465 45432.6 lineto
stroke
newpath
58465 46632.6 moveto
57265 45432.6 lineto
stroke
57865 46032.6 600 cir0
newpath
60152.3 45498.3 moveto
59477.4 45498.3 lineto
stroke
newpath
59814.8 45498.3 moveto
59814.8 46679.4 lineto
59702.3 46510.6 lineto
59589.9 46398.2 lineto
59477.4 46341.9 lineto
stroke
newpath
60658.5 45610.8 moveto
60714.7 45554.5 lineto
60658.5 45498.3 lineto
60602.2 45554.5 lineto
60658.5 45610.8 lineto
60658.5 45498.3 lineto
stroke
newpath
61445.9 46679.4 moveto
61558.4 46679.4 lineto
61670.8 46623.1 lineto
61727.1 46566.9 lineto
61783.3 46454.4 lineto
61839.6 46229.4 lineto
61839.6 45948.2 lineto
61783.3 45723.2 lineto
61727.1 45610.8 lineto
61670.8 45554.5 lineto
61558.4 45498.3 lineto
61445.9 45498.3 lineto
61333.4 45554.5 lineto
61277.1 45610.8 lineto
61220.9 45723.2 lineto
61164.7 45948.2 lineto
61164.7 46229.4 lineto
61220.9 46454.4 lineto
61277.1 46566.9 lineto
61333.4 46623.1 lineto
61445.9 46679.4 lineto
stroke
newpath
62289.5 46566.9 moveto
62345.8 46623.1 lineto
62458.3 46679.4 lineto
62739.5 46679.4 lineto
62852 46623.1 lineto
62908.2 46566.9 lineto
62964.4 46454.4 lineto
62964.4 46341.9 lineto
62908.2 46173.2 lineto
62233.3 45498.3 lineto
62964.4 45498.3 lineto
stroke
newpath
63470.6 45498.3 moveto
63470.6 46285.7 lineto
stroke
newpath
63470.6 46173.2 moveto
63526.9 46229.4 lineto
63639.4 46285.7 lineto
63808.1 46285.7 lineto
63920.6 46229.4 lineto
63976.8 46116.9 lineto
63976.8 45498.3 lineto
stroke
newpath
63976.8 46116.9 moveto
64033.1 46229.4 lineto
64145.5 46285.7 lineto
64314.3 46285.7 lineto
64426.8 46229.4 lineto
64483 46116.9 lineto
64483 45498.3 lineto
stroke
newpath
65045.4 45498.3 moveto
65045.4 46285.7 lineto
stroke
newpath
65045.4 46173.2 moveto
65101.7 46229.4 lineto
65214.2 46285.7 lineto
65382.9 46285.7 lineto
65495.4 46229.4 lineto
65551.6 46116.9 lineto
65551.6 45498.3 lineto
stroke
newpath
65551.6 46116.9 moveto
65607.9 46229.4 lineto
65720.3 46285.7 lineto
65889.1 46285.7 lineto
66001.6 46229.4 lineto
66057.8 46116.9 lineto
66057.8 45498.3 lineto
stroke
newpath
68363.8 46735.6 moveto
67351.4 45217.1 lineto
stroke
newpath
69882.3 46679.4 moveto
69994.8 46679.4 lineto
70107.3 46623.1 lineto
70163.5 46566.9 lineto
70219.8 46454.4 lineto
70276 46229.4 lineto
70276 45948.2 lineto
70219.8 45723.2 lineto
70163.5 45610.8 lineto
70107.3 45554.5 lineto
69994.8 45498.3 lineto
69882.3 45498.3 lineto
69769.8 45554.5 lineto
69713.6 45610.8 lineto
69657.4 45723.2 lineto
69601.1 45948.2 lineto
69601.1 46229.4 lineto
69657.4 46454.4 lineto
69713.6 46566.9 lineto
69769.8 46623.1 lineto
69882.3 46679.4 lineto
stroke
newpath
70782.2 45610.8 moveto
70838.5 45554.5 lineto
70782.2 45498.3 lineto
70726 45554.5 lineto
70782.2 45610.8 lineto
70782.2 45498.3 lineto
stroke
newpath
71569.6 46679.4 moveto
71682.1 46679.4 lineto
71794.6 46623.1 lineto
71850.8 46566.9 lineto
71907.1 46454.4 lineto
71963.3 46229.4 lineto
71963.3 45948.2 lineto
71907.1 45723.2 lineto
71850.8 45610.8 lineto
71794.6 45554.5 lineto
71682.1 45498.3 lineto
71569.6 45498.3 lineto
71457.1 45554.5 lineto
71400.9 45610.8 lineto
71344.6 45723.2 lineto
71288.4 45948.2 lineto
71288.4 46229.4 lineto
71344.6 46454.4 lineto
71400.9 46566.9 lineto
71457.1 46623.1 lineto
71569.6 46679.4 lineto
stroke
newpath
72975.7 46285.7 moveto
72975.7 45498.3 lineto
stroke
newpath
72694.5 46735.6 moveto
72413.3 45892 lineto
73144.4 45892 lineto
stroke
newpath
73819.3 46679.4 moveto
73931.8 46679.4 lineto
74044.3 46623.1 lineto
74100.5 46566.9 lineto
74156.8 46454.4 lineto
74213 46229.4 lineto
74213 45948.2 lineto
74156.8 45723.2 lineto
74100.5 45610.8 lineto
74044.3 45554.5 lineto
73931.8 45498.3 lineto
73819.3 45498.3 lineto
73706.8 45554.5 lineto
73650.6 45610.8 lineto
73594.4 45723.2 lineto
73538.1 45948.2 lineto
73538.1 46229.4 lineto
73594.4 46454.4 lineto
73650.6 46566.9 lineto
73706.8 46623.1 lineto
73819.3 46679.4 lineto
stroke
newpath
74663 46679.4 moveto
74663 46454.4 lineto
stroke
newpath
75112.9 46679.4 moveto
75112.9 46454.4 lineto
stroke
newpath
76856.5 45048.3 moveto
76800.2 45104.6 lineto
76687.7 45273.3 lineto
76631.5 45385.8 lineto
76575.2 45554.5 lineto
76519 45835.7 lineto
76519 46060.7 lineto
76575.2 46341.9 lineto
76631.5 46510.6 lineto
76687.7 46623.1 lineto
76800.2 46791.9 lineto
76856.5 46848.1 lineto
stroke
newpath
77193.9 46679.4 moveto
77981.3 46679.4 lineto
77475.1 45498.3 lineto
stroke
newpath
79331.1 45498.3 moveto
79331.1 46679.4 lineto
stroke
newpath
79837.3 45498.3 moveto
79837.3 46116.9 lineto
79781.1 46229.4 lineto
79668.6 46285.7 lineto
79499.9 46285.7 lineto
79387.4 46229.4 lineto
79331.1 46173.2 lineto
stroke
newpath
80568.5 45498.3 moveto
80456 45554.5 lineto
80399.8 45610.8 lineto
80343.5 45723.2 lineto
80343.5 46060.7 lineto
80399.8 46173.2 lineto
80456 46229.4 lineto
80568.5 46285.7 lineto
80737.2 46285.7 lineto
80849.7 46229.4 lineto
80905.9 46173.2 lineto
80962.2 46060.7 lineto
80962.2 45723.2 lineto
80905.9 45610.8 lineto
80849.7 45554.5 lineto
80737.2 45498.3 lineto
80568.5 45498.3 lineto
stroke
newpath
81637.1 45498.3 moveto
81524.6 45554.5 lineto
81468.4 45667 lineto
81468.4 46679.4 lineto
stroke
newpath
82537 45554.5 moveto
82424.5 45498.3 lineto
82199.5 45498.3 lineto
82087 45554.5 lineto
82030.8 45667 lineto
82030.8 46116.9 lineto
82087 46229.4 lineto
82199.5 46285.7 lineto
82424.5 46285.7 lineto
82537 46229.4 lineto
82593.2 46116.9 lineto
82593.2 46004.5 lineto
82030.8 45892 lineto
stroke
newpath
83043.2 45554.5 moveto
83155.7 45498.3 lineto
83380.6 45498.3 lineto
83493.1 45554.5 lineto
83549.4 45667 lineto
83549.4 45723.2 lineto
83493.1 45835.7 lineto
83380.6 45892 lineto
83211.9 45892 lineto
83099.4 45948.2 lineto
83043.2 46060.7 lineto
83043.2 46116.9 lineto
83099.4 46229.4 lineto
83211.9 46285.7 lineto
83380.6 46285.7 lineto
83493.1 46229.4 lineto
stroke
newpath
83943.1 45048.3 moveto
83999.3 45104.6 lineto
84111.8 45273.3 lineto
84168 45385.8 lineto
84224.3 45554.5 lineto
84280.5 45835.7 lineto
84280.5 46060.7 lineto
84224.3 46341.9 lineto
84168 46510.6 lineto
84111.8 46623.1 lineto
83999.3 46791.9 lineto
83943.1 46848.1 lineto
stroke
newpath
56693.3 45206.6 moveto
58465 43434.9 lineto
stroke
newpath
58465 45206.6 moveto
56693.3 43434.9 lineto
stroke
newpath
57579.2 45206.6 moveto
57579.2 43434.9 lineto
stroke
newpath
56693.3 44320.8 moveto
58465 44320.8 lineto
stroke
newpath
60152.3 43786.5 moveto
59477.4 43786.5 lineto
stroke
newpath
59814.8 43786.5 moveto
59814.8 44967.6 lineto
59702.3 44798.8 lineto
59589.9 44686.4 lineto
59477.4 44630.1 lineto
stroke
newpath
60658.5 43899 moveto
60714.7 43842.7 lineto
60658.5 43786.5 lineto
60602.2 43842.7 lineto
60658.5 43899 lineto
60658.5 43786.5 lineto
stroke
newpath
61783.3 44967.6 moveto
61220.9 44967.6 lineto
61164.7 44405.1 lineto
61220.9 44461.4 lineto
61333.4 44517.6 lineto
61614.6 44517.6 lineto
61727.1 44461.4 lineto
61783.3 44405.1 lineto
61839.6 44292.7 lineto
61839.6 44011.4 lineto
61783.3 43899 lineto
61727.1 43842.7 lineto
61614.6 43786.5 lineto
61333.4 43786.5 lineto
61220.9 43842.7 lineto
61164.7 43899 lineto
stroke
newpath
62570.7 44967.6 moveto
62683.2 44967.6 lineto
62795.7 44911.3 lineto
62852 44855.1 lineto
62908.2 44742.6 lineto
62964.4 44517.6 lineto
62964.4 44236.4 lineto
62908.2 44011.4 lineto
62852 43899 lineto
62795.7 43842.7 lineto
62683.2 43786.5 lineto
62570.7 43786.5 lineto
62458.3 43842.7 lineto
62402 43899 lineto
62345.8 44011.4 lineto
62289.5 44236.4 lineto
62289.5 44517.6 lineto
62345.8 44742.6 lineto
62402 44855.1 lineto
62458.3 44911.3 lineto
62570.7 44967.6 lineto
stroke
newpath
63470.6 43786.5 moveto
63470.6 44573.9 lineto
stroke
newpath
63470.6 44461.4 moveto
63526.9 44517.6 lineto
63639.4 44573.9 lineto
63808.1 44573.9 lineto
63920.6 44517.6 lineto
63976.8 44405.1 lineto
63976.8 43786.5 lineto
stroke
newpath
63976.8 44405.1 moveto
64033.1 44517.6 lineto
64145.5 44573.9 lineto
64314.3 44573.9 lineto
64426.8 44517.6 lineto
64483 44405.1 lineto
64483 43786.5 lineto
stroke
newpath
65045.4 43786.5 moveto
65045.4 44573.9 lineto
stroke
newpath
65045.4 44461.4 moveto
65101.7 44517.6 lineto
65214.2 44573.9 lineto
65382.9 44573.9 lineto
65495.4 44517.6 lineto
65551.6 44405.1 lineto
65551.6 43786.5 lineto
stroke
newpath
65551.6 44405.1 moveto
65607.9 44517.6 lineto
65720.3 44573.9 lineto
65889.1 44573.9 lineto
66001.6 44517.6 lineto
66057.8 44405.1 lineto
66057.8 43786.5 lineto
stroke
newpath
68363.8 45023.8 moveto
67351.4 43505.2 lineto
stroke
newpath
69882.3 44967.6 moveto
69994.8 44967.6 lineto
70107.3 44911.3 lineto
70163.5 44855.1 lineto
70219.8 44742.6 lineto
70276 44517.6 lineto
70276 44236.4 lineto
70219.8 44011.4 lineto
70163.5 43899 lineto
70107.3 43842.7 lineto
69994.8 43786.5 lineto
69882.3 43786.5 lineto
69769.8 43842.7 lineto
69713.6 43899 lineto
69657.4 44011.4 lineto
69601.1 44236.4 lineto
69601.1 44517.6 lineto
69657.4 44742.6 lineto
69713.6 44855.1 lineto
69769.8 44911.3 lineto
69882.3 44967.6 lineto
stroke
newpath
70782.2 43899 moveto
70838.5 43842.7 lineto
70782.2 43786.5 lineto
70726 43842.7 lineto
70782.2 43899 lineto
70782.2 43786.5 lineto
stroke
newpath
71569.6 44967.6 moveto
71682.1 44967.6 lineto
71794.6 44911.3 lineto
71850.8 44855.1 lineto
71907.1 44742.6 lineto
71963.3 44517.6 lineto
71963.3 44236.4 lineto
71907.1 44011.4 lineto
71850.8 43899 lineto
71794.6 43842.7 lineto
71682.1 43786.5 lineto
71569.6 43786.5 lineto
71457.1 43842.7 lineto
71400.9 43899 lineto
71344.6 44011.4 lineto
71288.4 44236.4 lineto
71288.4 44517.6 lineto
71344.6 44742.6 lineto
71400.9 44855.1 lineto
71457.1 44911.3 lineto
71569.6 44967.6 lineto
stroke
newpath
73031.9 44967.6 moveto
72469.5 44967.6 lineto
72413.3 44405.1 lineto
72469.5 44461.4 lineto
72582 44517.6 lineto
72863.2 44517.6 lineto
72975.7 44461.4 lineto
73031.9 44405.1 lineto
73088.2 44292.7 lineto
73088.2 44011.4 lineto
73031.9 43899 lineto
72975.7 43842.7 lineto
72863.2 43786.5 lineto
72582 43786.5 lineto
72469.5 43842.7 lineto
72413.3 43899 lineto
stroke
newpath
73650.6 43786.5 moveto
73875.6 43786.5 lineto
73988.1 43842.7 lineto
74044.3 43899 lineto
74156.8 44067.7 lineto
74213 44292.7 lineto
74213 44742.6 lineto
74156.8 44855.1 lineto
74100.5 44911.3 lineto
73988.1 44967.6 lineto
73763.1 44967.6 lineto
73650.6 44911.3 lineto
73594.4 44855.1 lineto
73538.1 44742.6 lineto
73538.1 44461.4 lineto
73594.4 44348.9 lineto
73650.6 44292.7 lineto
73763.1 44236.4 lineto
73988.1 44236.4 lineto
74100.5 44292.7 lineto
74156.8 44348.9 lineto
74213 44461.4 lineto
stroke
newpath
74663 44967.6 moveto
74663 44742.6 lineto
stroke
newpath
75112.9 44967.6 moveto
75112.9 44742.6 lineto
stroke
newpath
76856.5 43336.5 moveto
76800.2 43392.8 lineto
76687.7 43561.5 lineto
76631.5 43674 lineto
76575.2 43842.7 lineto
76519 44123.9 lineto
76519 44348.9 lineto
76575.2 44630.1 lineto
76631.5 44798.8 lineto
76687.7 44911.3 lineto
76800.2 45080.1 lineto
76856.5 45136.3 lineto
stroke
newpath
77812.6 44573.9 moveto
77812.6 43786.5 lineto
stroke
newpath
77531.4 45023.8 moveto
77250.2 44180.2 lineto
77981.3 44180.2 lineto
stroke
newpath
79331.1 43786.5 moveto
79331.1 44967.6 lineto
stroke
newpath
79837.3 43786.5 moveto
79837.3 44405.1 lineto
79781.1 44517.6 lineto
79668.6 44573.9 lineto
79499.9 44573.9 lineto
79387.4 44517.6 lineto
79331.1 44461.4 lineto
stroke
newpath
80568.5 43786.5 moveto
80456 43842.7 lineto
80399.8 43899 lineto
80343.5 44011.4 lineto
80343.5 44348.9 lineto
80399.8 44461.4 lineto
80456 44517.6 lineto
80568.5 44573.9 lineto
80737.2 44573.9 lineto
80849.7 44517.6 lineto
80905.9 44461.4 lineto
80962.2 44348.9 lineto
80962.2 44011.4 lineto
80905.9 43899 lineto
80849.7 43842.7 lineto
80737.2 43786.5 lineto
80568.5 43786.5 lineto
stroke
newpath
81637.1 43786.5 moveto
81524.6 43842.7 lineto
81468.4 43955.2 lineto
81468.4 44967.6 lineto
stroke
newpath
82537 43842.7 moveto
82424.5 43786.5 lineto
82199.5 43786.5 lineto
82087 43842.7 lineto
82030.8 43955.2 lineto
82030.8 44405.1 lineto
82087 44517.6 lineto
82199.5 44573.9 lineto
82424.5 44573.9 lineto
82537 44517.6 lineto
82593.2 44405.1 lineto
82593.2 44292.7 lineto
82030.8 44180.2 lineto
stroke
newpath
83043.2 43842.7 moveto
83155.7 43786.5 lineto
83380.6 43786.5 lineto
83493.1 43842.7 lineto
83549.4 43955.2 lineto
83549.4 44011.4 lineto
83493.1 44123.9 lineto
83380.6 44180.2 lineto
83211.9 44180.2 lineto
83099.4 44236.4 lineto
83043.2 44348.9 lineto
83043.2 44405.1 lineto
83099.4 44517.6 lineto
83211.9 44573.9 lineto
83380.6 44573.9 lineto
83493.1 44517.6 lineto
stroke
newpath
83943.1 43336.5 moveto
83999.3 43392.8 lineto
84111.8 43561.5 lineto
84168 43674 lineto
84224.3 43842.7 lineto
84280.5 44123.9 lineto
84280.5 44348.9 lineto
84224.3 44630.1 lineto
84168 44798.8 lineto
84111.8 44911.3 lineto
83999.3 45080.1 lineto
83943.1 45136.3 lineto
stroke
newpath
56692 42923.8 moveto
58465 41150.8 lineto
stroke
newpath
58465 42923.8 moveto
56692 41150.8 lineto
stroke
newpath
58205.4 41410.5 moveto
58205.4 42664.2 lineto
56951.6 42664.2 lineto
56951.6 41410.5 lineto
58205.4 41410.5 lineto
poly0
newpath
60152.3 41503 moveto
59477.4 41503 lineto
stroke
newpath
59814.8 41503 moveto
59814.8 42684.1 lineto
59702.3 42515.4 lineto
59589.9 42402.9 lineto
59477.4 42346.6 lineto
stroke
newpath
60658.5 41615.5 moveto
60714.7 41559.2 lineto
60658.5 41503 lineto
60602.2 41559.2 lineto
60658.5 41615.5 lineto
60658.5 41503 lineto
stroke
newpath
61783.3 42684.1 moveto
61220.9 42684.1 lineto
61164.7 42121.7 lineto
61220.9 42177.9 lineto
61333.4 42234.2 lineto
61614.6 42234.2 lineto
61727.1 42177.9 lineto
61783.3 42121.7 lineto
61839.6 42009.2 lineto
61839.6 41728 lineto
61783.3 41615.5 lineto
61727.1 41559.2 lineto
61614.6 41503 lineto
61333.4 41503 lineto
61220.9 41559.2 lineto
61164.7 41615.5 lineto
stroke
newpath
62570.7 42684.1 moveto
62683.2 42684.1 lineto
62795.7 42627.9 lineto
62852 42571.6 lineto
62908.2 42459.1 lineto
62964.4 42234.2 lineto
62964.4 41952.9 lineto
62908.2 41728 lineto
62852 41615.5 lineto
62795.7 41559.2 lineto
62683.2 41503 lineto
62570.7 41503 lineto
62458.3 41559.2 lineto
62402 41615.5 lineto
62345.8 41728 lineto
62289.5 41952.9 lineto
62289.5 42234.2 lineto
62345.8 42459.1 lineto
62402 42571.6 lineto
62458.3 42627.9 lineto
62570.7 42684.1 lineto
stroke
newpath
63470.6 41503 moveto
63470.6 42290.4 lineto
stroke
newpath
63470.6 42177.9 moveto
63526.9 42234.2 lineto
63639.4 42290.4 lineto
63808.1 42290.4 lineto
63920.6 42234.2 lineto
63976.8 42121.7 lineto
63976.8 41503 lineto
stroke
newpath
63976.8 42121.7 moveto
64033.1 42234.2 lineto
64145.5 42290.4 lineto
64314.3 42290.4 lineto
64426.8 42234.2 lineto
64483 42121.7 lineto
64483 41503 lineto
stroke
newpath
65045.4 41503 moveto
65045.4 42290.4 lineto
stroke
newpath
65045.4 42177.9 moveto
65101.7 42234.2 lineto
65214.2 42290.4 lineto
65382.9 42290.4 lineto
65495.4 42234.2 lineto
65551.6 42121.7 lineto
65551.6 41503 lineto
stroke
newpath
65551.6 42121.7 moveto
65607.9 42234.2 lineto
65720.3 42290.4 lineto
65889.1 42290.4 lineto
66001.6 42234.2 lineto
66057.8 42121.7 lineto
66057.8 41503 lineto
stroke
newpath
68363.8 42740.3 moveto
67351.4 41221.8 lineto
stroke
newpath
69882.3 42684.1 moveto
69994.8 42684.1 lineto
70107.3 42627.9 lineto
70163.5 42571.6 lineto
70219.8 42459.1 lineto
70276 42234.2 lineto
70276 41952.9 lineto
70219.8 41728 lineto
70163.5 41615.5 lineto
70107.3 41559.2 lineto
69994.8 41503 lineto
69882.3 41503 lineto
69769.8 41559.2 lineto
69713.6 41615.5 lineto
69657.4 41728 lineto
69601.1 41952.9 lineto
69601.1 42234.2 lineto
69657.4 42459.1 lineto
69713.6 42571.6 lineto
69769.8 42627.9 lineto
69882.3 42684.1 lineto
stroke
newpath
70782.2 41615.5 moveto
70838.5 41559.2 lineto
70782.2 41503 lineto
70726 41559.2 lineto
70782.2 41615.5 lineto
70782.2 41503 lineto
stroke
newpath
71569.6 42684.1 moveto
71682.1 42684.1 lineto
71794.6 42627.9 lineto
71850.8 42571.6 lineto
71907.1 42459.1 lineto
71963.3 42234.2 lineto
71963.3 41952.9 lineto
71907.1 41728 lineto
71850.8 41615.5 lineto
71794.6 41559.2 lineto
71682.1 41503 lineto
71569.6 41503 lineto
71457.1 41559.2 lineto
71400.9 41615.5 lineto
71344.6 41728 lineto
71288.4 41952.9 lineto
71288.4 42234.2 lineto
71344.6 42459.1 lineto
71400.9 42571.6 lineto
71457.1 42627.9 lineto
71569.6 42684.1 lineto
stroke
newpath
73031.9 42684.1 moveto
72469.5 42684.1 lineto
72413.3 42121.7 lineto
72469.5 42177.9 lineto
72582 42234.2 lineto
72863.2 42234.2 lineto
72975.7 42177.9 lineto
73031.9 42121.7 lineto
73088.2 42009.2 lineto
73088.2 41728 lineto
73031.9 41615.5 lineto
72975.7 41559.2 lineto
72863.2 41503 lineto
72582 41503 lineto
72469.5 41559.2 lineto
72413.3 41615.5 lineto
stroke
newpath
73650.6 41503 moveto
73875.6 41503 lineto
73988.1 41559.2 lineto
74044.3 41615.5 lineto
74156.8 41784.2 lineto
74213 42009.2 lineto
74213 42459.1 lineto
74156.8 42571.6 lineto
74100.5 42627.9 lineto
73988.1 42684.1 lineto
73763.1 42684.1 lineto
73650.6 42627.9 lineto
73594.4 42571.6 lineto
73538.1 42459.1 lineto
73538.1 42177.9 lineto
73594.4 42065.4 lineto
73650.6 42009.2 lineto
73763.1 41952.9 lineto
73988.1 41952.9 lineto
74100.5 42009.2 lineto
74156.8 42065.4 lineto
74213 42177.9 lineto
stroke
newpath
74663 42684.1 moveto
74663 42459.1 lineto
stroke
newpath
75112.9 42684.1 moveto
75112.9 42459.1 lineto
stroke
newpath
76856.5 41053.1 moveto
76800.2 41109.3 lineto
76687.7 41278 lineto
76631.5 41390.5 lineto
76575.2 41559.2 lineto
76519 41840.5 lineto
76519 42065.4 lineto
76575.2 42346.6 lineto
76631.5 42515.4 lineto
76687.7 42627.9 lineto
76800.2 42796.6 lineto
76856.5 42852.8 lineto
stroke
newpath
77250.2 42571.6 moveto
77306.4 42627.9 lineto
77418.9 42684.1 lineto
77700.1 42684.1 lineto
77812.6 42627.9 lineto
77868.8 42571.6 lineto
77925.1 42459.1 lineto
77925.1 42346.6 lineto
77868.8 42177.9 lineto
77193.9 41503 lineto
77925.1 41503 lineto
stroke
newpath
79331.1 41503 moveto
79331.1 42684.1 lineto
stroke
newpath
79837.3 41503 moveto
79837.3 42121.7 lineto
79781.1 42234.2 lineto
79668.6 42290.4 lineto
79499.9 42290.4 lineto
79387.4 42234.2 lineto
79331.1 42177.9 lineto
stroke
newpath
80568.5 41503 moveto
80456 41559.2 lineto
80399.8 41615.5 lineto
80343.5 41728 lineto
80343.5 42065.4 lineto
80399.8 42177.9 lineto
80456 42234.2 lineto
80568.5 42290.4 lineto
80737.2 42290.4 lineto
80849.7 42234.2 lineto
80905.9 42177.9 lineto
80962.2 42065.4 lineto
80962.2 41728 lineto
80905.9 41615.5 lineto
80849.7 41559.2 lineto
80737.2 41503 lineto
80568.5 41503 lineto
stroke
newpath
81637.1 41503 moveto
81524.6 41559.2 lineto
81468.4 41671.7 lineto
81468.4 42684.1 lineto
stroke
newpath
82537 41559.2 moveto
82424.5 41503 lineto
82199.5 41503 lineto
82087 41559.2 lineto
82030.8 41671.7 lineto
82030.8 42121.7 lineto
82087 42234.2 lineto
82199.5 42290.4 lineto
82424.5 42290.4 lineto
82537 42234.2 lineto
82593.2 42121.7 lineto
82593.2 42009.2 lineto
82030.8 41896.7 lineto
stroke
newpath
83043.2 41559.2 moveto
83155.7 41503 lineto
83380.6 41503 lineto
83493.1 41559.2 lineto
83549.4 41671.7 lineto
83549.4 41728 lineto
83493.1 41840.5 lineto
83380.6 41896.7 lineto
83211.9 41896.7 lineto
83099.4 41952.9 lineto
83043.2 42065.4 lineto
83043.2 42121.7 lineto
83099.4 42234.2 lineto
83211.9 42290.4 lineto
83380.6 42290.4 lineto
83493.1 42234.2 lineto
stroke
newpath
83943.1 41053.1 moveto
83999.3 41109.3 lineto
84111.8 41278 lineto
84168 41390.5 lineto
84224.3 41559.2 lineto
84280.5 41840.5 lineto
84280.5 42065.4 lineto
84224.3 42346.6 lineto
84168 42515.4 lineto
84111.8 42627.9 lineto
83999.3 42796.6 lineto
83943.1 42852.8 lineto
stroke
showpage
grestore
%%EOF
