PCBNEW-LibModule-V1  2014-03-30 20:56:50
# encoding utf-8
Units mm
$INDEX
DE0703
DE1205
$EndINDEX
$MODULE DE0703
Po 0 0 0 15 533868DB 00000000 ~~
Li DE0703
Sc 0
AR 
Op 0 0 0
T0 -0.9 -3.5 1.5 1.5 900 0.15 N V 21 N "DE0703"
T1 8.5 -3.8 1.5 1.5 900 0.15 N V 21 N "VAL**"
DC 3.6 -3.6 6.7 -3.6 0.15 21
DS 7.3 -7.3 7.3 0 0.15 21
DS 7.3 -7.3 0 -7.3 0.15 21
DS 0 -7.3 0 0 0.15 21
DS 0 0 7.3 0 0.15 21
$PAD
Sh "1" R 3.5 2.5 0 0 0
Dr 0 0 0
At SMD N 00888000
Ne 0 ""
Po 3.5 -7.3
$EndPAD
$PAD
Sh "2" R 3.5 2.5 0 0 0
Dr 0 0 0
At SMD N 00888000
Ne 0 ""
Po 3.5 0
$EndPAD
$EndMODULE DE0703
$MODULE DE1205
Po 0 0 0 15 53273D8D 00000000 ~~
Li DE1205
Sc 0
AR 
Op 0 0 0
T0 6 -7 1.5 1.5 0 0.15 N V 21 N "DE1205"
T1 6 -4.5 1.5 1.5 0 0.15 N V 21 N "VAL**"
DC 6 -6 11 -6 0.15 21
DS 0 0 12 0 0.15 21
DS 12 0 12 -12 0.15 21
DS 12 -12 0 -12 0.15 21
DS 0 -12 0 0 0.15 21
$PAD
Sh "1" R 5.4 3.8 0 0 0
Dr 0 0 0
At SMD N 00888000
Ne 0 ""
Po 6 -11
$EndPAD
$PAD
Sh "2" R 5.4 3.8 0 0 0
Dr 0 0 0
At SMD N 00888000
Ne 0 ""
Po 6 -1
$EndPAD
$EndMODULE DE1205
$EndLIBRARY
