PCBNEW-LibModule-V1  2014-03-30 20:35:39
# encoding utf-8
Units mm
$INDEX
TACTM-64N-F
$EndINDEX
$MODULE TACTM-64N-F
Po 0 0 0 15 533863F7 00000000 ~~
Li TACTM-64N-F
Sc 0
AR 
Op 0 0 0
T0 0 4.75 1.5 1.5 0 0.15 N V 21 N "TACTM-64N-F"
T1 0 -4 1.5 1.5 0 0.15 N V 21 N "VAL**"
DC 0 0 1.75 0 0.15 21
DS -3.5 -3 -3.5 3 0.15 21
DS -3.5 3 3.5 3 0.15 21
DS 3.5 3 3.5 -3 0.15 21
DS 3.5 -3 -3.5 -3 0.15 21
$PAD
Sh "1" R 2 1.2 0 0 0
Dr 0 0 0
At SMD N 00888000
Ne 0 ""
Po -4 -2.25
$EndPAD
$PAD
Sh "1" R 2 1.2 0 0 0
Dr 0 0 0
At SMD N 00888000
Ne 0 ""
Po 4 -2.25
$EndPAD
$PAD
Sh "2" R 2 1.2 0 0 0
Dr 0 0 0
At SMD N 00888000
Ne 0 ""
Po -4 2.25
$EndPAD
$PAD
Sh "2" R 2 1.2 0 0 0
Dr 0 0 0
At SMD N 00888000
Ne 0 ""
Po 4 2.25
$EndPAD
$EndMODULE TACTM-64N-F
$EndLIBRARY
