EESchema Schematic File Version 2
LIBS:str-lc-rescue
LIBS:power
LIBS:device
LIBS:transistors
LIBS:conn
LIBS:linear
LIBS:regul
LIBS:74xx
LIBS:cmos4000
LIBS:adc-dac
LIBS:memory
LIBS:xilinx
LIBS:microcontrollers
LIBS:dsp
LIBS:microchip
LIBS:analog_switches
LIBS:motorola
LIBS:texas
LIBS:intel
LIBS:audio
LIBS:interface
LIBS:digital-audio
LIBS:philips
LIBS:display
LIBS:cypress
LIBS:siliconi
LIBS:opto
LIBS:atmel
LIBS:contrib
LIBS:valves
LIBS:stratification-lc
LIBS:derfmega256-23m00
LIBS:ufl
LIBS:sd-card-con
LIBS:btm-222
LIBS:str-lc-cache
EELAYER 25 0
EELAYER END
$Descr A4 11693 8268
encoding utf-8
Sheet 1 1
Title ""
Date "31 mar 2015"
Rev ""
Comp ""
Comment1 ""
Comment2 ""
Comment3 ""
Comment4 ""
$EndDescr
$Comp
L GND #PWR01
U 1 1 533AAFF5
P 1300 7700
F 0 "#PWR01" H 1300 7700 30  0001 C CNN
F 1 "GND" H 1300 7630 30  0001 C CNN
F 2 "" H 1300 7700 60  0001 C CNN
F 3 "" H 1300 7700 60  0001 C CNN
	1    1300 7700
	1    0    0    -1  
$EndComp
Text Label 2750 6450 2    60   ~ 0
VCC
Text Label 2750 6650 2    60   ~ 0
GND
Text Label 2750 6250 2    60   ~ 0
SPI_nSDCS
Text Label 2750 6750 2    60   ~ 0
SPI_MISO
Text Label 2750 6550 2    60   ~ 0
SPI_SCK
Text Label 2750 6350 2    60   ~ 0
SPI_MOSI
$Comp
L SD-CARD-CON C12
U 1 1 533AAD38
P 2150 6150
F 0 "C12" H 2550 5150 60  0000 C CNN
F 1 "MCC-SDMICRO/2" H 2800 6250 60  0000 C CNN
F 2 "uSDCARD" H 2150 6150 60  0001 C CNN
F 3 "" H 2150 6150 60  0001 C CNN
	1    2150 6150
	-1   0    0    -1  
$EndComp
Text Label 5400 6650 2    60   ~ 0
VCC
Text Label 5400 6950 2    60   ~ 0
GND
Text Label 5400 6550 2    60   ~ 0
GND
Text Label 3900 6550 0    60   ~ 0
JTAG_TCK
Text Label 3900 6650 0    60   ~ 0
JTAG_TDO
Text Label 3900 6950 0    60   ~ 0
JTAG_TDI
Text Label 3900 6750 0    60   ~ 0
JTAG_TMS
$Comp
L AVR-JTAG-10 CON1
U 1 1 51C49800
P 4800 6750
F 0 "CON1" H 4630 7080 50  0000 C CNN
F 1 "AVR-JTAG-10" H 4460 6420 50  0000 L BNN
F 2 "ZL322-2X5P" V 4230 6770 50  0001 C CNN
F 3 "" H 4800 6750 60  0001 C CNN
	1    4800 6750
	1    0    0    -1  
$EndComp
$Comp
L CP1-RESCUE-str-lc C7
U 1 1 50713F0E
P 6650 1250
F 0 "C7" H 6700 1350 50  0000 L CNN
F 1 "10uF/6V" V 6650 1650 50  0000 L CNN
F 2 "SM1206POL" H 6650 1250 60  0001 C CNN
F 3 "" H 6650 1250 60  0001 C CNN
	1    6650 1250
	1    0    0    -1  
$EndComp
$Comp
L MAX887 U3
U 1 1 53087AD3
P 3700 1250
F 0 "U3" H 3800 1400 60  0000 C CNN
F 1 "MAX887" H 3700 1700 60  0000 C CNN
F 2 "SO8N" H 3700 1250 60  0001 C CNN
F 3 "" H 3700 1250 60  0001 C CNN
	1    3700 1250
	1    0    0    -1  
$EndComp
$Comp
L CP-RESCUE-str-lc C5
U 1 1 53087AE2
P 3150 1400
F 0 "C5" H 2950 1500 40  0000 L CNN
F 1 "2,2uF" H 2950 1300 40  0000 L CNN
F 2 "SM1206POL" H 3250 1250 30  0000 C CNN
F 3 "~" H 3150 1400 300 0000 C CNN
	1    3150 1400
	1    0    0    -1  
$EndComp
$Comp
L GND #PWR02
U 1 1 53087DE0
P 3800 1800
F 0 "#PWR02" H 3800 1800 30  0001 C CNN
F 1 "GND" H 3800 1730 30  0001 C CNN
F 2 "" H 3800 1800 60  0001 C CNN
F 3 "" H 3800 1800 60  0001 C CNN
	1    3800 1800
	1    0    0    -1  
$EndComp
$Comp
L C-RESCUE-str-lc C3
U 1 1 53087E8C
P 2850 1400
F 0 "C3" H 2750 1500 40  0000 L CNN
F 1 "47nF" H 2700 1300 40  0000 L CNN
F 2 "SM0805" H 2888 1250 30  0000 C CNN
F 3 "~" H 2850 1400 60  0000 C CNN
	1    2850 1400
	1    0    0    -1  
$EndComp
$Comp
L INDUCTOR_SMALL L1
U 1 1 5308809F
P 4550 900
F 0 "L1" H 4550 1000 50  0000 C CNN
F 1 "DE0703-33uH" H 4550 800 50  0000 C CNN
F 2 "DE0703" H 4550 900 60  0001 C CNN
F 3 "~" H 4550 900 60  0000 C CNN
	1    4550 900 
	1    0    0    -1  
$EndComp
$Comp
L R-RESCUE-str-lc R4
U 1 1 530880B3
P 4900 1200
F 0 "R4" V 4980 1200 40  0000 C CNN
F 1 "165k 2%" V 4907 1201 40  0000 C CNN
F 2 "SM0805" V 4830 1200 30  0000 C CNN
F 3 "~" H 4900 1200 30  0000 C CNN
	1    4900 1200
	1    0    0    -1  
$EndComp
$Comp
L R-RESCUE-str-lc R3
U 1 1 530880C0
P 4400 1600
F 0 "R3" V 4480 1600 40  0000 C CNN
F 1 "100k 2%" V 4407 1601 40  0000 C CNN
F 2 "SM0805" V 4330 1600 30  0000 C CNN
F 3 "~" H 4400 1600 30  0000 C CNN
	1    4400 1600
	0    -1   -1   0   
$EndComp
$Comp
L C-RESCUE-str-lc C9
U 1 1 530883DF
P 5150 1250
F 0 "C9" H 5150 1350 40  0000 L CNN
F 1 "100p" H 5156 1165 40  0000 L CNN
F 2 "SM0805" H 5188 1100 30  0000 C CNN
F 3 "~" H 5150 1250 60  0000 C CNN
	1    5150 1250
	1    0    0    -1  
$EndComp
$Comp
L CP-RESCUE-str-lc C10
U 1 1 530883FA
P 5500 1250
F 0 "C10" H 5550 1350 40  0000 L CNN
F 1 "10uF" H 5550 1150 40  0000 L CNN
F 2 "SM1206POL" H 5600 1100 30  0000 C CNN
F 3 "~" H 5500 1250 300 0000 C CNN
	1    5500 1250
	1    0    0    -1  
$EndComp
Text Notes 5100 850  0    60   ~ 0
3.3V
$Comp
L VCC #PWR03
U 1 1 530888E8
P 5500 850
F 0 "#PWR03" H 5500 950 30  0001 C CNN
F 1 "VCC" H 5500 950 30  0000 C CNN
F 2 "" H 5500 850 60  0001 C CNN
F 3 "" H 5500 850 60  0001 C CNN
	1    5500 850 
	1    0    0    -1  
$EndComp
$Comp
L FUSE F1
U 1 1 53088B14
P 1550 900
F 0 "F1" H 1650 950 40  0000 C CNN
F 1 "SM010-60" H 1550 750 40  0000 C CNN
F 2 "SM1210" H 1550 900 60  0000 C CNN
F 3 "~" H 1550 900 60  0000 C CNN
	1    1550 900 
	1    0    0    -1  
$EndComp
$Comp
L DIODE D1
U 1 1 53088B23
P 1900 1200
F 0 "D1" H 1900 1300 40  0000 C CNN
F 1 "1N4148" H 1900 1100 40  0000 C CNN
F 2 "SM1206POL" H 1900 1200 60  0000 C CNN
F 3 "~" H 1900 1200 60  0000 C CNN
	1    1900 1200
	0    -1   -1   0   
$EndComp
$Comp
L CONN_2 P1
U 1 1 53088B37
P 800 1250
F 0 "P1" V 750 1250 40  0000 C CNN
F 1 "CONN_2" V 850 1250 40  0000 C CNN
F 2 "PIN_ARRAY_2X1" H 800 1250 60  0001 C CNN
F 3 "" H 800 1250 60  0001 C CNN
	1    800  1250
	-1   0    0    1   
$EndComp
$Comp
L CP-RESCUE-str-lc C1
U 1 1 53088B64
P 2250 1200
F 0 "C1" H 2300 1300 40  0000 L CNN
F 1 "10uF/16V" V 2200 800 40  0000 L CNN
F 2 "SM1206POL" H 2350 1050 30  0000 C CNN
F 3 "~" H 2250 1200 300 0000 C CNN
	1    2250 1200
	1    0    0    -1  
$EndComp
$Comp
L C-RESCUE-str-lc C2
U 1 1 53088B73
P 2550 1200
F 0 "C2" H 2550 1300 40  0000 L CNN
F 1 "330n" H 2556 1115 40  0000 L CNN
F 2 "SM0805" H 2588 1050 30  0000 C CNN
F 3 "~" H 2550 1200 60  0000 C CNN
	1    2550 1200
	1    0    0    -1  
$EndComp
Text Notes 950  1050 0    60   ~ 0
BATT+
Text Notes 950  1550 0    60   ~ 0
BATT-
Text Notes 750  750  0    60   ~ 0
MAX 11V - 7 ogniw
$Comp
L +BATT #PWR04
U 1 1 53089758
P 2100 800
F 0 "#PWR04" H 2100 750 20  0001 C CNN
F 1 "+BATT" H 2100 900 30  0000 C CNN
F 2 "" H 2100 800 60  0001 C CNN
F 3 "" H 2100 800 60  0001 C CNN
	1    2100 800 
	1    0    0    -1  
$EndComp
Text Label 6350 2550 3    60   ~ 0
JTAG_TCK
Text Label 6550 2550 3    60   ~ 0
JTAG_TDO
Text Label 6450 2550 3    60   ~ 0
JTAG_TMS
Text Label 6650 2550 3    60   ~ 0
JTAG_TDI
$Comp
L R-RESCUE-str-lc R5
U 1 1 530BAEA6
P 8150 1050
F 0 "R5" V 8230 1050 50  0000 C CNN
F 1 "10k" V 8150 1050 50  0000 C CNN
F 2 "SM0805" H 8150 1050 60  0001 C CNN
F 3 "" H 8150 1050 60  0001 C CNN
	1    8150 1050
	1    0    0    -1  
$EndComp
$Comp
L GND #PWR05
U 1 1 530BAEAC
P 8150 2050
F 0 "#PWR05" H 8150 2050 30  0001 C CNN
F 1 "GND" H 8150 1980 30  0001 C CNN
F 2 "" H 8150 2050 60  0001 C CNN
F 3 "" H 8150 2050 60  0001 C CNN
	1    8150 2050
	1    0    0    -1  
$EndComp
$Comp
L VCC #PWR06
U 1 1 530BAEB2
P 8150 700
F 0 "#PWR06" H 8150 800 30  0001 C CNN
F 1 "VCC" H 8150 800 30  0000 C CNN
F 2 "" H 8150 700 60  0001 C CNN
F 3 "" H 8150 700 60  0001 C CNN
	1    8150 700 
	1    0    0    -1  
$EndComp
$Comp
L MCP121 U5
U 1 1 530BAEB8
P 7900 1400
F 0 "U5" V 8450 1300 60  0000 C CNN
F 1 "MCP121T-270E/TT" V 8350 1400 60  0000 C CNN
F 2 "SOT23" H 7900 1400 60  0001 C CNN
F 3 "" H 7900 1400 60  0001 C CNN
	1    7900 1400
	-1   0    0    -1  
$EndComp
$Comp
L CONN_2 P3
U 1 1 530BAECB
P 9050 1500
F 0 "P3" V 9000 1500 40  0000 C CNN
F 1 "CONN_2" V 9100 1500 40  0000 C CNN
F 2 "PIN_ARRAY_2X1" H 9050 1500 60  0001 C CNN
F 3 "" H 9050 1500 60  0001 C CNN
	1    9050 1500
	1    0    0    -1  
$EndComp
Text Notes 8700 1300 0    60   ~ 0
EXTERNAL RESET
Text Label 6250 5850 1    60   ~ 0
nRST
Text Label 5400 6750 2    60   ~ 0
nRST
$Comp
L SW_PUSH_SMALL SW1
U 1 1 530BAED9
P 8250 1700
F 0 "SW1" H 8400 1810 30  0000 C CNN
F 1 "TACTM-64N-F" H 8100 1650 30  0000 C CNN
F 2 "TACTM-64N-F" H 8250 1700 60  0000 C CNN
F 3 "~" H 8250 1700 60  0000 C CNN
	1    8250 1700
	1    0    0    -1  
$EndComp
Text Label 8700 900  2    60   ~ 0
NRST
$Comp
L GND #PWR07
U 1 1 530BB495
P 10400 1500
F 0 "#PWR07" H 10400 1500 30  0001 C CNN
F 1 "GND" H 10400 1430 30  0001 C CNN
F 2 "" H 10400 1500 60  0001 C CNN
F 3 "" H 10400 1500 60  0001 C CNN
	1    10400 1500
	1    0    0    -1  
$EndComp
Text Label 10400 950  2    60   ~ 0
RX
Text Label 10400 1050 2    60   ~ 0
TX
Text Label 10400 1150 2    60   ~ 0
VCC
Text Label 10400 1350 2    60   ~ 0
GND
$Comp
L CONN_6 P2
U 1 1 530BB4A1
P 9650 1100
F 0 "P2" V 9600 1100 60  0000 C CNN
F 1 "CONN_6" V 9700 1100 60  0000 C CNN
F 2 "PIN_ARRAY-6X1" H 9650 1100 60  0001 C CNN
F 3 "" H 9650 1100 60  0001 C CNN
	1    9650 1100
	-1   0    0    1   
$EndComp
Text Label 9300 3900 2    60   ~ 0
RX
Text Label 9300 4000 2    60   ~ 0
TX
$Comp
L GND #PWR08
U 1 1 530BB6BD
P 1700 3250
F 0 "#PWR08" H 1700 3250 30  0001 C CNN
F 1 "GND" H 1700 3180 30  0001 C CNN
F 2 "" H 1700 3250 60  0001 C CNN
F 3 "" H 1700 3250 60  0001 C CNN
	1    1700 3250
	1    0    0    -1  
$EndComp
$Comp
L C-RESCUE-str-lc C4
U 1 1 530BB6C3
P 1700 2950
F 0 "C4" H 1750 3050 50  0000 L CNN
F 1 "100nF" H 1750 2850 50  0000 L CNN
F 2 "SM0805" H 1700 2950 60  0001 C CNN
F 3 "" H 1700 2950 60  0001 C CNN
	1    1700 2950
	1    0    0    -1  
$EndComp
$Comp
L GND #PWR09
U 1 1 530BB6C9
P 1350 3250
F 0 "#PWR09" H 1350 3250 30  0001 C CNN
F 1 "GND" H 1350 3180 30  0001 C CNN
F 2 "" H 1350 3250 60  0001 C CNN
F 3 "" H 1350 3250 60  0001 C CNN
	1    1350 3250
	1    0    0    -1  
$EndComp
$Comp
L R-RESCUE-str-lc R2
U 1 1 530BB6CF
P 1350 2950
F 0 "R2" V 1430 2950 50  0000 C CNN
F 1 "20k 2%" V 1250 2950 50  0000 C CNN
F 2 "SM0805" H 1350 2950 60  0001 C CNN
F 3 "" H 1350 2950 60  0001 C CNN
	1    1350 2950
	1    0    0    -1  
$EndComp
$Comp
L R-RESCUE-str-lc R1
U 1 1 530BB6D5
P 1350 2350
F 0 "R1" V 1430 2350 50  0000 C CNN
F 1 "100k 2%" V 1250 2350 50  0000 C CNN
F 2 "SM0805" H 1350 2350 60  0001 C CNN
F 3 "" H 1350 2350 60  0001 C CNN
	1    1350 2350
	1    0    0    -1  
$EndComp
$Comp
L +BATT #PWR010
U 1 1 530BB6DB
P 1350 2050
F 0 "#PWR010" H 1350 2000 20  0001 C CNN
F 1 "+BATT" H 1350 2150 30  0000 C CNN
F 2 "" H 1350 2050 60  0001 C CNN
F 3 "" H 1350 2050 60  0001 C CNN
	1    1350 2050
	1    0    0    -1  
$EndComp
Text Label 2200 2650 2    60   ~ 0
BATT_DIV
Text Label 7150 2550 3    60   ~ 0
BATT_DIV
$Comp
L IRLM6302PBF Q1
U 1 1 530BB6EE
P 2050 3750
F 0 "Q1" H 2050 3940 60  0000 R CNN
F 1 "IRLML6302PBF" V 2350 4050 60  0000 R CNN
F 2 "SOT23GDS" H 2050 3750 60  0001 C CNN
F 3 "" H 2050 3750 60  0001 C CNN
	1    2050 3750
	-1   0    0    1   
$EndComp
$Comp
L GND #PWR012
U 1 1 530BB6FA
P 1950 4650
F 0 "#PWR012" H 1950 4650 30  0001 C CNN
F 1 "GND" H 1950 4580 30  0001 C CNN
F 2 "" H 1950 4650 60  0001 C CNN
F 3 "" H 1950 4650 60  0001 C CNN
	1    1950 4650
	1    0    0    -1  
$EndComp
Text Label 3000 3750 2    60   ~ 0
N_SENS_POW
Text Label 7450 2550 3    60   ~ 0
N_SENS_POW
Text Label 3000 4000 2    60   ~ 0
SENS_REF
Text Label 3000 4300 2    60   ~ 0
SENS_DATA
Text Label 7050 2550 3    60   ~ 0
SENS_DATA
Text Label 6950 2550 3    60   ~ 0
SENS_REF
$Comp
L CONN_3 K1
U 1 1 530BB713
P 1250 4300
F 0 "K1" V 1200 4300 50  0000 C CNN
F 1 "CONN_3" V 1300 4300 40  0000 C CNN
F 2 "PIN_ARRAY_3X1" H 1250 4300 60  0001 C CNN
F 3 "" H 1250 4300 60  0001 C CNN
	1    1250 4300
	-1   0    0    1   
$EndComp
$Comp
L VCC #PWR013
U 1 1 530CF7EF
P 1500 5050
F 0 "#PWR013" H 1500 5150 30  0001 C CNN
F 1 "VCC" H 1500 5150 30  0000 C CNN
F 2 "" H 1500 5050 60  0001 C CNN
F 3 "" H 1500 5050 60  0001 C CNN
	1    1500 5050
	1    0    0    -1  
$EndComp
$Comp
L GND #PWR014
U 1 1 530CF7F5
P 1500 5600
F 0 "#PWR014" H 1500 5600 30  0001 C CNN
F 1 "GND" H 1500 5530 30  0001 C CNN
F 2 "" H 1500 5600 60  0001 C CNN
F 3 "" H 1500 5600 60  0001 C CNN
	1    1500 5600
	1    0    0    -1  
$EndComp
$Comp
L VCC #PWR015
U 1 1 530CF7FB
P 2400 5000
F 0 "#PWR015" H 2400 5100 30  0001 C CNN
F 1 "VCC" H 2400 5100 30  0000 C CNN
F 2 "" H 2400 5000 60  0001 C CNN
F 3 "" H 2400 5000 60  0001 C CNN
	1    2400 5000
	1    0    0    -1  
$EndComp
$Comp
L AT25F2048 U1
U 1 1 530CF801
P 2050 5400
F 0 "U1" H 1950 5800 60  0000 C CNN
F 1 "M25P16-VMN6P" H 1950 5250 60  0000 C CNN
F 2 "SO8N" H 2050 5400 60  0001 C CNN
F 3 "" H 2050 5400 60  0001 C CNN
	1    2050 5400
	1    0    0    -1  
$EndComp
Text Label 8050 5850 1    60   ~ 0
SPI_SCK
Text Label 2750 5350 2    60   ~ 0
SPI_SCK
Text Label 9300 4500 2    60   ~ 0
SPI_MISO
Text Label 1000 5250 0    60   ~ 0
SPI_MISO
Text Label 7950 5850 1    60   ~ 0
SPI_MOSI
Text Label 2750 5450 2    60   ~ 0
SPI_MOSI
Text Label 1000 5150 0    60   ~ 0
SPI_nCS
Text Label 9300 4400 2    60   ~ 0
SPI_nCS
$Comp
L DERFMEGA256-23M00 U4
U 1 1 5318DB73
P 5950 5300
F 0 "U4" H 7050 6650 60  0000 C CNN
F 1 "DERFMEGA256-23M00" H 7050 6400 60  0000 C CNN
F 2 "DERFMEGA256-23M10" H 7050 6300 60  0000 C CNN
F 3 "~" H 6550 6650 60  0000 C CNN
	1    5950 5300
	1    0    0    -1  
$EndComp
$Comp
L R-RESCUE-str-lc R9
U 1 1 531B64FE
P 9350 6600
F 0 "R9" V 9400 6350 50  0000 C CNN
F 1 "330R" V 9350 6600 50  0000 C CNN
F 2 "SM0805" H 9350 6600 60  0001 C CNN
F 3 "" H 9350 6600 60  0001 C CNN
	1    9350 6600
	0    -1   -1   0   
$EndComp
$Comp
L LED-RESCUE-str-lc D2
U 1 1 531B6504
P 10750 6800
F 0 "D2" H 10550 6750 50  0000 C CNN
F 1 "OS5RKA5111P" H 10950 6900 50  0000 C CNN
F 2 "LEDV" H 10750 6800 60  0001 C CNN
F 3 "" H 10750 6800 60  0001 C CNN
	1    10750 6800
	-1   0    0    1   
$EndComp
$Comp
L VCC #PWR016
U 1 1 531B651F
P 9800 6000
F 0 "#PWR016" H 9800 6100 30  0001 C CNN
F 1 "VCC" H 9800 6100 30  0000 C CNN
F 2 "" H 9800 6000 60  0001 C CNN
F 3 "" H 9800 6000 60  0001 C CNN
	1    9800 6000
	1    0    0    -1  
$EndComp
$Comp
L R-RESCUE-str-lc R8
U 1 1 531B6525
P 9350 6400
F 0 "R8" V 9400 6100 50  0000 C CNN
F 1 "330R" V 9350 6400 50  0000 C CNN
F 2 "SM0805" H 9350 6400 60  0001 C CNN
F 3 "" H 9350 6400 60  0001 C CNN
	1    9350 6400
	0    -1   -1   0   
$EndComp
$Comp
L R-RESCUE-str-lc R7
U 1 1 531B652B
P 9350 6300
F 0 "R7" V 9400 6000 50  0000 C CNN
F 1 "330R" V 9350 6300 50  0000 C CNN
F 2 "SM0805" H 9350 6300 60  0001 C CNN
F 3 "" H 9350 6300 60  0001 C CNN
	1    9350 6300
	0    -1   -1   0   
$EndComp
$Comp
L R-RESCUE-str-lc R6
U 1 1 531B6531
P 9350 6100
F 0 "R6" V 9400 5800 50  0000 C CNN
F 1 "330R" V 9350 6100 50  0000 C CNN
F 2 "SM0805" H 9350 6100 60  0001 C CNN
F 3 "" H 9350 6100 60  0001 C CNN
	1    9350 6100
	0    -1   -1   0   
$EndComp
$Comp
L RGB_LED L2
U 1 1 531B6537
P 10500 6200
F 0 "L2" H 10650 5850 60  0000 C CNN
F 1 "HB5-40ARAAGCABC" V 11050 6150 60  0000 C CNN
F 2 "PIN_ARRAY_4x1" H 10500 6200 60  0001 C CNN
F 3 "" H 10500 6200 60  0001 C CNN
	1    10500 6200
	1    0    0    -1  
$EndComp
Text Label 8650 6100 0    60   ~ 0
nLED_R
Text Label 8650 6300 0    60   ~ 0
nLED_G
Text Label 8650 6400 0    60   ~ 0
nLED_B
Text Label 8650 6600 0    60   ~ 0
nLED_ALRM
Text Label 7950 2550 3    60   ~ 0
nLED_R
Text Label 7850 2550 3    60   ~ 0
nLED_G
Text Label 7750 2550 3    60   ~ 0
nLED_B
Text Label 6050 2550 3    60   ~ 0
GND
Text Label 6250 2550 3    60   ~ 0
GND
Text Label 6750 2550 3    60   ~ 0
GND
Text Label 5950 5850 1    60   ~ 0
GND
Text Label 6150 2550 3    60   ~ 0
VCC
Text Label 6050 5850 1    60   ~ 0
VCC
Text Label 8050 2550 3    60   ~ 0
GND
Text Notes 3050 5700 0    60   ~ 0
2MB
$Comp
L C-RESCUE-str-lc C6
U 1 1 53246A3D
P 6200 1250
F 0 "C6" H 6200 1350 40  0000 L CNN
F 1 "100nF" H 6206 1165 40  0000 L CNN
F 2 "SM0805" H 6238 1100 30  0000 C CNN
F 3 "~" H 6200 1250 60  0000 C CNN
	1    6200 1250
	1    0    0    -1  
$EndComp
$Comp
L GND #PWR017
U 1 1 53246DDC
P 6400 1600
F 0 "#PWR017" H 6400 1600 30  0001 C CNN
F 1 "GND" H 6400 1530 30  0001 C CNN
F 2 "" H 6400 1600 60  0001 C CNN
F 3 "" H 6400 1600 60  0001 C CNN
	1    6400 1600
	1    0    0    -1  
$EndComp
$Comp
L VCC #PWR018
U 1 1 53246DEB
P 6400 850
F 0 "#PWR018" H 6400 950 30  0001 C CNN
F 1 "VCC" H 6400 950 30  0000 C CNN
F 2 "" H 6400 850 60  0001 C CNN
F 3 "" H 6400 850 60  0001 C CNN
	1    6400 850 
	1    0    0    -1  
$EndComp
Text Notes 4450 7200 0    60   ~ 0
ZL322-2X5P
$Comp
L CP1-RESCUE-str-lc C8
U 1 1 53249D18
P 6950 1250
F 0 "C8" H 7000 1350 50  0000 L CNN
F 1 "10uF/6V" V 7000 1650 50  0000 L CNN
F 2 "SM1206POL" H 6950 1250 60  0001 C CNN
F 3 "" H 6950 1250 60  0001 C CNN
	1    6950 1250
	1    0    0    -1  
$EndComp
Text Label 9300 4300 2    60   ~ 0
nLED_ALRM
Text Notes 4050 5100 0    60   ~ 0
Antena Maritex GSM-IPX
Text Notes 4050 5200 0    60   ~ 0
tak na prawdę kabel
$Comp
L C-RESCUE-str-lc C11
U 1 1 53308AF5
P 4850 4200
F 0 "C11" V 4700 4150 40  0000 L CNN
F 1 "22pF" V 5000 4100 40  0000 L CNN
F 2 "SM0402_c" H 4888 4050 30  0000 C CNN
F 3 "~" H 4850 4200 60  0000 C CNN
	1    4850 4200
	0    -1   -1   0   
$EndComp
$Comp
L R-RESCUE-str-lc R10
U 1 1 53308B46
P 4600 4550
F 0 "R10" V 4680 4550 40  0000 C CNN
F 1 "10k" V 4607 4551 40  0000 C CNN
F 2 "SM0402_r" V 4530 4550 30  0000 C CNN
F 3 "~" H 4600 4550 30  0000 C CNN
	1    4600 4550
	1    0    0    -1  
$EndComp
$Comp
L GND #PWR019
U 1 1 53309123
P 5300 4950
F 0 "#PWR019" H 5300 4950 30  0001 C CNN
F 1 "GND" H 5300 4880 30  0001 C CNN
F 2 "" H 5300 4950 60  0001 C CNN
F 3 "" H 5300 4950 60  0001 C CNN
	1    5300 4950
	1    0    0    -1  
$EndComp
$Comp
L UFL U6
U 1 1 533092AF
P 4050 4200
F 0 "U6" H 4050 4350 60  0000 C CNN
F 1 "UFL" H 4050 4425 60  0000 C CNN
F 2 "RF-IPX125-1G" H 4050 4200 60  0001 C CNN
F 3 "~" H 4050 4200 60  0000 C CNN
	1    4050 4200
	1    0    0    -1  
$EndComp
Text Notes 1600 5700 0    60   ~ 0
M25P16-VMN6P - nie pasuje
Text Notes 3500 3900 0    60   ~ 0
RF-IPX125-1G - maritex
Text Label 4350 4200 0    60   ~ 0
RF_2
Text Label 5100 4200 0    60   ~ 0
RF_1
Text Notes 7750 2450 1    60   ~ 0
PWM
Text Notes 7850 2450 1    60   ~ 0
PWM
Text Notes 7950 2450 1    60   ~ 0
PWM
Text Notes 9400 4300 0    60   ~ 0
PWM
Text Label 7750 5850 1    60   ~ 0
SPI_nSDCS
$Comp
L CONN_6 P4
U 1 1 53385D87
P 10300 6350
F 0 "P4" V 10250 6350 60  0000 C CNN
F 1 "CONN_6" V 10350 6350 60  0000 C CNN
F 2 "PIN_ARRAY-6X1" H 10300 6350 60  0001 C CNN
F 3 "" H 10300 6350 60  0001 C CNN
	1    10300 6350
	1    0    0    -1  
$EndComp
Text Label 9300 4100 2    60   ~ 0
UART_PIN1
Text Label 10400 850  2    60   ~ 0
UART_PIN1
Text Label 9300 4200 2    60   ~ 0
UART_PIN2
Text Label 10400 1250 2    60   ~ 0
UART_PIN2
$Comp
L DIODESCH D3
U 1 1 533C6983
P 4200 1150
F 0 "D3" H 4200 1250 40  0000 C CNN
F 1 "SK110" H 4650 1150 40  0000 C CNN
F 2 "DO-214AA(SMB)" H 4200 1150 60  0000 C CNN
F 3 "~" H 4200 1150 60  0000 C CNN
	1    4200 1150
	0    -1   -1   0   
$EndComp
NoConn ~ 2150 6150
NoConn ~ 2150 6850
Text Label 2750 7050 2    60   ~ 0
GND
Text Label 9300 3800 2    60   ~ 0
CARD_INSERT
Text Label 2750 6950 2    60   ~ 0
CARD_INSERT
$Comp
L CONN_10 P6
U 1 1 534153CC
P 7400 6850
F 0 "P6" V 7350 6850 60  0000 C CNN
F 1 "CONN_10" V 7450 6850 60  0000 C CNN
F 2 "ZL322-2X5P" H 7400 6850 60  0001 C CNN
F 3 "" H 7400 6850 60  0000 C CNN
	1    7400 6850
	0    -1   1    0   
$EndComp
Text Label 5700 6100 0    60   ~ 0
GND
Text Label 8150 6100 2    60   ~ 0
GND
Text Label 8150 6000 2    60   ~ 0
VCC
Text Label 5700 6000 0    60   ~ 0
VCC
Wire Wire Line
	1300 7400 1300 7700
Connection ~ 1300 7600
Wire Wire Line
	1100 7600 1400 7600
Wire Wire Line
	1100 7600 1100 7400
Wire Wire Line
	2750 6750 2150 6750
Wire Wire Line
	2750 6650 2150 6650
Wire Wire Line
	2750 6550 2150 6550
Wire Wire Line
	2750 6450 2150 6450
Wire Wire Line
	2750 6350 2150 6350
Wire Wire Line
	2750 6250 2150 6250
Wire Wire Line
	3900 6750 4600 6750
Wire Wire Line
	3900 6550 4600 6550
Wire Wire Line
	5400 6950 4850 6950
Wire Wire Line
	5400 6750 4850 6750
Wire Wire Line
	5400 6650 4850 6650
Wire Wire Line
	5400 6550 4850 6550
Wire Wire Line
	3900 6650 4600 6650
Wire Wire Line
	3900 6950 4600 6950
Wire Wire Line
	3350 1200 3150 1200
Wire Wire Line
	3800 1600 3800 1800
Wire Wire Line
	1300 1700 5500 1700
Wire Wire Line
	3150 1700 3150 1600
Wire Wire Line
	3350 1300 3300 1300
Wire Wire Line
	3300 1300 3300 1700
Connection ~ 3300 1700
Connection ~ 3800 1700
Wire Wire Line
	3350 1100 2850 1100
Wire Wire Line
	2850 1100 2850 1200
Wire Wire Line
	2850 1600 2850 1700
Connection ~ 3150 1700
Wire Wire Line
	1800 900  3350 900 
Wire Wire Line
	3250 900  3250 1000
Wire Wire Line
	3250 1000 3350 1000
Wire Wire Line
	4100 900  4300 900 
Wire Wire Line
	4650 1600 5150 1600
Wire Wire Line
	4900 1450 4900 1600
Wire Wire Line
	4800 900  5500 900 
Wire Wire Line
	4900 900  4900 950 
Wire Wire Line
	4100 1400 4750 1400
Wire Wire Line
	4750 1400 4750 1600
Connection ~ 4750 1600
Wire Wire Line
	5150 900  5150 1050
Connection ~ 4900 900 
Wire Wire Line
	5150 1600 5150 1450
Connection ~ 4900 1600
Wire Wire Line
	5500 850  5500 1050
Connection ~ 5150 900 
Wire Wire Line
	5500 1700 5500 1450
Wire Wire Line
	4150 1600 4050 1600
Wire Wire Line
	4050 1500 4050 1700
Connection ~ 4050 1700
Connection ~ 5500 900 
Connection ~ 3250 900 
Wire Wire Line
	1900 1000 1900 900 
Connection ~ 1900 900 
Wire Wire Line
	2250 1000 2250 900 
Connection ~ 2250 900 
Wire Wire Line
	2550 1000 2550 900 
Connection ~ 2550 900 
Wire Wire Line
	1300 1700 1300 1350
Wire Wire Line
	1300 1350 1150 1350
Connection ~ 2850 1700
Wire Wire Line
	1900 1400 1900 1700
Connection ~ 1900 1700
Wire Wire Line
	2250 1400 2250 1700
Connection ~ 2250 1700
Wire Wire Line
	2550 1400 2550 1700
Connection ~ 2550 1700
Wire Wire Line
	1300 900  1250 900 
Wire Wire Line
	1250 900  1250 1150
Wire Wire Line
	1250 1150 1150 1150
Wire Wire Line
	2100 800  2100 900 
Connection ~ 2100 900 
Wire Wire Line
	8150 800  8150 700 
Wire Wire Line
	8150 1950 8150 2050
Wire Wire Line
	7900 1400 8700 1400
Connection ~ 8000 1400
Wire Wire Line
	8150 1300 8150 1600
Connection ~ 8150 1400
Wire Wire Line
	8150 700  7600 700 
Wire Wire Line
	7600 700  7600 1050
Wire Wire Line
	7600 1750 7600 1950
Wire Wire Line
	7600 1950 8550 1950
Connection ~ 8150 1950
Wire Wire Line
	8700 1600 8550 1600
Wire Wire Line
	8550 1600 8550 1950
Wire Wire Line
	8350 1800 8350 1950
Connection ~ 8350 1950
Wire Wire Line
	8350 1400 8350 900 
Wire Wire Line
	8350 900  8700 900 
Connection ~ 8350 1400
Wire Wire Line
	10400 950  10000 950 
Wire Wire Line
	10400 1150 10000 1150
Wire Wire Line
	10400 1500 10400 1350
Wire Wire Line
	10400 1350 10000 1350
Wire Wire Line
	10000 1050 10400 1050
Wire Wire Line
	1700 3150 1700 3250
Wire Wire Line
	1350 3200 1350 3250
Wire Wire Line
	1350 2600 1350 2700
Wire Wire Line
	1350 2050 1350 2100
Connection ~ 1350 2650
Wire Wire Line
	1700 2750 1700 2650
Connection ~ 1700 2650
Wire Wire Line
	1350 2650 2200 2650
Wire Wire Line
	3000 3750 2250 3750
Wire Wire Line
	1950 3950 1950 4200
Wire Wire Line
	1600 4300 3000 4300
Wire Wire Line
	1950 4650 1950 4400
Wire Wire Line
	1950 3450 1950 3550
Wire Wire Line
	3000 4000 1950 4000
Connection ~ 1950 4000
Wire Wire Line
	1950 4200 1600 4200
Wire Wire Line
	1950 4400 1600 4400
Wire Wire Line
	1500 5050 1500 5350
Wire Wire Line
	1500 5350 1600 5350
Wire Wire Line
	2300 5150 2400 5150
Wire Wire Line
	1600 5150 1000 5150
Wire Wire Line
	2300 5450 2750 5450
Wire Wire Line
	1000 5250 1600 5250
Wire Wire Line
	2300 5350 2750 5350
Wire Wire Line
	1600 5450 1500 5450
Wire Wire Line
	1500 5450 1500 5600
Wire Wire Line
	2400 5250 2300 5250
Wire Wire Line
	2400 5000 2400 5250
Connection ~ 2400 5150
Wire Wire Line
	8050 2550 8050 3100
Wire Wire Line
	7950 2550 7950 3100
Wire Wire Line
	7850 2550 7850 3100
Wire Wire Line
	7750 2550 7750 3100
Wire Wire Line
	7450 2550 7450 3100
Wire Wire Line
	7350 2550 7350 3100
Wire Wire Line
	7250 2550 7250 3100
Wire Wire Line
	7150 2550 7150 3100
Wire Wire Line
	7050 2550 7050 3100
Wire Wire Line
	6950 2550 6950 3100
Wire Wire Line
	6850 2550 6850 3100
Wire Wire Line
	6750 2550 6750 3100
Wire Wire Line
	6650 2550 6650 3100
Wire Wire Line
	6550 2550 6550 3100
Wire Wire Line
	6450 2550 6450 3100
Wire Wire Line
	6350 2550 6350 3100
Wire Wire Line
	6250 2550 6250 3100
Wire Wire Line
	6150 2550 6150 3100
Wire Wire Line
	6050 2550 6050 3100
Wire Wire Line
	6450 5300 6450 6100
Wire Wire Line
	6350 5300 6350 6100
Wire Wire Line
	6250 5300 6250 6100
Wire Wire Line
	6150 5300 6150 5850
Wire Wire Line
	6050 5300 6050 5850
Wire Wire Line
	5950 5300 5950 5850
Wire Wire Line
	6850 5300 6850 6100
Wire Wire Line
	6750 5300 6750 6100
Wire Wire Line
	6650 5300 6650 6100
Wire Wire Line
	6550 5300 6550 6100
Wire Wire Line
	7750 5300 7750 5850
Wire Wire Line
	7950 5300 7950 5850
Wire Wire Line
	7850 5300 7850 5850
Wire Wire Line
	8050 5300 8050 5850
Wire Wire Line
	8750 4100 9300 4100
Wire Wire Line
	8750 3900 9300 3900
Wire Wire Line
	8750 4000 9300 4000
Wire Wire Line
	8750 3800 9300 3800
Wire Wire Line
	8750 4500 9300 4500
Wire Wire Line
	8750 4300 9300 4300
Wire Wire Line
	8750 4400 9300 4400
Wire Wire Line
	8750 4200 9300 4200
Wire Wire Line
	9950 6300 9600 6300
Wire Wire Line
	9950 6100 9600 6100
Wire Wire Line
	9950 6400 9600 6400
Wire Wire Line
	9950 6200 9800 6200
Wire Wire Line
	9600 6600 9950 6600
Connection ~ 9800 6200
Wire Wire Line
	8650 6100 9100 6100
Wire Wire Line
	8650 6300 9100 6300
Wire Wire Line
	8650 6400 9100 6400
Wire Wire Line
	8650 6600 9100 6600
Wire Wire Line
	6650 1550 6650 1450
Wire Wire Line
	6200 1550 6950 1550
Wire Wire Line
	6200 1550 6200 1450
Wire Wire Line
	6400 1550 6400 1600
Connection ~ 6400 1550
Wire Wire Line
	6650 950  6650 1050
Wire Wire Line
	6200 950  6950 950 
Wire Wire Line
	6200 950  6200 1050
Wire Wire Line
	6400 950  6400 850 
Connection ~ 6400 950 
Wire Wire Line
	6950 950  6950 1050
Connection ~ 6650 950 
Wire Wire Line
	6950 1550 6950 1450
Connection ~ 6650 1550
Wire Wire Line
	5450 4200 5050 4200
Wire Wire Line
	4350 4200 4650 4200
Wire Wire Line
	4600 4300 4600 4200
Connection ~ 4600 4200
Wire Wire Line
	5450 4100 5300 4100
Wire Wire Line
	5300 4100 5300 4950
Wire Wire Line
	4050 4900 5300 4900
Wire Wire Line
	4600 4800 4600 4900
Connection ~ 4600 4900
Wire Wire Line
	5450 4300 5300 4300
Connection ~ 5300 4300
Wire Wire Line
	5450 4400 5300 4400
Connection ~ 5300 4400
Connection ~ 5300 4900
Wire Wire Line
	4000 4400 4000 4500
Wire Wire Line
	4000 4500 4100 4500
Wire Wire Line
	4100 4500 4100 4400
Wire Wire Line
	4050 4900 4050 4500
Connection ~ 4050 4500
Wire Wire Line
	9800 6000 9800 6500
Wire Wire Line
	9800 6500 9950 6500
Wire Wire Line
	1200 7400 1200 7600
Connection ~ 1200 7600
Wire Wire Line
	1400 7600 1400 7400
Wire Wire Line
	10000 850  10400 850 
Wire Wire Line
	10400 1250 10000 1250
Wire Wire Line
	4200 950  4200 900 
Connection ~ 4200 900 
Wire Wire Line
	4200 1350 4200 1500
Wire Wire Line
	4200 1500 4050 1500
Connection ~ 4050 1600
Wire Wire Line
	2750 6950 2150 6950
Wire Wire Line
	2750 7050 2150 7050
Wire Wire Line
	7750 6500 7750 6000
Wire Wire Line
	7750 6000 8150 6000
Wire Wire Line
	6050 6100 5700 6100
Wire Wire Line
	6150 6100 6150 6000
Wire Wire Line
	6150 6000 5700 6000
Wire Wire Line
	8150 6100 7850 6100
Wire Wire Line
	7850 6100 7850 6500
Wire Wire Line
	6950 5300 6950 5750
Wire Wire Line
	7050 5300 7050 5750
Wire Wire Line
	7150 5300 7150 5750
Wire Wire Line
	7250 5300 7250 5750
Wire Wire Line
	7350 5300 7350 5750
Wire Wire Line
	7450 5300 7450 5750
Wire Wire Line
	7550 5300 7550 5750
Wire Wire Line
	7650 5300 7650 5750
Wire Wire Line
	6950 6050 6950 6500
Wire Wire Line
	7050 6050 7050 6500
Wire Wire Line
	7150 6050 7150 6500
Wire Wire Line
	7250 6050 7250 6500
Wire Wire Line
	7350 6050 7350 6500
Wire Wire Line
	7450 6050 7450 6500
Wire Wire Line
	7550 6050 7550 6500
Wire Wire Line
	7650 6050 7650 6500
Text Label 6950 5750 1    60   ~ 0
IO1
Text Label 7050 5750 1    60   ~ 0
IO2
Text Label 7150 5750 1    60   ~ 0
IO3
Text Label 7250 5750 1    60   ~ 0
IO4
Text Label 7350 5750 1    60   ~ 0
IO5
Text Label 7450 5750 1    60   ~ 0
IO6
Text Label 7550 5750 1    60   ~ 0
IO7
Text Label 7650 5750 1    60   ~ 0
IO8
Text Label 7650 6050 3    60   ~ 0
IO8
Text Label 7450 6050 3    60   ~ 0
IO7
Text Label 7250 6050 3    60   ~ 0
IO6
Text Label 7050 6050 3    60   ~ 0
IO5
Text Label 6950 6050 3    60   ~ 0
IO4
Text Label 7150 6050 3    60   ~ 0
IO3
Text Label 7350 6050 3    60   ~ 0
IO2
Text Label 7550 6050 3    60   ~ 0
IO1
Text Label 6150 5850 1    60   ~ 0
GND
Text Notes 1600 5800 0    60   ~ 0
AT45DB161D - wycofany
Text Notes 3050 5800 0    60   ~ 0
2MB
Text Label 7350 2550 3    60   ~ 0
AVDDOUT
Text Notes 1600 5900 0    60   ~ 0
AT45DB161E-SHD-B
Text Notes 3050 5900 0    60   ~ 0
2MB
Text Notes 8200 5300 0    60   ~ 0
PE6:T3:INT6\nPD7:T0
$Comp
L BTM-222 B?
U 1 1 54EB7227
P 9500 1800
F 0 "B?" H 10150 2400 60  0000 C CNN
F 1 "BTM-222" H 10300 2300 60  0000 C CNN
F 2 "~" H 10100 2450 60  0000 C CNN
F 3 "~" H 10100 2450 60  0000 C CNN
	1    9500 1800
	0    1    1    0   
$EndComp
Wire Wire Line
	9500 1800 9400 1800
Wire Wire Line
	9400 1800 9400 3650
Wire Wire Line
	9500 3600 9400 3600
Connection ~ 9400 3600
Wire Wire Line
	9500 3500 9400 3500
Connection ~ 9400 3500
Wire Wire Line
	9500 2700 9400 2700
Connection ~ 9400 2700
Wire Wire Line
	10750 1800 10850 1800
Wire Wire Line
	10850 1800 10850 3650
Wire Wire Line
	10750 2700 10850 2700
Connection ~ 10850 2700
$Comp
L GND #PWR?
U 1 1 54EE20C9
P 9400 3650
F 0 "#PWR?" H 9400 3650 30  0001 C CNN
F 1 "GND" H 9400 3580 30  0001 C CNN
F 2 "" H 9400 3650 60  0000 C CNN
F 3 "" H 9400 3650 60  0000 C CNN
	1    9400 3650
	1    0    0    -1  
$EndComp
$Comp
L GND #PWR?
U 1 1 54EE20D8
P 10850 3650
F 0 "#PWR?" H 10850 3650 30  0001 C CNN
F 1 "GND" H 10850 3580 30  0001 C CNN
F 2 "" H 10850 3650 60  0000 C CNN
F 3 "" H 10850 3650 60  0000 C CNN
	1    10850 3650
	1    0    0    -1  
$EndComp
$Comp
L UFL U?
U 1 1 54EE20E7
P 11000 1150
F 0 "U?" H 11000 1300 60  0000 C CNN
F 1 "UFL" H 11000 1375 60  0000 C CNN
F 2 "~" H 11000 1150 60  0000 C CNN
F 3 "~" H 11000 1150 60  0000 C CNN
	1    11000 1150
	0    1    1    0   
$EndComp
Wire Wire Line
	11000 1450 11000 1900
Wire Wire Line
	11000 1900 10750 1900
Wire Wire Line
	10800 1100 10700 1100
Wire Wire Line
	10700 1100 10700 1350
Wire Wire Line
	10800 1200 10700 1200
Connection ~ 10700 1200
$Comp
L GND #PWR?
U 1 1 54EE2406
P 10700 1350
F 0 "#PWR?" H 10700 1350 30  0001 C CNN
F 1 "GND" H 10700 1280 30  0001 C CNN
F 2 "" H 10700 1350 60  0000 C CNN
F 3 "" H 10700 1350 60  0000 C CNN
	1    10700 1350
	1    0    0    -1  
$EndComp
Wire Wire Line
	10750 2600 11150 2600
Wire Wire Line
	11150 2800 10750 2800
Wire Wire Line
	11150 2900 10750 2900
Wire Wire Line
	11150 3000 10750 3000
Wire Wire Line
	9500 1900 9250 1900
Wire Wire Line
	9500 3400 9250 3400
$Comp
L VCC #PWR?
U 1 1 54EE2848
P 9250 1900
F 0 "#PWR?" H 9250 2000 30  0001 C CNN
F 1 "VCC" H 9250 2000 30  0000 C CNN
F 2 "" H 9250 1900 60  0000 C CNN
F 3 "" H 9250 1900 60  0000 C CNN
	1    9250 1900
	0    -1   -1   0   
$EndComp
$Comp
L VCC #PWR?
U 1 1 54EE2857
P 9250 3400
F 0 "#PWR?" H 9250 3500 30  0001 C CNN
F 1 "VCC" H 9250 3500 30  0000 C CNN
F 2 "" H 9250 3400 60  0000 C CNN
F 3 "" H 9250 3400 60  0000 C CNN
	1    9250 3400
	0    -1   -1   0   
$EndComp
Wire Wire Line
	9500 3300 9100 3300
Text Label 11150 3000 2    60   ~ 0
IO2
Text Label 11150 2900 2    60   ~ 0
IO3
Text Label 11150 2800 2    60   ~ 0
IO1
Text Label 11150 2600 2    60   ~ 0
IO5
Text Label 9100 3300 0    60   ~ 0
IO8
Text Notes 8700 4900 0    60   ~ 0
O modulach BTM-222\nhttp://www.elektroda.pl/rtvforum/topic1433390.html
Text Notes 2100 650  0    60   ~ 0
zmienic na MAX639CSA+ lepsza efektywnosc
Text Label 2950 3450 2    60   ~ 0
AVDDOUT
Wire Wire Line
	1950 3450 2950 3450
$EndSCHEMATC
