PCBNEW-LibModule-V1  wto, 1 kwi 2014, 13:42:52
# encoding utf-8
$INDEX
uSDCARD
$EndINDEX
$MODULE uSDCARD
Po 0 0 0 15 4FF81882 533AA622 ~~
Li uSDCARD
Sc 533AA622
AR /4FF166F4/4FF16DE0
Op 0 0 0
T0 0 6299 600 600 0 120 N V 21 N "C6"
T1 0 -1339 600 600 0 120 N V 21 N "SD-CARD-CON"
DS -2835 4803 -2835 7480 150 21
DS -2835 7480 2756 7480 150 21
DS 2756 7480 2756 4803 150 21
DS -2835 0 -2835 4803 150 21
DS -2835 4803 2756 4803 150 21
DS 2756 4803 2756 0 150 21
DS -2835 0 2756 0 150 21
$PAD
Sh "1" R 276 787 0 0 0
Dr 0 0 0
At SMD N 00888000
Ne 0 ""
Po 1161 -394
$EndPAD
$PAD
Sh "2" R 276 787 0 0 0
Dr 0 0 0
At SMD N 00888000
Ne 6 "/Mini_front_panel/~SD_SEL"
Po 728 -394
$EndPAD
$PAD
Sh "3" R 276 787 0 0 0
Dr 0 0 0
At SMD N 00888000
Ne 2 "/Mini_front_panel/SD_MISO"
Po 295 -394
$EndPAD
$PAD
Sh "4" R 276 787 0 0 0
Dr 0 0 0
At SMD N 00888000
Ne 1 "+3.3V"
Po -138 -394
$EndPAD
$PAD
Sh "5" R 276 787 0 0 0
Dr 0 0 0
At SMD N 00888000
Ne 4 "/Mini_front_panel/SD_SCK"
Po -571 -394
$EndPAD
$PAD
Sh "6" R 276 787 0 0 0
Dr 0 0 0
At SMD N 00888000
Ne 7 "GND"
Po -1004 -394
$EndPAD
$PAD
Sh "7" R 276 787 0 0 0
Dr 0 0 0
At SMD N 00888000
Ne 3 "/Mini_front_panel/SD_MOSI"
Po -1437 -394
$EndPAD
$PAD
Sh "8" R 276 787 0 0 0
Dr 0 0 0
At SMD N 00888000
Ne 0 ""
Po -1870 -394
$EndPAD
$PAD
Sh "9" R 276 787 0 0 0
Dr 0 0 0
At SMD N 00888000
Ne 5 "/Mini_front_panel/~SDCARD_INSERTED"
Po 1594 -394
$EndPAD
$PAD
Sh "10" R 276 787 0 0 0
Dr 0 0 0
At SMD N 00888000
Ne 7 "GND"
Po 2027 -394
$EndPAD
$PAD
Sh "100" C 748 748 0 0 0
Dr 591 0 0
At STD N 00E0FFFF
Ne 7 "GND"
Po -1969 1024
$EndPAD
$PAD
Sh "101" C 748 748 0 0 0
Dr 591 0 0
At STD N 00E0FFFF
Ne 7 "GND"
Po 1969 1024
$EndPAD
$PAD
Sh "102" R 472 787 0 0 0
Dr 0 0 0
At SMD N 00888000
Ne 7 "GND"
Po -2638 2913
$EndPAD
$PAD
Sh "103" R 472 787 0 0 0
Dr 0 0 0
At SMD N 00888000
Ne 7 "GND"
Po 2638 2913
$EndPAD
$EndMODULE  uSDCARD
$EndLIBRARY
