PCBNEW-LibModule-V1  2014-03-17 20:53:03
# encoding utf-8
Units mm
$INDEX
ZL322-2X5P
$EndINDEX
$MODULE ZL322-2X5P
Po 0 0 0 15 53275246 00000000 ~~
Li ZL322-2X5P
Sc 0
AR 
Op 0 0 0
T0 -1.905 -2.54 1.5 1.5 0 0.15 N V 21 N "ZL322-2X5P"
T1 -1.905 7.62 1.5 1.5 0 0.15 N V 21 N "VAL**"
DS 0.635 1.27 -0.635 1.27 0.15 21
DS -0.635 1.27 -0.635 -0.635 0.15 21
DS 0.635 -0.635 0.635 5.715 0.15 21
DS 0.635 5.715 -5.715 5.715 0.15 21
DS -5.715 5.715 -5.715 -0.635 0.15 21
DS -5.715 -0.635 0.635 -0.635 0.15 21
$PAD
Sh "1" R 0.8 3.2 0 0 0
Dr 0 0 0
At SMD N 00888000
Ne 0 ""
Po 0 0
$EndPAD
$PAD
Sh "2" O 0.8 3.2 0 0 0
Dr 0 0 0
At SMD N 00888000
Ne 0 ""
Po 0 4.826
$EndPAD
$PAD
Sh "3" O 0.8 3.2 0 0 0
Dr 0 0 0
At SMD N 00888000
Ne 0 ""
Po -1.27 0
$EndPAD
$PAD
Sh "4" O 0.8 3.2 0 0 0
Dr 0 0 0
At SMD N 00888000
Ne 0 ""
Po -1.27 4.826
$EndPAD
$PAD
Sh "5" O 0.8 3.2 0 0 0
Dr 0 0 0
At SMD N 00888000
Ne 0 ""
Po -2.54 0
$EndPAD
$PAD
Sh "6" O 0.8 3.2 0 0 0
Dr 0 0 0
At SMD N 00888000
Ne 0 ""
Po -2.54 4.826
$EndPAD
$PAD
Sh "7" O 0.8 3.2 0 0 0
Dr 0 0 0
At SMD N 00888000
Ne 0 ""
Po -3.81 0
$EndPAD
$PAD
Sh "8" O 0.8 3.2 0 0 0
Dr 0 0 0
At SMD N 00888000
Ne 0 ""
Po -3.81 4.826
$EndPAD
$PAD
Sh "9" O 0.8 3.2 0 0 0
Dr 0 0 0
At SMD N 00888000
Ne 0 ""
Po -5.08 0
$EndPAD
$PAD
Sh "10" O 0.8 3.2 0 0 0
Dr 0 0 0
At SMD N 00888000
Ne 0 ""
Po -5.08 4.826
$EndPAD
$EndMODULE ZL322-2X5P
$EndLIBRARY
